EESchema Schematic File Version 2
LIBS:power
LIBS:device
LIBS:transistors
LIBS:conn
LIBS:linear
LIBS:regul
LIBS:74xx
LIBS:cmos4000
LIBS:adc-dac
LIBS:memory
LIBS:xilinx
LIBS:special
LIBS:microcontrollers
LIBS:dsp
LIBS:microchip
LIBS:analog_switches
LIBS:motorola
LIBS:texas
LIBS:intel
LIBS:audio
LIBS:interface
LIBS:digital-audio
LIBS:philips
LIBS:display
LIBS:cypress
LIBS:siliconi
LIBS:opto
LIBS:atmel
LIBS:contrib
LIBS:valves
LIBS:ORANGE-cache
EELAYER 27 0
EELAYER END
$Descr A4 11693 8268
encoding utf-8
Sheet 1 1
Title ""
Date "11 apr 2014"
Rev ""
Comp ""
Comment1 ""
Comment2 ""
Comment3 ""
Comment4 ""
$EndDescr
$Comp
L ATTINY85-P IC1
U 1 1 53458906
P 4250 4450
F 0 "IC1" H 3200 4850 60  0000 C CNN
F 1 "ATTINY85-P" H 5100 4050 60  0000 C CNN
F 2 "DIP8" H 3200 4050 60  0001 C CNN
F 3 "" H 4250 4450 60  0000 C CNN
	1    4250 4450
	1    0    0    -1  
$EndComp
$Comp
L +5V #PWR4
U 1 1 53458943
P 5700 4200
F 0 "#PWR4" H 5700 4290 20  0001 C CNN
F 1 "+5V" H 5700 4290 30  0000 C CNN
F 2 "" H 5700 4200 60  0000 C CNN
F 3 "" H 5700 4200 60  0000 C CNN
	1    5700 4200
	0    1    1    0   
$EndComp
$Comp
L GND #PWR5
U 1 1 53458954
P 5750 4700
F 0 "#PWR5" H 5750 4700 30  0001 C CNN
F 1 "GND" H 5750 4630 30  0001 C CNN
F 2 "" H 5750 4700 60  0000 C CNN
F 3 "" H 5750 4700 60  0000 C CNN
	1    5750 4700
	0    -1   -1   0   
$EndComp
$Comp
L R R1
U 1 1 53458AA9
P 2150 4200
F 0 "R1" V 2230 4200 40  0000 C CNN
F 1 "220R" V 2157 4201 40  0000 C CNN
F 2 "~" V 2080 4200 30  0000 C CNN
F 3 "~" H 2150 4200 30  0000 C CNN
	1    2150 4200
	0    -1   -1   0   
$EndComp
$Comp
L R R2
U 1 1 53458AB8
P 2150 4400
F 0 "R2" V 2230 4400 40  0000 C CNN
F 1 "220R" V 2157 4401 40  0000 C CNN
F 2 "~" V 2080 4400 30  0000 C CNN
F 3 "~" H 2150 4400 30  0000 C CNN
	1    2150 4400
	0    -1   -1   0   
$EndComp
$Comp
L R R3
U 1 1 53458AF6
P 2550 3900
F 0 "R3" V 2630 3900 40  0000 C CNN
F 1 "1000R" V 2557 3901 40  0000 C CNN
F 2 "~" V 2480 3900 30  0000 C CNN
F 3 "~" H 2550 3900 30  0000 C CNN
	1    2550 3900
	1    0    0    -1  
$EndComp
$Comp
L +5V #PWR3
U 1 1 53458BCA
P 2550 3650
F 0 "#PWR3" H 2550 3740 20  0001 C CNN
F 1 "+5V" H 2550 3740 30  0000 C CNN
F 2 "" H 2550 3650 60  0000 C CNN
F 3 "" H 2550 3650 60  0000 C CNN
	1    2550 3650
	1    0    0    -1  
$EndComp
$Comp
L DIODESCH D3v1
U 1 1 53458BE8
P 1250 4700
F 0 "D3v1" H 1250 4800 40  0000 C CNN
F 1 "DIODESCH" H 1250 4600 40  0000 C CNN
F 2 "~" H 1250 4700 60  0000 C CNN
F 3 "~" H 1250 4700 60  0000 C CNN
	1    1250 4700
	0    -1   -1   0   
$EndComp
$Comp
L DIODESCH D3v2
U 1 1 53458BF7
P 1550 4700
F 0 "D3v2" H 1550 4800 40  0000 C CNN
F 1 "DIODESCH" H 1550 4600 40  0000 C CNN
F 2 "~" H 1550 4700 60  0000 C CNN
F 3 "~" H 1550 4700 60  0000 C CNN
	1    1550 4700
	0    -1   -1   0   
$EndComp
$Comp
L GND #PWR2
U 1 1 53458C30
P 1550 4900
F 0 "#PWR2" H 1550 4900 30  0001 C CNN
F 1 "GND" H 1550 4830 30  0001 C CNN
F 2 "" H 1550 4900 60  0000 C CNN
F 3 "" H 1550 4900 60  0000 C CNN
	1    1550 4900
	1    0    0    -1  
$EndComp
$Comp
L GND #PWR1
U 1 1 53458C3F
P 1250 4900
F 0 "#PWR1" H 1250 4900 30  0001 C CNN
F 1 "GND" H 1250 4830 30  0001 C CNN
F 2 "" H 1250 4900 60  0000 C CNN
F 3 "" H 1250 4900 60  0000 C CNN
	1    1250 4900
	1    0    0    -1  
$EndComp
Text GLabel 1000 4200 0    60   Input ~ 0
D-
Text GLabel 1000 4400 0    60   Input ~ 0
D+
Wire Wire Line
	5600 4700 5750 4700
Wire Wire Line
	5700 4200 5600 4200
Wire Wire Line
	1000 4400 1900 4400
Wire Wire Line
	1000 4200 1900 4200
Connection ~ 2300 4200
Wire Wire Line
	1550 4400 1550 4500
Connection ~ 1550 4400
Wire Wire Line
	1250 4200 1250 4500
Connection ~ 1250 4200
Wire Wire Line
	2400 4200 2900 4200
Wire Wire Line
	2550 4200 2550 4150
Connection ~ 2550 4200
Wire Wire Line
	2400 4400 2900 4400
Connection ~ 2700 4400
$EndSCHEMATC
