M48
INCH,TZ
T1C0.032
%
G90
G05
T1
X30800Y-26700
X30800Y-29700
X31175Y-32400
X31175Y-35400
X31300Y-31000
X32000Y-26700
X32000Y-29700
X32175Y-32400
X32175Y-35400
X33175Y-32400
X33175Y-35400
X33200Y-26700
X33200Y-29700
X34175Y-32400
X34175Y-35400
X34300Y-31000
X34400Y-26700
X34400Y-29700
T0
M30
