EESchema Schematic File Version 4
LIBS:ELC-cache
EELAYER 29 0
EELAYER END
$Descr A2 23386 16535
encoding utf-8
Sheet 1 1
Title ""
Date ""
Rev ""
Comp ""
Comment1 ""
Comment2 ""
Comment3 ""
Comment4 ""
$EndDescr
$Comp
L ELC-rescue:LD1117S33TR-ELC-rescue U2
U 1 1 56D99D86
P 21450 2400
F 0 "U2" H 21450 2650 40  0000 C CNN
F 1 "LD1117S33TR" H 21450 2600 40  0000 C CNN
F 2 "TO_SOT_Packages_SMD:SOT-223" H 21450 2500 40  0000 C CNN
F 3 "" H 21450 2400 60  0000 C CNN
	1    21450 2400
	1    0    0    -1  
$EndComp
$Comp
L Device:C C41
U 1 1 56D99E14
P 20850 2550
F 0 "C41" H 20875 2650 50  0000 L CNN
F 1 "100nF" H 20875 2450 50  0000 L CNN
F 2 "Capacitors_SMD:C_0805_HandSoldering" H 20888 2400 30  0001 C CNN
F 3 "" H 20850 2550 60  0000 C CNN
	1    20850 2550
	1    0    0    -1  
$EndComp
$Comp
L Device:C C44
U 1 1 56D99E39
P 22000 2550
F 0 "C44" H 22025 2650 50  0000 L CNN
F 1 "10uF" H 22025 2450 50  0000 L CNN
F 2 "Capacitors_SMD:C_0805_HandSoldering" H 22038 2400 30  0001 C CNN
F 3 "" H 22000 2550 60  0000 C CNN
	1    22000 2550
	1    0    0    -1  
$EndComp
$Comp
L power:GND #PWR01
U 1 1 56D99E54
P 21450 2850
F 0 "#PWR01" H 21450 2600 50  0001 C CNN
F 1 "GND" H 21450 2700 50  0000 C CNN
F 2 "" H 21450 2850 60  0000 C CNN
F 3 "" H 21450 2850 60  0000 C CNN
	1    21450 2850
	1    0    0    -1  
$EndComp
$Comp
L power:+3.3V #PWR02
U 1 1 56D99F32
P 22100 2300
F 0 "#PWR02" H 22100 2150 50  0001 C CNN
F 1 "+3.3V" H 22100 2440 50  0000 C CNN
F 2 "" H 22100 2300 60  0000 C CNN
F 3 "" H 22100 2300 60  0000 C CNN
	1    22100 2300
	1    0    0    -1  
$EndComp
$Comp
L power:+5V #PWR03
U 1 1 56D99F4C
P 20700 2300
F 0 "#PWR03" H 20700 2150 50  0001 C CNN
F 1 "+5V" H 20700 2440 50  0000 C CNN
F 2 "" H 20700 2300 60  0000 C CNN
F 3 "" H 20700 2300 60  0000 C CNN
	1    20700 2300
	1    0    0    -1  
$EndComp
$Comp
L ELC-rescue:LP2985LV-ELC-rescue U1
U 1 1 56D99F72
P 21400 3800
F 0 "U1" H 21600 3350 60  0000 C CNN
F 1 "LP2985A-18DBVJ" H 21400 4250 60  0000 C CNN
F 2 "TO_SOT_Packages_SMD:SOT-23-5" H 21400 3800 60  0001 C CNN
F 3 "" H 21400 3800 60  0000 C CNN
	1    21400 3800
	1    0    0    -1  
$EndComp
$Comp
L power:+3.3V #PWR04
U 1 1 56D9A036
P 20450 3450
F 0 "#PWR04" H 20450 3300 50  0001 C CNN
F 1 "+3.3V" H 20450 3590 50  0000 C CNN
F 2 "" H 20450 3450 60  0000 C CNN
F 3 "" H 20450 3450 60  0000 C CNN
	1    20450 3450
	1    0    0    -1  
$EndComp
$Comp
L power:+1V8 #PWR05
U 1 1 56D9A286
P 22600 3450
F 0 "#PWR05" H 22600 3300 50  0001 C CNN
F 1 "+1V8" H 22600 3590 50  0000 C CNN
F 2 "" H 22600 3450 60  0000 C CNN
F 3 "" H 22600 3450 60  0000 C CNN
	1    22600 3450
	1    0    0    -1  
$EndComp
$Comp
L power:GND #PWR06
U 1 1 56D9A388
P 21400 4600
F 0 "#PWR06" H 21400 4350 50  0001 C CNN
F 1 "GND" H 21400 4450 50  0000 C CNN
F 2 "" H 21400 4600 60  0000 C CNN
F 3 "" H 21400 4600 60  0000 C CNN
	1    21400 4600
	1    0    0    -1  
$EndComp
$Comp
L Device:C C39
U 1 1 56D9A4FC
P 20300 3850
F 0 "C39" H 20325 3950 50  0000 L CNN
F 1 "1uF" H 20325 3750 50  0000 L CNN
F 2 "Capacitors_SMD:C_0805_HandSoldering" H 20338 3700 30  0001 C CNN
F 3 "" H 20300 3850 60  0000 C CNN
	1    20300 3850
	1    0    0    -1  
$EndComp
$Comp
L power:GND #PWR07
U 1 1 56D9A6AF
P 20300 4050
F 0 "#PWR07" H 20300 3800 50  0001 C CNN
F 1 "GND" H 20300 3900 50  0000 C CNN
F 2 "" H 20300 4050 60  0000 C CNN
F 3 "" H 20300 4050 60  0000 C CNN
	1    20300 4050
	1    0    0    -1  
$EndComp
NoConn ~ 20600 4000
$Comp
L power:GND #PWR08
U 1 1 56D9A757
P 22300 4150
F 0 "#PWR08" H 22300 3900 50  0001 C CNN
F 1 "GND" H 22300 4000 50  0000 C CNN
F 2 "" H 22300 4150 60  0000 C CNN
F 3 "" H 22300 4150 60  0000 C CNN
	1    22300 4150
	1    0    0    -1  
$EndComp
$Comp
L ELC-rescue:USB_OTG-ELC-rescue P3
U 1 1 56D9A1CE
P 22100 750
F 0 "P3" H 22425 625 50  0000 C CNN
F 1 "USB_OTG" H 22100 950 50  0000 C CNN
F 2 "USB:USBMiniTypeB90TroughHole" V 22050 650 60  0001 C CNN
F 3 "" V 22050 650 60  0000 C CNN
	1    22100 750 
	1    0    0    -1  
$EndComp
$Comp
L power:+5V #PWR09
U 1 1 56D9A698
P 21700 1000
F 0 "#PWR09" H 21700 850 50  0001 C CNN
F 1 "+5V" H 21700 1140 50  0000 C CNN
F 2 "" H 21700 1000 60  0000 C CNN
F 3 "" H 21700 1000 60  0000 C CNN
	1    21700 1000
	1    0    0    -1  
$EndComp
$Comp
L power:GND #PWR010
U 1 1 56D9A727
P 22700 750
F 0 "#PWR010" H 22700 500 50  0001 C CNN
F 1 "GND" H 22700 600 50  0000 C CNN
F 2 "" H 22700 750 60  0000 C CNN
F 3 "" H 22700 750 60  0000 C CNN
	1    22700 750 
	1    0    0    -1  
$EndComp
$Comp
L power:GND #PWR011
U 1 1 56D9C634
P 3850 12450
F 0 "#PWR011" H 3850 12200 50  0001 C CNN
F 1 "GND" H 3850 12300 50  0000 C CNN
F 2 "" H 3850 12450 60  0000 C CNN
F 3 "" H 3850 12450 60  0000 C CNN
	1    3850 12450
	1    0    0    -1  
$EndComp
$Comp
L power:+1V8 #PWR012
U 1 1 56D9C708
P 2800 2150
F 0 "#PWR012" H 2800 2000 50  0001 C CNN
F 1 "+1V8" H 2800 2290 50  0000 C CNN
F 2 "" H 2800 2150 60  0000 C CNN
F 3 "" H 2800 2150 60  0000 C CNN
	1    2800 2150
	1    0    0    -1  
$EndComp
$Comp
L Device:C C1
U 1 1 56D9D040
P 3000 1750
F 0 "C1" H 3025 1850 50  0000 L CNN
F 1 "100nF" H 2900 1750 50  0000 L CNN
F 2 "Capacitors_SMD:C_0805_HandSoldering" H 3038 1600 30  0001 C CNN
F 3 "" H 3000 1750 60  0000 C CNN
	1    3000 1750
	1    0    0    -1  
$EndComp
$Comp
L Device:C C3
U 1 1 56D9D0D4
P 3200 1750
F 0 "C3" H 3225 1850 50  0000 L CNN
F 1 "100nF" H 3100 1750 50  0000 L CNN
F 2 "Capacitors_SMD:C_0805_HandSoldering" H 3238 1600 30  0001 C CNN
F 3 "" H 3200 1750 60  0000 C CNN
	1    3200 1750
	1    0    0    -1  
$EndComp
$Comp
L Device:C C5
U 1 1 56D9D106
P 3400 1750
F 0 "C5" H 3425 1850 50  0000 L CNN
F 1 "100nF" H 3300 1750 50  0000 L CNN
F 2 "Capacitors_SMD:C_0805_HandSoldering" H 3438 1600 30  0001 C CNN
F 3 "" H 3400 1750 60  0000 C CNN
	1    3400 1750
	1    0    0    -1  
$EndComp
$Comp
L Device:C C4
U 1 1 56D9D13B
P 3300 1400
F 0 "C4" H 3325 1500 50  0000 L CNN
F 1 "100nF" H 3200 1400 50  0000 L CNN
F 2 "Capacitors_SMD:C_0805_HandSoldering" H 3338 1250 30  0001 C CNN
F 3 "" H 3300 1400 60  0000 C CNN
	1    3300 1400
	1    0    0    -1  
$EndComp
$Comp
L Device:C C2
U 1 1 56D9D1A9
P 3100 1400
F 0 "C2" H 3125 1500 50  0000 L CNN
F 1 "100nF" H 3000 1400 50  0000 L CNN
F 2 "Capacitors_SMD:C_0805_HandSoldering" H 3138 1250 30  0001 C CNN
F 3 "" H 3100 1400 60  0000 C CNN
	1    3100 1400
	1    0    0    -1  
$EndComp
$Comp
L power:GND #PWR013
U 1 1 56D9D427
P 2800 1350
F 0 "#PWR013" H 2800 1100 50  0001 C CNN
F 1 "GND" H 2800 1200 50  0000 C CNN
F 2 "" H 2800 1350 60  0000 C CNN
F 3 "" H 2800 1350 60  0000 C CNN
	1    2800 1350
	1    0    0    -1  
$EndComp
$Comp
L Device:C C6
U 1 1 56D9F84E
P 3600 1400
F 0 "C6" H 3625 1500 50  0000 L CNN
F 1 "100nF" H 3625 1300 50  0000 L CNN
F 2 "Capacitors_SMD:C_0805_HandSoldering" H 3638 1250 30  0001 C CNN
F 3 "" H 3600 1400 60  0000 C CNN
	1    3600 1400
	1    0    0    -1  
$EndComp
$Comp
L power:+3.3V #PWR014
U 1 1 56D9FD8F
P 5850 2100
F 0 "#PWR014" H 5850 1950 50  0001 C CNN
F 1 "+3.3V" H 5850 2240 50  0000 C CNN
F 2 "" H 5850 2100 60  0000 C CNN
F 3 "" H 5850 2100 60  0000 C CNN
	1    5850 2100
	1    0    0    -1  
$EndComp
$Comp
L Device:C C11
U 1 1 56DA06C4
P 4800 1750
F 0 "C11" H 4825 1850 50  0000 L CNN
F 1 "100nF" H 4700 1750 50  0000 L CNN
F 2 "Capacitors_SMD:C_0805_HandSoldering" H 4838 1600 30  0001 C CNN
F 3 "" H 4800 1750 60  0000 C CNN
	1    4800 1750
	1    0    0    -1  
$EndComp
$Comp
L Device:C C13
U 1 1 56DA06CA
P 5000 1750
F 0 "C13" H 5025 1850 50  0000 L CNN
F 1 "100nF" H 4900 1750 50  0000 L CNN
F 2 "Capacitors_SMD:C_0805_HandSoldering" H 5038 1600 30  0001 C CNN
F 3 "" H 5000 1750 60  0000 C CNN
	1    5000 1750
	1    0    0    -1  
$EndComp
$Comp
L Device:C C15
U 1 1 56DA06D0
P 5200 1750
F 0 "C15" H 5225 1850 50  0000 L CNN
F 1 "100nF" H 5100 1750 50  0000 L CNN
F 2 "Capacitors_SMD:C_0805_HandSoldering" H 5238 1600 30  0001 C CNN
F 3 "" H 5200 1750 60  0000 C CNN
	1    5200 1750
	1    0    0    -1  
$EndComp
$Comp
L Device:C C14
U 1 1 56DA06D6
P 5100 1400
F 0 "C14" H 5125 1500 50  0000 L CNN
F 1 "100nF" H 5000 1400 50  0000 L CNN
F 2 "Capacitors_SMD:C_0805_HandSoldering" H 5138 1250 30  0001 C CNN
F 3 "" H 5100 1400 60  0000 C CNN
	1    5100 1400
	1    0    0    -1  
$EndComp
$Comp
L Device:C C12
U 1 1 56DA06DC
P 4900 1400
F 0 "C12" H 4925 1500 50  0000 L CNN
F 1 "100nF" H 4800 1400 50  0000 L CNN
F 2 "Capacitors_SMD:C_0805_HandSoldering" H 4938 1250 30  0001 C CNN
F 3 "" H 4900 1400 60  0000 C CNN
	1    4900 1400
	1    0    0    -1  
$EndComp
$Comp
L Device:C C16
U 1 1 56DA08BB
P 5300 1400
F 0 "C16" H 5325 1500 50  0000 L CNN
F 1 "100nF" H 5200 1400 50  0000 L CNN
F 2 "Capacitors_SMD:C_0805_HandSoldering" H 5338 1250 30  0001 C CNN
F 3 "" H 5300 1400 60  0000 C CNN
	1    5300 1400
	1    0    0    -1  
$EndComp
$Comp
L Device:C C17
U 1 1 56DA0A5D
P 5400 1750
F 0 "C17" H 5425 1850 50  0000 L CNN
F 1 "100nF" H 5300 1750 50  0000 L CNN
F 2 "Capacitors_SMD:C_0805_HandSoldering" H 5438 1600 30  0001 C CNN
F 3 "" H 5400 1750 60  0000 C CNN
	1    5400 1750
	1    0    0    -1  
$EndComp
$Comp
L Device:C C18
U 1 1 56DA0A75
P 5550 1400
F 0 "C18" H 5575 1500 50  0000 L CNN
F 1 "100nF" H 5450 1400 50  0000 L CNN
F 2 "Capacitors_SMD:C_0805_HandSoldering" H 5588 1250 30  0001 C CNN
F 3 "" H 5550 1400 60  0000 C CNN
	1    5550 1400
	1    0    0    -1  
$EndComp
$Comp
L power:GND #PWR015
U 1 1 56DA15DE
P 5850 1250
F 0 "#PWR015" H 5850 1000 50  0001 C CNN
F 1 "GND" H 5850 1100 50  0000 C CNN
F 2 "" H 5850 1250 60  0000 C CNN
F 3 "" H 5850 1250 60  0000 C CNN
	1    5850 1250
	1    0    0    -1  
$EndComp
$Comp
L Device:C C7
U 1 1 56DA1B61
P 4250 1750
F 0 "C7" H 4275 1850 50  0000 L CNN
F 1 "100nF" H 4150 1750 50  0000 L CNN
F 2 "Capacitors_SMD:C_0805_HandSoldering" H 4288 1600 30  0001 C CNN
F 3 "" H 4250 1750 60  0000 C CNN
	1    4250 1750
	1    0    0    -1  
$EndComp
$Comp
L Device:C C9
U 1 1 56DA1B67
P 4450 1750
F 0 "C9" H 4475 1850 50  0000 L CNN
F 1 "100nF" H 4350 1750 50  0000 L CNN
F 2 "Capacitors_SMD:C_0805_HandSoldering" H 4488 1600 30  0001 C CNN
F 3 "" H 4450 1750 60  0000 C CNN
	1    4450 1750
	1    0    0    -1  
$EndComp
$Comp
L Device:C C10
U 1 1 56DA1B6D
P 4550 1400
F 0 "C10" H 4575 1500 50  0000 L CNN
F 1 "100nF" H 4450 1400 50  0000 L CNN
F 2 "Capacitors_SMD:C_0805_HandSoldering" H 4588 1250 30  0001 C CNN
F 3 "" H 4550 1400 60  0000 C CNN
	1    4550 1400
	1    0    0    -1  
$EndComp
$Comp
L Device:C C8
U 1 1 56DA1B73
P 4350 1400
F 0 "C8" H 4375 1500 50  0000 L CNN
F 1 "100nF" H 4250 1400 50  0000 L CNN
F 2 "Capacitors_SMD:C_0805_HandSoldering" H 4388 1250 30  0001 C CNN
F 3 "" H 4350 1400 60  0000 C CNN
	1    4350 1400
	1    0    0    -1  
$EndComp
$Comp
L power:+3.3V #PWR016
U 1 1 56DA4BDD
P 15450 750
F 0 "#PWR016" H 15450 600 50  0001 C CNN
F 1 "+3.3V" H 15450 890 50  0000 C CNN
F 2 "" H 15450 750 60  0000 C CNN
F 3 "" H 15450 750 60  0000 C CNN
	1    15450 750 
	1    0    0    -1  
$EndComp
$Comp
L Device:C C32
U 1 1 56DA56F5
P 15100 850
F 0 "C32" H 15125 950 50  0000 L CNN
F 1 "100nF" H 14950 850 50  0000 L CNN
F 2 "Capacitors_SMD:C_0805_HandSoldering" H 15138 700 30  0001 C CNN
F 3 "" H 15100 850 60  0000 C CNN
	1    15100 850 
	0    1    1    0   
$EndComp
$Comp
L Device:C C29
U 1 1 56DA5828
P 14700 950
F 0 "C29" H 14725 1050 50  0000 L CNN
F 1 "100nF" H 14550 950 50  0000 L CNN
F 2 "Capacitors_SMD:C_0805_HandSoldering" H 14738 800 30  0001 C CNN
F 3 "" H 14700 950 60  0000 C CNN
	1    14700 950 
	0    1    1    0   
$EndComp
$Comp
L Device:C C33
U 1 1 56DA5D26
P 15100 1050
F 0 "C33" H 15125 1150 50  0000 L CNN
F 1 "100nF" H 14950 1050 50  0000 L CNN
F 2 "Capacitors_SMD:C_0805_HandSoldering" H 15138 900 30  0001 C CNN
F 3 "" H 15100 1050 60  0000 C CNN
	1    15100 1050
	0    1    1    0   
$EndComp
$Comp
L Device:C C30
U 1 1 56DA5D2C
P 14700 1150
F 0 "C30" H 14725 1250 50  0000 L CNN
F 1 "100nF" H 14550 1150 50  0000 L CNN
F 2 "Capacitors_SMD:C_0805_HandSoldering" H 14738 1000 30  0001 C CNN
F 3 "" H 14700 1150 60  0000 C CNN
	1    14700 1150
	0    1    1    0   
$EndComp
$Comp
L Device:C C34
U 1 1 56DA5EA5
P 15100 1250
F 0 "C34" H 15125 1350 50  0000 L CNN
F 1 "100nF" H 14950 1250 50  0000 L CNN
F 2 "Capacitors_SMD:C_0805_HandSoldering" H 15138 1100 30  0001 C CNN
F 3 "" H 15100 1250 60  0000 C CNN
	1    15100 1250
	0    1    1    0   
$EndComp
$Comp
L Device:C C31
U 1 1 56DA5EAB
P 14700 1350
F 0 "C31" H 14725 1450 50  0000 L CNN
F 1 "100nF" H 14550 1350 50  0000 L CNN
F 2 "Capacitors_SMD:C_0805_HandSoldering" H 14738 1200 30  0001 C CNN
F 3 "" H 14700 1350 60  0000 C CNN
	1    14700 1350
	0    1    1    0   
$EndComp
$Comp
L Device:C C35
U 1 1 56DA5EB6
P 15100 1450
F 0 "C35" H 15125 1550 50  0000 L CNN
F 1 "100nF" H 14950 1450 50  0000 L CNN
F 2 "Capacitors_SMD:C_0805_HandSoldering" H 15138 1300 30  0001 C CNN
F 3 "" H 15100 1450 60  0000 C CNN
	1    15100 1450
	0    1    1    0   
$EndComp
Text GLabel 17600 2500 2    60   Input ~ 0
EBI_D
Text GLabel 17600 4150 2    60   Input ~ 0
EBI_A
Text Label 17050 2350 0    39   ~ 0
D15
Text Label 17050 2250 0    39   ~ 0
D14
Text Label 17050 2150 0    39   ~ 0
D13
Text Label 17050 2050 0    39   ~ 0
D12
Text Label 17050 1950 0    39   ~ 0
D11
Text Label 17050 1850 0    39   ~ 0
D10
Text Label 17050 1750 0    39   ~ 0
D9
Text Label 17050 1650 0    39   ~ 0
D8
Text Label 17050 1550 0    39   ~ 0
D7
Text Label 17050 1450 0    39   ~ 0
D6
Text Label 17050 1350 0    39   ~ 0
D5
Text Label 17050 1250 0    39   ~ 0
D4
Text Label 17050 1150 0    39   ~ 0
D3
Text Label 17050 1050 0    39   ~ 0
D2
Text Label 17050 950  0    39   ~ 0
D1
Text Label 17050 850  0    39   ~ 0
D0
$Comp
L power:GND #PWR017
U 1 1 56DB64C5
P 14500 1700
F 0 "#PWR017" H 14500 1450 50  0001 C CNN
F 1 "GND" H 14500 1550 50  0000 C CNN
F 2 "" H 14500 1700 60  0000 C CNN
F 3 "" H 14500 1700 60  0000 C CNN
	1    14500 1700
	1    0    0    -1  
$EndComp
Text GLabel 14250 2200 0    39   Input ~ 0
RAM_BUS
Text GLabel 6850 12050 2    39   Input ~ 0
EBI_D
Text Label 6400 10350 0    39   ~ 0
D0
Text Label 6400 10450 0    39   ~ 0
D1
Text Label 6400 10550 0    39   ~ 0
D2
Text Label 6400 10650 0    39   ~ 0
D3
Text Label 6400 10750 0    39   ~ 0
D4
Text Label 6400 10850 0    39   ~ 0
D5
Text Label 6400 10950 0    39   ~ 0
D6
Text Label 6400 11050 0    39   ~ 0
D7
Text Label 6400 11150 0    39   ~ 0
D8
Text Label 6400 11250 0    39   ~ 0
D9
Text Label 6400 11350 0    39   ~ 0
D10
Text Label 6400 11450 0    39   ~ 0
D11
Text Label 6400 11550 0    39   ~ 0
D12
Text Label 6400 11650 0    39   ~ 0
D13
Text Label 6400 11750 0    39   ~ 0
D14
Text Label 6400 11850 0    39   ~ 0
D15
Entry Wire Line
	14500 2400 14600 2500
Entry Wire Line
	14500 2550 14600 2650
Entry Wire Line
	14500 2650 14600 2750
Entry Wire Line
	14500 2750 14600 2850
Entry Wire Line
	14500 2850 14600 2950
Entry Wire Line
	14500 3100 14600 3200
Entry Wire Line
	14500 3000 14600 3100
Entry Wire Line
	17200 3950 17300 4050
Entry Wire Line
	17200 3850 17300 3950
Entry Wire Line
	17200 3650 17300 3750
Entry Wire Line
	17200 3550 17300 3650
Entry Wire Line
	17200 3450 17300 3550
Entry Wire Line
	17200 3350 17300 3450
Entry Wire Line
	17200 3250 17300 3350
Entry Wire Line
	17200 3150 17300 3250
Entry Wire Line
	17200 3050 17300 3150
Entry Wire Line
	17200 2950 17300 3050
Entry Wire Line
	17200 2850 17300 2950
Entry Wire Line
	17200 2750 17300 2850
Entry Wire Line
	17200 2650 17300 2750
Entry Wire Line
	17200 2550 17300 2650
Entry Wire Line
	17200 850  17300 950 
Entry Wire Line
	17200 950  17300 1050
Entry Wire Line
	17200 1050 17300 1150
Entry Wire Line
	17200 1150 17300 1250
Entry Wire Line
	17200 1250 17300 1350
Entry Wire Line
	17200 1350 17300 1450
Entry Wire Line
	17200 1450 17300 1550
Entry Wire Line
	17200 1550 17300 1650
Entry Wire Line
	17200 1650 17300 1750
Entry Wire Line
	17200 1750 17300 1850
Entry Wire Line
	17200 1850 17300 1950
Entry Wire Line
	17200 1950 17300 2050
Entry Wire Line
	17200 2050 17300 2150
Entry Wire Line
	17200 2150 17300 2250
Entry Wire Line
	17200 2250 17300 2350
Entry Wire Line
	17200 2350 17300 2450
Entry Wire Line
	6600 10350 6700 10450
Entry Wire Line
	6600 10450 6700 10550
Entry Wire Line
	6600 10550 6700 10650
Entry Wire Line
	6600 10650 6700 10750
Entry Wire Line
	6600 10750 6700 10850
Entry Wire Line
	6600 10850 6700 10950
Entry Wire Line
	6600 10950 6700 11050
Entry Wire Line
	6600 11050 6700 11150
Entry Wire Line
	6600 11150 6700 11250
Entry Wire Line
	6600 11250 6700 11350
Entry Wire Line
	6600 11350 6700 11450
Entry Wire Line
	6600 11450 6700 11550
Entry Wire Line
	6600 11550 6700 11650
Entry Wire Line
	6600 11650 6700 11750
Entry Wire Line
	6600 11750 6700 11850
Entry Wire Line
	6600 11850 6700 11950
$Comp
L power:GND #PWR018
U 1 1 56DC8DD3
P 7400 2700
F 0 "#PWR018" H 7400 2450 50  0001 C CNN
F 1 "GND" H 7400 2550 50  0000 C CNN
F 2 "" H 7400 2700 60  0000 C CNN
F 3 "" H 7400 2700 60  0000 C CNN
	1    7400 2700
	0    -1   -1   0   
$EndComp
$Comp
L Device:R R1
U 1 1 56DC8E2B
P 6800 2550
F 0 "R1" V 6880 2550 50  0000 C CNN
F 1 "1K" V 6800 2550 50  0000 C CNN
F 2 "Resistors_SMD:R_0805_HandSoldering" V 6730 2550 30  0001 C CNN
F 3 "" H 6800 2550 30  0000 C CNN
	1    6800 2550
	0    1    1    0   
$EndComp
$Comp
L Device:C C20
U 1 1 56DC8E8E
P 7150 2550
F 0 "C20" H 7175 2650 50  0000 L CNN
F 1 "10nF" H 7175 2450 50  0000 L CNN
F 2 "Capacitors_SMD:C_0805_HandSoldering" H 7188 2400 30  0001 C CNN
F 3 "" H 7150 2550 60  0000 C CNN
	1    7150 2550
	0    1    1    0   
$EndComp
$Comp
L Device:C C19
U 1 1 56DC8EEF
P 6950 2800
F 0 "C19" H 6975 2900 50  0000 L CNN
F 1 "1nF" H 6975 2700 50  0000 L CNN
F 2 "Capacitors_SMD:C_0805_HandSoldering" H 6988 2650 30  0001 C CNN
F 3 "" H 6950 2800 60  0000 C CNN
	1    6950 2800
	0    1    1    0   
$EndComp
Text Label 17050 2550 0    39   ~ 0
A2
Text Label 17050 2650 0    39   ~ 0
A3
Text Label 17050 2750 0    39   ~ 0
A4
Text Label 17050 2850 0    39   ~ 0
A5
Text Label 17050 2950 0    39   ~ 0
A6
Text Label 17050 3050 0    39   ~ 0
A7
Text Label 17050 3150 0    39   ~ 0
A8
Text Label 17050 3350 0    39   ~ 0
A10
Text Label 17050 3250 0    39   ~ 0
A9
Text Label 17050 3450 0    39   ~ 0
A11
Text Label 17050 3550 0    39   ~ 0
SDA10
Text Label 17050 3650 0    39   ~ 0
A13
Text Label 17050 3850 0    39   ~ 0
BA0
Text Label 17050 3950 0    39   ~ 0
BA1
Entry Wire Line
	1900 11050 2000 11150
Entry Wire Line
	1900 10750 2000 10850
Entry Wire Line
	1900 10650 2000 10750
Entry Wire Line
	1900 10550 2000 10650
Entry Wire Line
	1900 10450 2000 10550
Entry Wire Line
	1900 10350 2000 10450
Entry Wire Line
	1900 10250 2000 10350
Entry Wire Line
	1900 10150 2000 10250
Entry Wire Line
	1900 10050 2000 10150
Entry Wire Line
	1900 9950 2000 10050
Entry Wire Line
	1900 9850 2000 9950
Entry Wire Line
	1900 9650 2000 9750
Entry Wire Line
	1900 9350 2000 9450
Entry Wire Line
	1900 9250 2000 9350
Text GLabel 1750 9200 0    60   Input ~ 0
EBI_A
Text Label 2000 9350 0    39   ~ 0
BA1
Text Label 2000 9450 0    39   ~ 0
BA0
Text Label 2000 9750 0    39   ~ 0
A13
Text Label 2000 9950 0    39   ~ 0
A11
Text Label 2000 10050 0    39   ~ 0
A10
Text Label 2000 10150 0    39   ~ 0
A9
Text Label 2000 10250 0    39   ~ 0
A8
Text Label 2000 10350 0    39   ~ 0
A7
Text Label 2000 10450 0    39   ~ 0
A6
Text Label 2000 10550 0    39   ~ 0
A5
Text Label 2000 10650 0    39   ~ 0
A4
Text Label 2000 10750 0    39   ~ 0
A3
Text Label 2000 10850 0    39   ~ 0
A2
Text Label 2000 11150 0    39   ~ 0
SDA10
Text Label 2000 11050 0    39   ~ 0
A0
Entry Wire Line
	1900 10850 2000 10950
Entry Wire Line
	1900 10950 2000 11050
Text Label 2000 10950 0    39   ~ 0
A1
Entry Wire Line
	1900 9750 2000 9850
Entry Wire Line
	1900 9550 2000 9650
Entry Wire Line
	1900 9450 2000 9550
Text Label 2000 9850 0    39   ~ 0
A12
Text Label 2000 9650 0    39   ~ 0
A14
Text Label 2000 9550 0    39   ~ 0
A15
Entry Wire Line
	6600 6050 6700 6150
Entry Wire Line
	6600 6150 6700 6250
Entry Wire Line
	6600 6250 6700 6350
Entry Wire Line
	6600 6350 6700 6450
Entry Wire Line
	6600 6450 6700 6550
Entry Wire Line
	6600 6550 6700 6650
Entry Wire Line
	6600 6900 6700 7000
Text GLabel 7100 7150 2    39   Input ~ 0
RAM_BUS
Text Label 6400 6050 0    39   ~ 0
SDCK
Text Label 6400 6150 0    39   ~ 0
SDCKE
Text Label 6400 6250 0    39   ~ 0
SDCS
Text Label 6400 6350 0    39   ~ 0
SDWE
Text Label 6400 6450 0    39   ~ 0
RAS
Text Label 6400 6550 0    39   ~ 0
CAS
Text Label 6400 6900 0    39   ~ 0
DQMH
Text Label 14600 3200 0    39   ~ 0
SDCKE
Text Label 14600 3100 0    39   ~ 0
SDCK
Text Label 14600 2950 0    39   ~ 0
SDCS
Text Label 14600 2850 0    39   ~ 0
RAS
Text Label 14600 2750 0    39   ~ 0
CAS
Text Label 14600 2650 0    39   ~ 0
SDWE
Text Label 14600 2500 0    39   ~ 0
DQMH
Text Label 14650 2400 0    39   ~ 0
A0
Entry Wire Line
	14550 2300 14650 2400
Text GLabel 14250 2100 0    39   Input ~ 0
EBI_A
$Comp
L Device:C C25
U 1 1 56DCCDC7
P 12150 1450
F 0 "C25" H 12175 1550 50  0000 L CNN
F 1 "100nF" V 12050 1350 50  0000 L CNN
F 2 "Capacitors_SMD:C_0805_HandSoldering" H 12188 1300 30  0001 C CNN
F 3 "" H 12150 1450 60  0000 C CNN
	1    12150 1450
	0    1    1    0   
$EndComp
$Comp
L Device:C C27
U 1 1 56DCCE3A
P 12650 1550
F 0 "C27" H 12675 1650 50  0000 L CNN
F 1 "100nF" V 12500 1450 50  0000 L CNN
F 2 "Capacitors_SMD:C_0805_HandSoldering" H 12688 1400 30  0001 C CNN
F 3 "" H 12650 1550 60  0000 C CNN
	1    12650 1550
	0    1    1    0   
$EndComp
$Comp
L Device:C C26
U 1 1 56DCCEE9
P 12150 1650
F 0 "C26" H 12175 1750 50  0000 L CNN
F 1 "100nF" V 12300 1550 50  0000 L CNN
F 2 "Capacitors_SMD:C_0805_HandSoldering" H 12188 1500 30  0001 C CNN
F 3 "" H 12150 1650 60  0000 C CNN
	1    12150 1650
	0    1    1    0   
$EndComp
$Comp
L Device:C C28
U 1 1 56DCCEEF
P 12650 1750
F 0 "C28" H 12675 1850 50  0000 L CNN
F 1 "100nF" V 12800 1650 50  0000 L CNN
F 2 "Capacitors_SMD:C_0805_HandSoldering" H 12688 1600 30  0001 C CNN
F 3 "" H 12650 1750 60  0000 C CNN
	1    12650 1750
	0    1    1    0   
$EndComp
$Comp
L power:GND #PWR019
U 1 1 56DCD346
P 13050 1800
F 0 "#PWR019" H 13050 1550 50  0001 C CNN
F 1 "GND" H 13050 1650 50  0000 C CNN
F 2 "" H 13050 1800 60  0000 C CNN
F 3 "" H 13050 1800 60  0000 C CNN
	1    13050 1800
	1    0    0    -1  
$EndComp
$Comp
L power:+3.3V #PWR020
U 1 1 56DCE3D8
P 11800 1450
F 0 "#PWR020" H 11800 1300 50  0001 C CNN
F 1 "+3.3V" H 11800 1590 50  0000 C CNN
F 2 "" H 11800 1450 60  0000 C CNN
F 3 "" H 11800 1450 60  0000 C CNN
	1    11800 1450
	1    0    0    -1  
$EndComp
Entry Wire Line
	11850 1950 11950 2050
Entry Wire Line
	11850 2050 11950 2150
Entry Wire Line
	11850 2150 11950 2250
Entry Wire Line
	11850 2250 11950 2350
Entry Wire Line
	11850 2350 11950 2450
Entry Wire Line
	11850 2450 11950 2550
Entry Wire Line
	11850 2550 11950 2650
Entry Wire Line
	11850 2650 11950 2750
Entry Wire Line
	11850 2750 11950 2850
Entry Wire Line
	11850 2850 11950 2950
Entry Wire Line
	11850 2950 11950 3050
Entry Wire Line
	11850 3050 11950 3150
Entry Wire Line
	11850 3150 11950 3250
Entry Wire Line
	11850 3250 11950 3350
Entry Wire Line
	11850 3350 11950 3450
Entry Wire Line
	11850 3450 11950 3550
Text GLabel 12350 3600 2    39   Input ~ 0
EBI_D
Text Label 11650 1950 0    39   ~ 0
D0
Text Label 11650 2050 0    39   ~ 0
D1
Text Label 11650 2150 0    39   ~ 0
D2
Text Label 11650 2250 0    39   ~ 0
D3
Text Label 11650 2350 0    39   ~ 0
D4
Text Label 11650 2450 0    39   ~ 0
D5
Text Label 11650 2550 0    39   ~ 0
D6
Text Label 11650 2650 0    39   ~ 0
D7
Text Label 11650 2750 0    39   ~ 0
D8
Text Label 11650 2850 0    39   ~ 0
D9
Text Label 11650 2950 0    39   ~ 0
D10
Text Label 11650 3050 0    39   ~ 0
D11
Text Label 11650 3150 0    39   ~ 0
D12
Text Label 11650 3250 0    39   ~ 0
D13
Text Label 11650 3350 0    39   ~ 0
D14
Text Label 11650 3450 0    39   ~ 0
D15
Entry Wire Line
	9600 2600 9700 2700
Entry Wire Line
	9600 2700 9700 2800
Entry Wire Line
	9600 2800 9700 2900
Entry Wire Line
	9600 2900 9700 3000
Entry Wire Line
	9600 3000 9700 3100
Entry Wire Line
	9600 3100 9700 3200
Text GLabel 9450 2500 0    39   Input ~ 0
NAND_BUS
Text Label 6400 5900 0    39   ~ 0
NANDALE
Text Label 6400 5800 0    39   ~ 0
NANDCLE
Text Label 6400 5600 0    39   ~ 0
NANDCS
Text Label 6400 5500 0    39   ~ 0
NANDWE
Text Label 6400 5400 0    39   ~ 0
NANDOE
Entry Wire Line
	6700 5900 6800 6000
Entry Wire Line
	6700 5700 6800 5800
Entry Wire Line
	6700 5600 6800 5700
Entry Wire Line
	6700 5500 6800 5600
Entry Wire Line
	6700 5400 6800 5500
Text GLabel 7000 6050 2    39   Input ~ 0
NAND_BUS
Text Label 9700 3100 0    39   ~ 0
NANDALE
Text Label 9700 3000 0    39   ~ 0
NANDCLE
Text Label 9700 2900 0    39   ~ 0
NANDCS
Text Label 9700 2800 0    39   ~ 0
NANDOE
Text Label 9700 2700 0    39   ~ 0
RDYBSY
$Comp
L Device:R R7
U 1 1 56DE504C
P 10000 2200
F 0 "R7" V 10080 2200 50  0000 C CNN
F 1 "470K" V 10000 2200 50  0000 C CNN
F 2 "Resistors_SMD:R_0805_HandSoldering" V 9930 2200 30  0001 C CNN
F 3 "" H 10000 2200 30  0000 C CNN
	1    10000 2200
	1    0    0    -1  
$EndComp
$Comp
L power:+3.3V #PWR021
U 1 1 56DE5148
P 10000 1950
F 0 "#PWR021" H 10000 1800 50  0001 C CNN
F 1 "+3.3V" H 10000 2090 50  0000 C CNN
F 2 "" H 10000 1950 60  0000 C CNN
F 3 "" H 10000 1950 60  0000 C CNN
	1    10000 1950
	1    0    0    -1  
$EndComp
Text Label 9700 3200 0    39   ~ 0
NANDWE
$Comp
L Device:R R6
U 1 1 56DE5C76
P 9800 3450
F 0 "R6" V 9880 3450 50  0000 C CNN
F 1 "470K" V 9800 3450 50  0000 C CNN
F 2 "Resistors_SMD:R_0805_HandSoldering" V 9730 3450 30  0001 C CNN
F 3 "" H 9800 3450 30  0000 C CNN
	1    9800 3450
	0    1    1    0   
$EndComp
$Comp
L power:+3.3V #PWR022
U 1 1 56DE5D14
P 9500 3400
F 0 "#PWR022" H 9500 3250 50  0001 C CNN
F 1 "+3.3V" H 9500 3540 50  0000 C CNN
F 2 "" H 9500 3400 60  0000 C CNN
F 3 "" H 9500 3400 60  0000 C CNN
	1    9500 3400
	1    0    0    -1  
$EndComp
$Comp
L Device:R R8
U 1 1 56DE7D05
P 10150 2200
F 0 "R8" V 10230 2200 50  0000 C CNN
F 1 "470K" V 10150 2200 50  0000 C CNN
F 2 "Resistors_SMD:R_0805_HandSoldering" V 10080 2200 30  0001 C CNN
F 3 "" H 10150 2200 30  0000 C CNN
	1    10150 2200
	1    0    0    -1  
$EndComp
$Comp
L Device:R R9
U 1 1 56DE844A
P 10400 3300
F 0 "R9" V 10480 3300 50  0000 C CNN
F 1 "1K" V 10400 3300 50  0000 C CNN
F 2 "Resistors_SMD:R_0805_HandSoldering" V 10330 3300 30  0001 C CNN
F 3 "" H 10400 3300 30  0000 C CNN
	1    10400 3300
	0    1    1    0   
$EndComp
Entry Wire Line
	6700 5800 6800 5900
Text Label 6400 5700 0    39   ~ 0
RDYBSY
$Comp
L Device:R R10
U 1 1 56DFDF63
P 15000 2200
F 0 "R10" V 15080 2200 50  0000 C CNN
F 1 "470K" V 15000 2200 50  0000 C CNN
F 2 "Resistors_SMD:R_0805_HandSoldering" V 14930 2200 30  0001 C CNN
F 3 "" H 15000 2200 30  0000 C CNN
	1    15000 2200
	1    0    0    -1  
$EndComp
$Comp
L power:+3.3V #PWR023
U 1 1 56DFE2D2
P 15000 1950
F 0 "#PWR023" H 15000 1800 50  0001 C CNN
F 1 "+3.3V" H 15000 2090 50  0000 C CNN
F 2 "" H 15000 1950 60  0000 C CNN
F 3 "" H 15000 1950 60  0000 C CNN
	1    15000 1950
	1    0    0    -1  
$EndComp
$Comp
L power:GND #PWR024
U 1 1 56E018F9
P 21250 1100
F 0 "#PWR024" H 21250 850 50  0001 C CNN
F 1 "GND" H 21250 950 50  0000 C CNN
F 2 "" H 21250 1100 60  0000 C CNN
F 3 "" H 21250 1100 60  0000 C CNN
	1    21250 1100
	0    1    1    0   
$EndComp
$Comp
L Device:C C42
U 1 1 56E0196B
P 21500 1100
F 0 "C42" H 21525 1200 50  0000 L CNN
F 1 "100nF" H 21525 1000 50  0000 L CNN
F 2 "Capacitors_SMD:C_0805_HandSoldering" H 21538 950 30  0001 C CNN
F 3 "" H 21500 1100 60  0000 C CNN
	1    21500 1100
	0    1    1    0   
$EndComp
$Comp
L Device:R R16
U 1 1 56E01E68
P 21950 1500
F 0 "R16" V 22030 1500 50  0000 C CNN
F 1 "39R" V 21950 1500 50  0000 C CNN
F 2 "Resistors_SMD:R_0805_HandSoldering" V 21880 1500 30  0001 C CNN
F 3 "" H 21950 1500 30  0000 C CNN
	1    21950 1500
	1    0    0    -1  
$EndComp
$Comp
L Device:R R17
U 1 1 56E01FB5
P 22100 1500
F 0 "R17" V 22180 1500 50  0000 C CNN
F 1 "39R" V 22100 1500 50  0000 C CNN
F 2 "Resistors_SMD:R_0805_HandSoldering" V 22030 1500 30  0001 C CNN
F 3 "" H 22100 1500 30  0000 C CNN
	1    22100 1500
	1    0    0    -1  
$EndComp
$Comp
L Device:C C43
U 1 1 56E02F89
P 21700 1300
F 0 "C43" H 21725 1400 50  0000 L CNN
F 1 "15pF" H 21725 1200 50  0000 L CNN
F 2 "Capacitors_SMD:C_0805_HandSoldering" H 21738 1150 30  0001 C CNN
F 3 "" H 21700 1300 60  0000 C CNN
	1    21700 1300
	0    1    1    0   
$EndComp
$Comp
L Device:C C45
U 1 1 56E04AB4
P 22350 1300
F 0 "C45" H 22375 1400 50  0000 L CNN
F 1 "15pF" H 22375 1200 50  0000 L CNN
F 2 "Capacitors_SMD:C_0805_HandSoldering" H 22388 1150 30  0001 C CNN
F 3 "" H 22350 1300 60  0000 C CNN
	1    22350 1300
	0    1    1    0   
$EndComp
$Comp
L ELC-rescue:USB_A-ELC-rescue P1
U 1 1 56E0542C
P 20100 750
F 0 "P1" H 20300 550 50  0000 C CNN
F 1 "USB_A" H 20050 950 50  0000 C CNN
F 2 "Connect:USB_A" V 20050 650 60  0001 C CNN
F 3 "" V 20050 650 60  0000 C CNN
	1    20100 750 
	1    0    0    -1  
$EndComp
$Comp
L power:GND #PWR025
U 1 1 56E05B5F
P 20650 700
F 0 "#PWR025" H 20650 450 50  0001 C CNN
F 1 "GND" H 20650 550 50  0000 C CNN
F 2 "" H 20650 700 60  0000 C CNN
F 3 "" H 20650 700 60  0000 C CNN
	1    20650 700 
	1    0    0    -1  
$EndComp
$Comp
L power:+5V #PWR026
U 1 1 56E05BDD
P 19750 800
F 0 "#PWR026" H 19750 650 50  0001 C CNN
F 1 "+5V" H 19750 940 50  0000 C CNN
F 2 "" H 19750 800 60  0000 C CNN
F 3 "" H 19750 800 60  0000 C CNN
	1    19750 800 
	1    0    0    -1  
$EndComp
$Comp
L Device:C C37
U 1 1 56E05ECD
P 19550 1100
F 0 "C37" H 19575 1200 50  0000 L CNN
F 1 "100nF" H 19575 1000 50  0000 L CNN
F 2 "Capacitors_SMD:C_0805_HandSoldering" H 19588 950 30  0001 C CNN
F 3 "" H 19550 1100 60  0000 C CNN
	1    19550 1100
	0    1    1    0   
$EndComp
$Comp
L power:GND #PWR027
U 1 1 56E06253
P 19300 1100
F 0 "#PWR027" H 19300 850 50  0001 C CNN
F 1 "GND" H 19300 950 50  0000 C CNN
F 2 "" H 19300 1100 60  0000 C CNN
F 3 "" H 19300 1100 60  0000 C CNN
	1    19300 1100
	0    1    1    0   
$EndComp
$Comp
L Device:R R12
U 1 1 56E064A8
P 19950 1600
F 0 "R12" V 20030 1600 50  0000 C CNN
F 1 "39R" V 19950 1600 50  0000 C CNN
F 2 "Resistors_SMD:R_0805_HandSoldering" V 19880 1600 30  0001 C CNN
F 3 "" H 19950 1600 30  0000 C CNN
	1    19950 1600
	1    0    0    -1  
$EndComp
$Comp
L Device:R R13
U 1 1 56E06537
P 20150 1600
F 0 "R13" V 20230 1600 50  0000 C CNN
F 1 "39R" V 20150 1600 50  0000 C CNN
F 2 "Resistors_SMD:R_0805_HandSoldering" V 20080 1600 30  0001 C CNN
F 3 "" H 20150 1600 30  0000 C CNN
	1    20150 1600
	1    0    0    -1  
$EndComp
$Comp
L Device:C C38
U 1 1 56E07D7D
P 19650 1400
F 0 "C38" H 19675 1500 50  0000 L CNN
F 1 "47pF" H 19675 1300 50  0000 L CNN
F 2 "Capacitors_SMD:C_0805_HandSoldering" H 19688 1250 30  0001 C CNN
F 3 "" H 19650 1400 60  0000 C CNN
	1    19650 1400
	0    1    1    0   
$EndComp
$Comp
L Device:C C40
U 1 1 56E0825C
P 20400 1400
F 0 "C40" H 20425 1500 50  0000 L CNN
F 1 "47pF" H 20425 1300 50  0000 L CNN
F 2 "Capacitors_SMD:C_0805_HandSoldering" H 20438 1250 30  0001 C CNN
F 3 "" H 20400 1400 60  0000 C CNN
	1    20400 1400
	0    1    1    0   
$EndComp
$Comp
L Device:Crystal_Small Y1
U 1 1 56E0EA4C
P 7050 3200
F 0 "Y1" H 7050 3300 50  0000 C CNN
F 1 "32.768Khz" H 7050 3100 50  0000 C CNN
F 2 "Crystals:Crystal_Round_Horizontal_3mm" H 7050 3200 60  0001 C CNN
F 3 "" H 7050 3200 60  0000 C CNN
	1    7050 3200
	0    1    1    0   
$EndComp
$Comp
L Device:Crystal_Small Y2
U 1 1 56E0EBFA
P 7400 3450
F 0 "Y2" H 7400 3550 50  0000 C CNN
F 1 "16MHz" H 7400 3350 50  0000 C CNN
F 2 "Crystals:Crystal_HC49-U_Vertical" H 7400 3450 60  0001 C CNN
F 3 "" H 7400 3450 60  0000 C CNN
	1    7400 3450
	0    -1   -1   0   
$EndComp
$Comp
L Device:C C22
U 1 1 56E0FDB3
P 7400 3200
F 0 "C22" V 7350 3050 50  0000 L CNN
F 1 "10pF" V 7350 3300 50  0000 L CNN
F 2 "Capacitors_SMD:C_0805_HandSoldering" H 7438 3050 30  0001 C CNN
F 3 "" H 7400 3200 60  0000 C CNN
	1    7400 3200
	0    1    1    0   
$EndComp
$Comp
L Device:C C21
U 1 1 56E0FF13
P 7400 2950
F 0 "C21" V 7350 2800 50  0000 L CNN
F 1 "10pF" V 7350 3050 50  0000 L CNN
F 2 "Capacitors_SMD:C_0805_HandSoldering" H 7438 2800 30  0001 C CNN
F 3 "" H 7400 2950 60  0000 C CNN
	1    7400 2950
	0    1    1    0   
$EndComp
$Comp
L power:GND #PWR028
U 1 1 56E10A1F
P 7800 3050
F 0 "#PWR028" H 7800 2800 50  0001 C CNN
F 1 "GND" H 7800 2900 50  0000 C CNN
F 2 "" H 7800 3050 60  0000 C CNN
F 3 "" H 7800 3050 60  0000 C CNN
	1    7800 3050
	0    -1   -1   0   
$EndComp
$Comp
L Device:C C23
U 1 1 56E10D97
P 7800 3350
F 0 "C23" H 7825 3450 50  0000 L CNN
F 1 "22pF" V 7750 3450 50  0000 L CNN
F 2 "Capacitors_ThroughHole:C_Disc_D3_P2.5" H 7838 3200 30  0001 C CNN
F 3 "" H 7800 3350 60  0000 C CNN
	1    7800 3350
	0    1    1    0   
$EndComp
$Comp
L Device:C C24
U 1 1 56E10E38
P 7800 3600
F 0 "C24" H 7825 3700 50  0000 L CNN
F 1 "22pF" V 7750 3700 50  0000 L CNN
F 2 "Capacitors_ThroughHole:C_Disc_D3_P2.5" H 7838 3450 30  0001 C CNN
F 3 "" H 7800 3600 60  0000 C CNN
	1    7800 3600
	0    1    1    0   
$EndComp
$Comp
L power:GND #PWR029
U 1 1 56E11E6A
P 8250 3450
F 0 "#PWR029" H 8250 3200 50  0001 C CNN
F 1 "GND" H 8250 3300 50  0000 C CNN
F 2 "" H 8250 3450 60  0000 C CNN
F 3 "" H 8250 3450 60  0000 C CNN
	1    8250 3450
	0    -1   -1   0   
$EndComp
Text GLabel 6750 4950 2    39   Input ~ 0
DDM-
Text GLabel 6750 5050 2    39   Input ~ 0
DDP+
Text GLabel 6750 5150 2    39   Input ~ 0
HDMA-
Text GLabel 6750 5250 2    39   Input ~ 0
HDPA+
$Comp
L Device:R R3
U 1 1 56E1637B
P 6900 4800
F 0 "R3" V 6980 4800 50  0000 C CNN
F 1 "100K" V 6900 4800 50  0000 C CNN
F 2 "Resistors_SMD:R_0805_HandSoldering" V 6830 4800 30  0001 C CNN
F 3 "" H 6900 4800 30  0000 C CNN
	1    6900 4800
	0    1    1    0   
$EndComp
$Comp
L power:+3.3V #PWR030
U 1 1 56E1641E
P 7200 4800
F 0 "#PWR030" H 7200 4650 50  0001 C CNN
F 1 "+3.3V" H 7200 4940 50  0000 C CNN
F 2 "" H 7200 4800 60  0000 C CNN
F 3 "" H 7200 4800 60  0000 C CNN
	1    7200 4800
	0    1    1    0   
$EndComp
$Comp
L Device:Jumper_NC_Small JP1
U 1 1 56E169A1
P 6900 4700
F 0 "JP1" H 6900 4780 50  0000 C CNN
F 1 "Jumper_NC_Small" H 6910 4640 50  0001 C CNN
F 2 "Pin_Headers:Pin_Header_Straight_1x02" H 6900 4700 60  0001 C CNN
F 3 "" H 6900 4700 60  0000 C CNN
	1    6900 4700
	1    0    0    -1  
$EndComp
$Comp
L power:GND #PWR031
U 1 1 56E16E6F
P 7200 4550
F 0 "#PWR031" H 7200 4300 50  0001 C CNN
F 1 "GND" H 7200 4400 50  0000 C CNN
F 2 "" H 7200 4550 60  0000 C CNN
F 3 "" H 7200 4550 60  0000 C CNN
	1    7200 4550
	0    -1   -1   0   
$EndComp
$Comp
L Device:R R2
U 1 1 56E1700F
P 6900 4500
F 0 "R2" V 6980 4500 50  0000 C CNN
F 1 "1K" V 6900 4500 50  0000 C CNN
F 2 "Resistors_SMD:R_0805_HandSoldering" V 6830 4500 30  0001 C CNN
F 3 "" H 6900 4500 30  0000 C CNN
	1    6900 4500
	0    -1   -1   0   
$EndComp
$Comp
L Device:R R5
U 1 1 56E17A18
P 7850 4350
F 0 "R5" V 7930 4350 50  0000 C CNN
F 1 "1K" V 7850 4350 50  0000 C CNN
F 2 "Resistors_SMD:R_0805_HandSoldering" V 7780 4350 30  0001 C CNN
F 3 "" H 7850 4350 30  0000 C CNN
	1    7850 4350
	0    1    1    0   
$EndComp
$Comp
L power:+3.3V #PWR032
U 1 1 56E17B5D
P 8050 4350
F 0 "#PWR032" H 8050 4200 50  0001 C CNN
F 1 "+3.3V" H 8050 4490 50  0000 C CNN
F 2 "" H 8050 4350 60  0000 C CNN
F 3 "" H 8050 4350 60  0000 C CNN
	1    8050 4350
	0    1    1    0   
$EndComp
$Comp
L ELC-rescue:SW_PUSH-ELC-rescue SW1
U 1 1 56E1869F
P 7600 4750
F 0 "SW1" H 7750 4860 50  0000 C CNN
F 1 "SW_PUSH" H 7600 4670 50  0000 C CNN
F 2 "Buttons_Switches_SMD:SW_SPST_EVQPE1" H 7600 4750 60  0001 C CNN
F 3 "" H 7600 4750 60  0000 C CNN
	1    7600 4750
	0    1    1    0   
$EndComp
$Comp
L power:GND #PWR033
U 1 1 56E18974
P 7600 5200
F 0 "#PWR033" H 7600 4950 50  0001 C CNN
F 1 "GND" H 7600 5050 50  0000 C CNN
F 2 "" H 7600 5200 60  0000 C CNN
F 3 "" H 7600 5200 60  0000 C CNN
	1    7600 5200
	1    0    0    -1  
$EndComp
$Comp
L ELC-rescue:SW_PUSH-ELC-rescue SW2
U 1 1 56E1E524
P 7900 1100
F 0 "SW2" H 8050 1210 50  0000 C CNN
F 1 "SW_PUSH" H 7900 1020 50  0000 C CNN
F 2 "Buttons_Switches_SMD:SW_SPST_EVQPE1" H 7900 1100 60  0001 C CNN
F 3 "" H 7900 1100 60  0000 C CNN
	1    7900 1100
	1    0    0    -1  
$EndComp
$Comp
L ELC-rescue:SW_PUSH-ELC-rescue SW3
U 1 1 56E1EF33
P 7900 1450
F 0 "SW3" H 8050 1560 50  0000 C CNN
F 1 "SW_PUSH" H 7900 1370 50  0000 C CNN
F 2 "Buttons_Switches_SMD:SW_SPST_EVQPE1" H 7900 1450 60  0001 C CNN
F 3 "" H 7900 1450 60  0000 C CNN
	1    7900 1450
	1    0    0    -1  
$EndComp
Text GLabel 6500 3600 2    39   Input ~ 0
SHDN
Text GLabel 6500 3700 2    39   Input ~ 0
WKUP
Text GLabel 7350 1100 0    39   Input ~ 0
SHDN
Text GLabel 7350 1450 0    39   Input ~ 0
WKUP
$Comp
L Device:R R4
U 1 1 56E2021C
P 7300 1600
F 0 "R4" V 7380 1600 50  0000 C CNN
F 1 "100K" V 7300 1600 50  0000 C CNN
F 2 "Resistors_SMD:R_0805_HandSoldering" V 7230 1600 30  0001 C CNN
F 3 "" H 7300 1600 30  0000 C CNN
	1    7300 1600
	0    1    1    0   
$EndComp
$Comp
L power:+1V8 #PWR034
U 1 1 56E20367
P 7000 1600
F 0 "#PWR034" H 7000 1450 50  0001 C CNN
F 1 "+1V8" H 7000 1740 50  0000 C CNN
F 2 "" H 7000 1600 60  0000 C CNN
F 3 "" H 7000 1600 60  0000 C CNN
	1    7000 1600
	0    -1   -1   0   
$EndComp
$Comp
L power:GND #PWR035
U 1 1 56E20CD7
P 8300 1450
F 0 "#PWR035" H 8300 1200 50  0001 C CNN
F 1 "GND" H 8300 1300 50  0000 C CNN
F 2 "" H 8300 1450 60  0000 C CNN
F 3 "" H 8300 1450 60  0000 C CNN
	1    8300 1450
	0    -1   -1   0   
$EndComp
$Comp
L power:GND #PWR036
U 1 1 56E220E3
P 8300 1100
F 0 "#PWR036" H 8300 850 50  0001 C CNN
F 1 "GND" H 8300 950 50  0000 C CNN
F 2 "" H 8300 1100 60  0000 C CNN
F 3 "" H 8300 1100 60  0000 C CNN
	1    8300 1100
	0    -1   -1   0   
$EndComp
$Comp
L ELC-rescue:CONN_01X03-ELC-rescue P2
U 1 1 56E3D3BD
P 22400 5650
F 0 "P2" H 22400 5850 50  0000 C CNN
F 1 "I2C" V 22500 5650 50  0000 C CNN
F 2 "Pin_Headers:Pin_Header_Straight_1x03" H 22400 5650 60  0001 C CNN
F 3 "" H 22400 5650 60  0000 C CNN
	1    22400 5650
	1    0    0    -1  
$EndComp
$Comp
L power:GND #PWR037
U 1 1 56E3EC7B
P 22100 5750
F 0 "#PWR037" H 22100 5500 50  0001 C CNN
F 1 "GND" H 22100 5600 50  0000 C CNN
F 2 "" H 22100 5750 60  0000 C CNN
F 3 "" H 22100 5750 60  0000 C CNN
	1    22100 5750
	1    0    0    -1  
$EndComp
Text GLabel 21700 5650 0    39   Input ~ 0
SCL
Text GLabel 21700 5550 0    39   Input ~ 0
SDA
Text GLabel 2050 5150 0    39   Input ~ 0
SCL
Text GLabel 2050 5050 0    39   Input ~ 0
SDA
$Comp
L Device:R R15
U 1 1 56E4360A
P 22050 5350
F 0 "R15" V 22130 5350 50  0000 C CNN
F 1 "10K" V 22050 5350 50  0000 C CNN
F 2 "Resistors_SMD:R_0805_HandSoldering" V 21980 5350 30  0001 C CNN
F 3 "" H 22050 5350 30  0000 C CNN
	1    22050 5350
	1    0    0    -1  
$EndComp
$Comp
L Device:R R14
U 1 1 56E436B9
P 21850 5350
F 0 "R14" V 21930 5350 50  0000 C CNN
F 1 "10K" V 21850 5350 50  0000 C CNN
F 2 "Resistors_SMD:R_0805_HandSoldering" V 21780 5350 30  0001 C CNN
F 3 "" H 21850 5350 30  0000 C CNN
	1    21850 5350
	1    0    0    -1  
$EndComp
$Comp
L power:+3.3V #PWR038
U 1 1 56E441AB
P 21950 5100
F 0 "#PWR038" H 21950 4950 50  0001 C CNN
F 1 "+3.3V" H 21950 5240 50  0000 C CNN
F 2 "" H 21950 5100 60  0000 C CNN
F 3 "" H 21950 5100 60  0000 C CNN
	1    21950 5100
	1    0    0    -1  
$EndComp
$Comp
L Device:C C36
U 1 1 56E46E1C
P 17400 6650
F 0 "C36" H 17425 6750 50  0000 L CNN
F 1 "100nF" H 17425 6550 50  0000 L CNN
F 2 "Capacitors_SMD:C_0805_HandSoldering" H 17438 6500 30  0001 C CNN
F 3 "" H 17400 6650 60  0000 C CNN
	1    17400 6650
	-1   0    0    1   
$EndComp
$Comp
L power:GND #PWR039
U 1 1 56E47E0E
P 17200 6900
F 0 "#PWR039" H 17200 6650 50  0001 C CNN
F 1 "GND" H 17200 6750 50  0000 C CNN
F 2 "" H 17200 6900 60  0000 C CNN
F 3 "" H 17200 6900 60  0000 C CNN
	1    17200 6900
	0    1    1    0   
$EndComp
$Comp
L power:+3.3V #PWR040
U 1 1 56E47EBC
P 17150 6250
F 0 "#PWR040" H 17150 6100 50  0001 C CNN
F 1 "+3.3V" H 17150 6390 50  0000 C CNN
F 2 "" H 17150 6250 60  0000 C CNN
F 3 "" H 17150 6250 60  0000 C CNN
	1    17150 6250
	1    0    0    -1  
$EndComp
$Comp
L Device:R R11
U 1 1 56E48266
P 18650 6050
F 0 "R11" V 18730 6050 50  0000 C CNN
F 1 "10K" V 18650 6050 50  0000 C CNN
F 2 "Resistors_SMD:R_0805_HandSoldering" V 18580 6050 30  0001 C CNN
F 3 "" H 18650 6050 30  0000 C CNN
	1    18650 6050
	1    0    0    -1  
$EndComp
$Comp
L power:+3.3V #PWR041
U 1 1 56E48BE5
P 18650 5800
F 0 "#PWR041" H 18650 5650 50  0001 C CNN
F 1 "+3.3V" H 18650 5940 50  0000 C CNN
F 2 "" H 18650 5800 60  0000 C CNN
F 3 "" H 18650 5800 60  0000 C CNN
	1    18650 5800
	1    0    0    -1  
$EndComp
Text GLabel 18600 6600 0    39   Input ~ 0
CMD
Text GLabel 18600 6500 0    39   Input ~ 0
DAT3
Text GLabel 18600 6400 0    39   Input ~ 0
DAT2
Text GLabel 18600 7000 0    39   Input ~ 0
DAT0
Text GLabel 18600 7100 0    39   Input ~ 0
DAT1
Text GLabel 18600 6800 0    39   Input ~ 0
CLK
Text GLabel 1900 2750 0    39   Input ~ 0
DAT0
Text GLabel 1900 3250 0    39   Input ~ 0
DAT1
Text GLabel 1900 3150 0    39   Input ~ 0
DAT2
Text GLabel 1900 3050 0    39   Input ~ 0
DAT3
Text GLabel 1900 3550 0    39   Input ~ 0
CLK
Text GLabel 1900 2850 0    39   Input ~ 0
CMD
NoConn ~ 2150 2950
NoConn ~ 2150 3350
NoConn ~ 2150 3450
NoConn ~ 2150 3650
NoConn ~ 2150 3750
NoConn ~ 2150 3850
NoConn ~ 2150 3950
NoConn ~ 2150 4050
NoConn ~ 2150 4150
NoConn ~ 2150 4250
NoConn ~ 2150 4350
NoConn ~ 2150 4450
NoConn ~ 2150 4550
NoConn ~ 2150 4650
NoConn ~ 2150 4750
NoConn ~ 2150 4850
NoConn ~ 2150 4950
NoConn ~ 2150 5250
NoConn ~ 2150 5350
NoConn ~ 2150 5450
NoConn ~ 2150 5550
NoConn ~ 2150 6950
NoConn ~ 2150 7050
NoConn ~ 2150 7150
NoConn ~ 2150 7250
NoConn ~ 2150 7350
NoConn ~ 2150 7450
NoConn ~ 2150 7550
NoConn ~ 2150 7650
NoConn ~ 2150 7750
NoConn ~ 2150 7850
NoConn ~ 2150 7950
NoConn ~ 2150 8050
NoConn ~ 2150 8150
NoConn ~ 2150 8250
NoConn ~ 2150 8350
NoConn ~ 2150 8450
NoConn ~ 2150 8750
NoConn ~ 2150 8850
NoConn ~ 2150 10950
NoConn ~ 2150 9850
NoConn ~ 2150 9650
NoConn ~ 2150 9550
NoConn ~ 2150 9250
NoConn ~ 2150 9150
NoConn ~ 2150 9050
NoConn ~ 6400 10150
NoConn ~ 6400 10050
NoConn ~ 6400 9950
NoConn ~ 6400 9850
NoConn ~ 6400 9750
NoConn ~ 6400 9650
NoConn ~ 6400 9550
NoConn ~ 6400 9450
NoConn ~ 6400 9350
NoConn ~ 6400 9250
NoConn ~ 6400 9150
NoConn ~ 6400 9050
NoConn ~ 6400 8950
NoConn ~ 6400 8850
NoConn ~ 6400 8750
NoConn ~ 6400 8650
NoConn ~ 6400 8550
NoConn ~ 6400 8450
NoConn ~ 6400 8350
NoConn ~ 6400 8250
NoConn ~ 6400 8150
NoConn ~ 6400 8050
NoConn ~ 6400 7850
NoConn ~ 6400 7750
NoConn ~ 6400 7650
NoConn ~ 6400 7550
$Comp
L ICs:AT91SAM9260B-QU SAM1
U 1 1 56E9C93F
P 4400 5050
F 0 "SAM1" H 4400 4450 60  0000 C CNN
F 1 "AT91SAM9260B-QU" H 4350 3850 60  0000 C CNN
F 2 "Housings_QFP:LQFP-208_28x28mm_Pitch0.5mm" H 4350 5350 60  0000 C CNN
F 3 "" H 6400 2900 60  0000 C CNN
	1    4400 5050
	-1   0    0    -1  
$EndComp
$Comp
L ICs:S34ML02G104TFI010 NAND1
U 1 1 56EA090E
P 11150 1800
F 0 "NAND1" H 11150 0   60  0000 C CNN
F 1 "S34ML02G104TFI010" H 11150 2800 60  0000 C CNN
F 2 "TSOP1-48:TSOP1-48" H 11150 2900 60  0000 C CNN
F 3 "http://www.farnell.com/datasheets/1921285.pdf" H 11150 -100 60  0000 C CNN
	1    11150 1800
	1    0    0    -1  
$EndComp
$Comp
L ICs:MT48LC8M16A2 SDRAM1
U 1 1 56EA10CF
P 16250 2350
F 0 "SDRAM1" H 15900 750 60  0000 C CNN
F 1 "MT48LC8M16A2" H 16050 850 60  0000 C CNN
F 2 "TSOP54:TSOP54" H 16050 950 60  0000 C CNN
F 3 "http://www.farnell.com/datasheets/1674468.pdf" H 16350 600 60  0000 C CNN
	1    16250 2350
	1    0    0    -1  
$EndComp
$Comp
L ELC-rescue:CONN_01X03-ELC-rescue P4
U 1 1 56EA6E07
P 6500 1850
F 0 "P4" H 6500 2050 50  0000 C CNN
F 1 "OSCSEL" V 6600 1850 50  0000 C CNN
F 2 "Pin_Headers:Pin_Header_Straight_1x03" H 6500 1850 60  0001 C CNN
F 3 "" H 6500 1850 60  0000 C CNN
	1    6500 1850
	0    -1   -1   0   
$EndComp
$Comp
L power:+1V8 #PWR042
U 1 1 56EA7807
P 6150 2000
F 0 "#PWR042" H 6150 1850 50  0001 C CNN
F 1 "+1V8" H 6150 2140 50  0000 C CNN
F 2 "" H 6150 2000 60  0000 C CNN
F 3 "" H 6150 2000 60  0000 C CNN
	1    6150 2000
	1    0    0    -1  
$EndComp
$Comp
L Device:R R18
U 1 1 56EA7B2A
P 6500 2250
F 0 "R18" V 6580 2250 50  0000 C CNN
F 1 "10K" V 6500 2250 50  0000 C CNN
F 2 "Resistors_SMD:R_0805_HandSoldering" V 6430 2250 30  0001 C CNN
F 3 "" H 6500 2250 30  0000 C CNN
	1    6500 2250
	1    0    0    -1  
$EndComp
$Comp
L power:GND #PWR043
U 1 1 56EA84E3
P 6750 2150
F 0 "#PWR043" H 6750 1900 50  0001 C CNN
F 1 "GND" H 6750 2000 50  0000 C CNN
F 2 "" H 6750 2150 60  0000 C CNN
F 3 "" H 6750 2150 60  0000 C CNN
	1    6750 2150
	1    0    0    -1  
$EndComp
NoConn ~ 6400 2800
NoConn ~ 6400 4450
NoConn ~ 6400 4250
NoConn ~ 6400 4150
NoConn ~ 6400 4050
NoConn ~ 6400 3950
NoConn ~ 6400 7000
NoConn ~ 6400 7100
NoConn ~ 6400 7200
$Comp
L Device:C C46
U 1 1 56EB5F56
P 22100 3750
F 0 "C46" H 22125 3850 50  0000 L CNN
F 1 "1uF" H 22125 3650 50  0000 L CNN
F 2 "Capacitors_SMD:C_0805_HandSoldering" H 22138 3600 30  0001 C CNN
F 3 "" H 22100 3750 60  0000 C CNN
	1    22100 3750
	1    0    0    -1  
$EndComp
$Comp
L Device:C C47
U 1 1 56EB6187
P 22300 3750
F 0 "C47" H 22325 3850 50  0000 L CNN
F 1 "1uF" H 22325 3650 50  0000 L CNN
F 2 "Capacitors_SMD:C_0805_HandSoldering" H 22338 3600 30  0001 C CNN
F 3 "" H 22300 3750 60  0000 C CNN
	1    22300 3750
	1    0    0    -1  
$EndComp
$Comp
L Device:C C48
U 1 1 56EB635D
P 22550 3750
F 0 "C48" H 22575 3850 50  0000 L CNN
F 1 "100nF" H 22575 3650 50  0000 L CNN
F 2 "Capacitors_SMD:C_0805_HandSoldering" H 22588 3600 30  0001 C CNN
F 3 "" H 22550 3750 60  0000 C CNN
	1    22550 3750
	1    0    0    -1  
$EndComp
$Comp
L Device:C C49
U 1 1 56EB6407
P 22750 3750
F 0 "C49" H 22775 3850 50  0000 L CNN
F 1 "100nF" H 22775 3650 50  0000 L CNN
F 2 "Capacitors_SMD:C_0805_HandSoldering" H 22788 3600 30  0001 C CNN
F 3 "" H 22750 3750 60  0000 C CNN
	1    22750 3750
	1    0    0    -1  
$EndComp
$Comp
L sd_card:SD_CARD SD1
U 1 1 56DA1254
P 20550 6750
F 0 "SD1" V 20750 6450 60  0000 C CNN
F 1 "SD_CARD" V 20750 6950 60  0000 C CNN
F 2 "Connect:AMPHENOL-114-00841-68" H 20650 7250 60  0000 C CNN
F 3 "" H 20350 6750 60  0000 C CNN
	1    20550 6750
	1    0    0    -1  
$EndComp
$Comp
L ELC-rescue:CONN_01X09-ELC-rescue P5
U 1 1 56DA7746
P 21250 7900
F 0 "P5" H 21250 8400 50  0000 C CNN
F 1 "CONN_01X09" V 21350 7900 50  0000 C CNN
F 2 "Pin_Headers:Pin_Header_Angled_1x09" H 21250 7900 60  0001 C CNN
F 3 "" H 21250 7900 60  0000 C CNN
	1    21250 7900
	1    0    0    -1  
$EndComp
$Comp
L power:+5V #PWR044
U 1 1 56DE210C
P 21300 9300
F 0 "#PWR044" H 21300 9150 50  0001 C CNN
F 1 "+5V" H 21300 9440 50  0000 C CNN
F 2 "" H 21300 9300 50  0000 C CNN
F 3 "" H 21300 9300 50  0000 C CNN
	1    21300 9300
	1    0    0    -1  
$EndComp
$Comp
L Device:R R22
U 1 1 56DE32D8
P 21300 9550
F 0 "R22" V 21380 9550 50  0000 C CNN
F 1 "10K" V 21300 9550 50  0000 C CNN
F 2 "Resistors_SMD:R_0805_HandSoldering" V 21230 9550 50  0001 C CNN
F 3 "" H 21300 9550 50  0000 C CNN
	1    21300 9550
	1    0    0    -1  
$EndComp
$Comp
L ELC-rescue:LED-ELC-rescue D3
U 1 1 56DE33AB
P 21300 10000
F 0 "D3" H 21300 10100 50  0000 C CNN
F 1 "LED" H 21300 9900 50  0000 C CNN
F 2 "LEDs:LED_0805" H 21300 10000 50  0000 C CNN
F 3 "" H 21300 10000 50  0000 C CNN
	1    21300 10000
	0    -1   -1   0   
$EndComp
$Comp
L power:GND #PWR045
U 1 1 56DE388E
P 21300 10350
F 0 "#PWR045" H 21300 10100 50  0001 C CNN
F 1 "GND" H 21300 10200 50  0000 C CNN
F 2 "" H 21300 10350 50  0000 C CNN
F 3 "" H 21300 10350 50  0000 C CNN
	1    21300 10350
	1    0    0    -1  
$EndComp
$Comp
L power:+3.3V #PWR046
U 1 1 56DE3EAE
P 20550 9200
F 0 "#PWR046" H 20550 9050 50  0001 C CNN
F 1 "+3.3V" H 20550 9340 50  0000 C CNN
F 2 "" H 20550 9200 50  0000 C CNN
F 3 "" H 20550 9200 50  0000 C CNN
	1    20550 9200
	1    0    0    -1  
$EndComp
$Comp
L Device:R R20
U 1 1 56DE4152
P 20550 9650
F 0 "R20" V 20630 9650 50  0000 C CNN
F 1 "10K" V 20550 9650 50  0000 C CNN
F 2 "Resistors_SMD:R_0805_HandSoldering" V 20480 9650 50  0001 C CNN
F 3 "" H 20550 9650 50  0000 C CNN
	1    20550 9650
	1    0    0    -1  
$EndComp
$Comp
L ELC-rescue:LED-ELC-rescue D1
U 1 1 56DE4158
P 20550 10100
F 0 "D1" H 20550 10200 50  0000 C CNN
F 1 "LED" H 20550 10000 50  0000 C CNN
F 2 "LEDs:LED_0805" H 20550 10100 50  0000 C CNN
F 3 "" H 20550 10100 50  0000 C CNN
	1    20550 10100
	0    -1   -1   0   
$EndComp
Text GLabel 1900 6750 0    39   Input ~ 0
ULED0
Text GLabel 1900 6850 0    39   Input ~ 0
USWITCH1
Text GLabel 20550 10400 3    39   Input ~ 0
ULED0
Text GLabel 20150 10600 3    39   Input ~ 0
USWITCH1
$Comp
L ELC-rescue:SW_PUSH-ELC-rescue SW4
U 1 1 56DF393F
P 20150 10200
F 0 "SW4" H 20300 10310 50  0000 C CNN
F 1 "SW_PUSH" H 20150 10120 50  0000 C CNN
F 2 "Buttons_Switches_SMD:SW_SPST_EVQPE1" H 20150 10200 60  0001 C CNN
F 3 "" H 20150 10200 60  0000 C CNN
	1    20150 10200
	0    -1   -1   0   
$EndComp
$Comp
L Device:R R19
U 1 1 56DF582E
P 20150 9650
F 0 "R19" V 20230 9650 50  0000 C CNN
F 1 "10K" V 20150 9650 50  0000 C CNN
F 2 "Resistors_SMD:R_0805_HandSoldering" V 20080 9650 50  0001 C CNN
F 3 "" H 20150 9650 50  0000 C CNN
	1    20150 9650
	1    0    0    -1  
$EndComp
$Comp
L Device:C C50
U 1 1 56E04FDD
P 19750 10200
F 0 "C50" H 19775 10300 50  0000 L CNN
F 1 "100nF" H 19775 10100 50  0000 L CNN
F 2 "Capacitors_SMD:C_0805_HandSoldering" H 19788 10050 50  0001 C CNN
F 3 "" H 19750 10200 50  0000 C CNN
	1    19750 10200
	1    0    0    -1  
$EndComp
$Comp
L power:GND #PWR047
U 1 1 56E05353
P 19750 10450
F 0 "#PWR047" H 19750 10200 50  0001 C CNN
F 1 "GND" H 19750 10300 50  0000 C CNN
F 2 "" H 19750 10450 50  0000 C CNN
F 3 "" H 19750 10450 50  0000 C CNN
	1    19750 10450
	1    0    0    -1  
$EndComp
Text GLabel 21950 1700 3    39   Input ~ 0
DDM-
Text GLabel 22100 1700 3    39   Input ~ 0
DDP+
Text GLabel 19950 1800 3    39   Input ~ 0
HDMA-
Text GLabel 20150 1800 3    39   Input ~ 0
HDPA+
Text GLabel 1900 5950 0    39   Input ~ 0
SPI1_MISO
Text GLabel 1900 6050 0    39   Input ~ 0
SPI1_MOSI
Text GLabel 1900 6150 0    39   Input ~ 0
SPI1_SPCK
Text GLabel 1900 6250 0    39   Input ~ 0
SPI1_NPCS0
Text GLabel 1900 6350 0    39   Input ~ 0
TXD0
Text GLabel 1900 6450 0    39   Input ~ 0
RXD0
Text GLabel 1900 6550 0    39   Input ~ 0
TXD1
Text GLabel 1900 6650 0    39   Input ~ 0
RXD1
Text GLabel 1900 8650 0    39   Input ~ 0
CTS1
Text GLabel 1900 8550 0    39   Input ~ 0
RTS1
Text GLabel 1900 5650 0    39   Input ~ 0
SCK1
$Comp
L ELC-rescue:CONN_01X03-ELC-rescue P6
U 1 1 56DFAA01
P 21100 11200
F 0 "P6" H 21100 11400 50  0000 C CNN
F 1 "CONN_01X03" V 21200 11200 50  0000 C CNN
F 2 "Pin_Headers:Pin_Header_Straight_1x03" H 21100 11200 50  0001 C CNN
F 3 "" H 21100 11200 50  0000 C CNN
	1    21100 11200
	-1   0    0    1   
$EndComp
$Comp
L ELC-rescue:CONN_01X05-ELC-rescue P7
U 1 1 56DFB233
P 21100 11900
F 0 "P7" H 21100 12200 50  0000 C CNN
F 1 "CONN_01X05" V 21200 11900 50  0000 C CNN
F 2 "Pin_Headers:Pin_Header_Straight_1x05" H 21100 11900 50  0001 C CNN
F 3 "" H 21100 11900 50  0000 C CNN
	1    21100 11900
	-1   0    0    1   
$EndComp
$Comp
L ELC-rescue:CONN_01X06-ELC-rescue P8
U 1 1 56DFB308
P 21100 12700
F 0 "P8" H 21100 13050 50  0000 C CNN
F 1 "CONN_01X06" V 21200 12700 50  0000 C CNN
F 2 "Pin_Headers:Pin_Header_Straight_1x06" H 21100 12700 50  0001 C CNN
F 3 "" H 21100 12700 50  0000 C CNN
	1    21100 12700
	-1   0    0    1   
$EndComp
$Comp
L power:GND #PWR048
U 1 1 56DFB3EB
P 21400 11350
F 0 "#PWR048" H 21400 11100 50  0001 C CNN
F 1 "GND" H 21400 11200 50  0000 C CNN
F 2 "" H 21400 11350 50  0000 C CNN
F 3 "" H 21400 11350 50  0000 C CNN
	1    21400 11350
	1    0    0    -1  
$EndComp
$Comp
L power:GND #PWR049
U 1 1 56DFB914
P 21400 12150
F 0 "#PWR049" H 21400 11900 50  0001 C CNN
F 1 "GND" H 21400 12000 50  0000 C CNN
F 2 "" H 21400 12150 50  0000 C CNN
F 3 "" H 21400 12150 50  0000 C CNN
	1    21400 12150
	1    0    0    -1  
$EndComp
$Comp
L power:GND #PWR050
U 1 1 56DFC2A7
P 21400 13000
F 0 "#PWR050" H 21400 12750 50  0001 C CNN
F 1 "GND" H 21400 12850 50  0000 C CNN
F 2 "" H 21400 13000 50  0000 C CNN
F 3 "" H 21400 13000 50  0000 C CNN
	1    21400 13000
	1    0    0    -1  
$EndComp
Text GLabel 21500 11200 2    39   Input ~ 0
TXD0
Text GLabel 21500 11100 2    39   Input ~ 0
RXD0
Text GLabel 21400 12000 2    39   Input ~ 0
SPI1_MISO
Text GLabel 21400 11900 2    39   Input ~ 0
SPI1_MOSI
Text GLabel 21400 11800 2    39   Input ~ 0
SPI1_SPCK
Text GLabel 21400 11700 2    39   Input ~ 0
SPI1_NPCS0
Text GLabel 21550 12550 2    39   Input ~ 0
TXD1
Text GLabel 21550 12650 2    39   Input ~ 0
RXD1
Text GLabel 21550 12450 2    39   Input ~ 0
SCK1
Text GLabel 21550 12750 2    39   Input ~ 0
CTS1
Text GLabel 21550 12850 2    39   Input ~ 0
RTS1
$Comp
L power:GND #PWR051
U 1 1 56E0F8B3
P 7000 4200
F 0 "#PWR051" H 7000 3950 50  0001 C CNN
F 1 "GND" H 7000 4050 50  0000 C CNN
F 2 "" H 7000 4200 50  0000 C CNN
F 3 "" H 7000 4200 50  0000 C CNN
	1    7000 4200
	0    -1   -1   0   
$EndComp
$Comp
L Device:R R21
U 1 1 56E145E1
P 6750 7750
F 0 "R21" V 6830 7750 50  0000 C CNN
F 1 "100K" V 6750 7750 50  0000 C CNN
F 2 "Resistors_SMD:R_0805_HandSoldering" V 6680 7750 50  0001 C CNN
F 3 "" H 6750 7750 50  0000 C CNN
	1    6750 7750
	-1   0    0    1   
$EndComp
$Comp
L power:+3.3V #PWR052
U 1 1 56E14799
P 6750 7500
F 0 "#PWR052" H 6750 7350 50  0001 C CNN
F 1 "+3.3V" H 6750 7640 50  0000 C CNN
F 2 "" H 6750 7500 50  0000 C CNN
F 3 "" H 6750 7500 50  0000 C CNN
	1    6750 7500
	1    0    0    -1  
$EndComp
$Comp
L ELC-rescue:TEST_1P-ELC-rescue W1
U 1 1 56E1BAFC
P 20000 13650
F 0 "W1" H 20000 13920 50  0000 C CNN
F 1 "GND" H 20000 13850 50  0000 C CNN
F 2 "Measurement_Points:Measurement_Point_Square-SMD-Pad_Small" H 20200 13650 50  0001 C CNN
F 3 "" H 20200 13650 50  0000 C CNN
	1    20000 13650
	1    0    0    -1  
$EndComp
$Comp
L ELC-rescue:TEST_1P-ELC-rescue W2
U 1 1 56E1DB9B
P 20200 13650
F 0 "W2" H 20200 13920 50  0000 C CNN
F 1 "1.8V" H 20200 13850 50  0000 C CNN
F 2 "Measurement_Points:Measurement_Point_Square-SMD-Pad_Small" H 20400 13650 50  0001 C CNN
F 3 "" H 20400 13650 50  0000 C CNN
	1    20200 13650
	1    0    0    -1  
$EndComp
$Comp
L ELC-rescue:TEST_1P-ELC-rescue W3
U 1 1 56E1DCD9
P 20400 13650
F 0 "W3" H 20400 13920 50  0000 C CNN
F 1 "3.3V" H 20400 13850 50  0000 C CNN
F 2 "Measurement_Points:Measurement_Point_Square-SMD-Pad_Small" H 20600 13650 50  0001 C CNN
F 3 "" H 20600 13650 50  0000 C CNN
	1    20400 13650
	1    0    0    -1  
$EndComp
$Comp
L ELC-rescue:TEST_1P-ELC-rescue W4
U 1 1 56E1E123
P 20600 13650
F 0 "W4" H 20600 13920 50  0000 C CNN
F 1 "5V" H 20600 13850 50  0000 C CNN
F 2 "Measurement_Points:Measurement_Point_Square-SMD-Pad_Small" H 20800 13650 50  0001 C CNN
F 3 "" H 20800 13650 50  0000 C CNN
	1    20600 13650
	1    0    0    -1  
$EndComp
$Comp
L power:+3.3V #PWR053
U 1 1 56E21C23
P 20400 13850
F 0 "#PWR053" H 20400 13700 50  0001 C CNN
F 1 "+3.3V" H 20400 13990 50  0000 C CNN
F 2 "" H 20400 13850 50  0000 C CNN
F 3 "" H 20400 13850 50  0000 C CNN
	1    20400 13850
	-1   0    0    1   
$EndComp
$Comp
L power:GND #PWR054
U 1 1 56E21CFD
P 20000 13850
F 0 "#PWR054" H 20000 13600 50  0001 C CNN
F 1 "GND" H 20000 13700 50  0000 C CNN
F 2 "" H 20000 13850 50  0000 C CNN
F 3 "" H 20000 13850 50  0000 C CNN
	1    20000 13850
	1    0    0    -1  
$EndComp
$Comp
L power:+5V #PWR055
U 1 1 56E21DD7
P 20600 13850
F 0 "#PWR055" H 20600 13700 50  0001 C CNN
F 1 "+5V" H 20600 13990 50  0000 C CNN
F 2 "" H 20600 13850 50  0000 C CNN
F 3 "" H 20600 13850 50  0000 C CNN
	1    20600 13850
	-1   0    0    1   
$EndComp
$Comp
L power:+1V8 #PWR056
U 1 1 56E21EB1
P 20200 13850
F 0 "#PWR056" H 20200 13700 50  0001 C CNN
F 1 "+1V8" H 20200 13990 50  0000 C CNN
F 2 "" H 20200 13850 50  0000 C CNN
F 3 "" H 20200 13850 50  0000 C CNN
	1    20200 13850
	-1   0    0    1   
$EndComp
$Comp
L Device:R R23
U 1 1 56F31795
P 7550 900
F 0 "R23" V 7630 900 50  0000 C CNN
F 1 "1.5M" V 7550 900 50  0000 C CNN
F 2 "Resistors_SMD:R_0805_HandSoldering" V 7480 900 50  0001 C CNN
F 3 "" H 7550 900 50  0000 C CNN
	1    7550 900 
	1    0    0    -1  
$EndComp
$Comp
L power:+3.3V #PWR057
U 1 1 56F31876
P 7550 700
F 0 "#PWR057" H 7550 550 50  0001 C CNN
F 1 "+3.3V" H 7550 840 50  0000 C CNN
F 2 "" H 7550 700 50  0000 C CNN
F 3 "" H 7550 700 50  0000 C CNN
	1    7550 700 
	1    0    0    -1  
$EndComp
Connection ~ 7550 1100
Wire Wire Line
	7550 1050 7550 1100
Wire Wire Line
	7550 750  7550 700 
Wire Wire Line
	20600 13650 20600 13850
Wire Wire Line
	20400 13650 20400 13850
Wire Wire Line
	20200 13650 20200 13850
Wire Wire Line
	20000 13850 20000 13650
Wire Wire Line
	6750 7950 6400 7950
Wire Wire Line
	6750 7900 6750 7950
Wire Wire Line
	6750 7500 6750 7600
Wire Wire Line
	6500 4200 7000 4200
Wire Wire Line
	6500 4350 6500 4200
Wire Wire Line
	6400 4350 6500 4350
Wire Wire Line
	21300 12850 21550 12850
Wire Wire Line
	21300 12750 21550 12750
Wire Wire Line
	21300 12550 21550 12550
Wire Wire Line
	21300 12650 21550 12650
Wire Wire Line
	21300 12450 21550 12450
Wire Wire Line
	21400 12000 21300 12000
Wire Wire Line
	21300 11900 21400 11900
Wire Wire Line
	21400 11800 21300 11800
Wire Wire Line
	21300 11700 21400 11700
Wire Wire Line
	21300 11200 21500 11200
Wire Wire Line
	21300 11100 21500 11100
Wire Wire Line
	21400 12950 21400 13000
Wire Wire Line
	21300 12950 21400 12950
Wire Wire Line
	21400 12100 21400 12150
Wire Wire Line
	21300 12100 21400 12100
Wire Wire Line
	21400 11300 21400 11350
Wire Wire Line
	21300 11300 21400 11300
Wire Wire Line
	1900 5650 2150 5650
Wire Wire Line
	1900 8650 2150 8650
Wire Wire Line
	1900 8550 2150 8550
Wire Wire Line
	2150 6050 1900 6050
Wire Wire Line
	1900 6150 2150 6150
Wire Wire Line
	2150 6250 1900 6250
Wire Wire Line
	1900 6350 2150 6350
Wire Wire Line
	2150 6450 1900 6450
Wire Wire Line
	1900 6550 2150 6550
Wire Wire Line
	2150 6650 1900 6650
Wire Wire Line
	1900 5950 2150 5950
Wire Wire Line
	20150 9300 20550 9300
Connection ~ 20150 9850
Wire Wire Line
	19750 9850 20150 9850
Wire Wire Line
	19750 10050 19750 9850
Wire Wire Line
	19750 10450 19750 10350
Wire Wire Line
	20150 9800 20150 9850
Wire Wire Line
	20150 9500 20150 9300
Wire Wire Line
	20150 10600 20150 10500
Wire Wire Line
	20550 10400 20550 10300
Wire Wire Line
	1900 6850 2150 6850
Wire Wire Line
	1900 6750 2150 6750
Wire Wire Line
	21300 10350 21300 10200
Wire Wire Line
	21300 9400 21300 9300
Wire Wire Line
	21300 9800 21300 9700
Wire Wire Line
	20550 9800 20550 9900
Connection ~ 20550 9300
Wire Wire Line
	20550 9200 20550 9300
Connection ~ 19550 6400
Wire Wire Line
	19550 8300 21050 8300
Wire Wire Line
	19550 6400 19550 8300
Connection ~ 19600 7100
Wire Wire Line
	19600 8200 21050 8200
Wire Wire Line
	19600 7100 19600 8200
Connection ~ 19650 7000
Wire Wire Line
	19650 8100 21050 8100
Wire Wire Line
	19650 7000 19650 8100
Connection ~ 19700 7700
Wire Wire Line
	19700 7700 21050 7700
Connection ~ 19700 6900
Wire Wire Line
	19700 8000 21050 8000
Wire Wire Line
	19700 6900 19700 7700
Connection ~ 19750 6800
Wire Wire Line
	19750 7900 21050 7900
Wire Wire Line
	19750 6800 19750 7900
Connection ~ 19800 6700
Wire Wire Line
	19800 7800 21050 7800
Wire Wire Line
	19800 6700 19800 7800
Connection ~ 19850 6600
Wire Wire Line
	19850 7600 21050 7600
Wire Wire Line
	19850 6600 19850 7600
Connection ~ 19900 6500
Wire Wire Line
	19900 7500 19900 6500
Wire Wire Line
	21050 7500 19900 7500
Connection ~ 22550 3900
Connection ~ 22300 3900
Wire Wire Line
	22100 3900 22300 3900
Connection ~ 22550 3600
Connection ~ 22300 3600
Connection ~ 22400 3600
Connection ~ 22400 3500
Wire Wire Line
	22400 3600 22400 3500
Wire Wire Line
	22100 3600 22300 3600
Connection ~ 6650 4350
Wire Wire Line
	6650 3850 6650 4350
Wire Wire Line
	6400 3850 6650 3850
Wire Wire Line
	6750 2100 6750 2150
Wire Wire Line
	6600 2100 6750 2100
Wire Wire Line
	6600 2050 6600 2100
Wire Wire Line
	6500 2100 6500 2050
Wire Wire Line
	6500 2400 6500 2950
Wire Wire Line
	6500 2950 6400 2950
Wire Wire Line
	6400 2100 6400 2050
Wire Wire Line
	6150 2100 6400 2100
Wire Wire Line
	6150 2000 6150 2100
Wire Wire Line
	3450 12400 3550 12400
Connection ~ 15450 1450
Wire Wire Line
	2150 3550 1900 3550
Wire Wire Line
	1900 3250 2150 3250
Wire Wire Line
	2150 3150 1900 3150
Wire Wire Line
	1900 3050 2150 3050
Wire Wire Line
	1900 2850 2150 2850
Wire Wire Line
	1900 2750 2150 2750
Wire Wire Line
	17150 6450 17400 6450
Wire Wire Line
	17700 6450 17700 6700
Wire Wire Line
	18600 6800 19750 6800
Wire Wire Line
	18600 6400 19550 6400
Wire Wire Line
	18600 6500 19900 6500
Wire Wire Line
	18600 7100 19600 7100
Wire Wire Line
	18600 7000 19650 7000
Wire Wire Line
	18650 5900 18650 5800
Connection ~ 18650 6600
Wire Wire Line
	18650 6200 18650 6600
Wire Wire Line
	18600 6600 18650 6600
Wire Wire Line
	17150 6450 17150 6250
Connection ~ 17400 6900
Connection ~ 17400 6450
Wire Wire Line
	17700 6700 19800 6700
Wire Wire Line
	17400 6450 17400 6500
Wire Wire Line
	17400 6900 17400 6800
Wire Wire Line
	17200 6900 17400 6900
Connection ~ 21950 5100
Wire Wire Line
	21850 5100 21850 5200
Wire Wire Line
	21850 5100 21950 5100
Wire Wire Line
	22050 5100 22050 5200
Connection ~ 22050 5550
Wire Wire Line
	22050 5500 22050 5550
Connection ~ 21850 5650
Wire Wire Line
	21850 5500 21850 5650
Wire Wire Line
	21700 5550 22050 5550
Wire Wire Line
	21700 5650 21850 5650
Wire Wire Line
	2050 5150 2150 5150
Wire Wire Line
	2150 5050 2050 5050
Wire Wire Line
	22200 5750 22100 5750
Wire Wire Line
	21450 2650 21450 2700
Connection ~ 21450 2700
Wire Wire Line
	20850 2700 21450 2700
Wire Wire Line
	21850 2350 22000 2350
Wire Wire Line
	22000 2400 22000 2350
Connection ~ 22000 2350
Wire Wire Line
	20700 2350 20850 2350
Wire Wire Line
	20850 2400 20850 2350
Connection ~ 20850 2350
Wire Wire Line
	20450 3450 20450 3500
Wire Wire Line
	20450 3500 20600 3500
Wire Wire Line
	20700 2350 20700 2300
Wire Wire Line
	22100 2350 22100 2300
Wire Wire Line
	20300 3700 20450 3700
Connection ~ 20450 3500
Wire Wire Line
	22200 3500 22400 3500
Wire Wire Line
	22600 3500 22600 3450
Wire Wire Line
	21400 4600 21400 4500
Connection ~ 20450 3700
Wire Wire Line
	20300 4000 20300 4050
Wire Wire Line
	22300 3900 22300 4150
Wire Wire Line
	22200 1050 22200 1100
Wire Wire Line
	22200 1100 22300 1100
Wire Wire Line
	22300 1050 22300 1100
Connection ~ 22300 1100
Wire Wire Line
	3450 12250 3450 12400
Wire Wire Line
	5550 12400 5550 12250
Wire Wire Line
	5450 12400 5450 12250
Connection ~ 5450 12400
Wire Wire Line
	5350 12400 5350 12250
Connection ~ 5350 12400
Wire Wire Line
	5250 12400 5250 12250
Connection ~ 5250 12400
Wire Wire Line
	5150 12400 5150 12250
Connection ~ 5150 12400
Wire Wire Line
	5050 12400 5050 12250
Connection ~ 5050 12400
Wire Wire Line
	4950 12400 4950 12250
Connection ~ 4950 12400
Wire Wire Line
	4850 12400 4850 12250
Connection ~ 4850 12400
Wire Wire Line
	4750 12400 4750 12250
Connection ~ 4750 12400
Wire Wire Line
	4650 12400 4650 12250
Connection ~ 4650 12400
Wire Wire Line
	4550 12400 4550 12250
Connection ~ 4550 12400
Wire Wire Line
	4450 12400 4450 12250
Connection ~ 4450 12400
Wire Wire Line
	4350 12400 4350 12250
Connection ~ 4350 12400
Wire Wire Line
	4250 12400 4250 12250
Connection ~ 4250 12400
Wire Wire Line
	4150 12400 4150 12250
Connection ~ 4150 12400
Wire Wire Line
	4050 12400 4050 12250
Connection ~ 4050 12400
Wire Wire Line
	3950 12400 3950 12250
Connection ~ 3950 12400
Wire Wire Line
	3750 12400 3750 12250
Connection ~ 3750 12400
Wire Wire Line
	3650 12400 3650 12250
Connection ~ 3650 12400
Wire Wire Line
	3550 12250 3550 12400
Connection ~ 3550 12400
Wire Wire Line
	3850 12400 3850 12450
Connection ~ 3850 12400
Wire Wire Line
	3400 1900 3400 2200
Wire Wire Line
	2800 2200 3000 2200
Wire Wire Line
	3000 1900 3000 2200
Wire Wire Line
	3100 1550 3100 2200
Connection ~ 3100 2200
Connection ~ 3200 2200
Wire Wire Line
	3300 1550 3300 2200
Connection ~ 3300 2200
Connection ~ 3000 2200
Wire Wire Line
	3200 1900 3200 2200
Wire Wire Line
	3400 1200 3400 1600
Wire Wire Line
	2800 1200 3000 1200
Wire Wire Line
	3000 1200 3000 1600
Wire Wire Line
	3200 1200 3200 1600
Connection ~ 3200 1200
Wire Wire Line
	3100 1200 3100 1250
Connection ~ 3100 1200
Wire Wire Line
	3300 1200 3300 1250
Connection ~ 3300 1200
Connection ~ 3400 2200
Wire Wire Line
	3600 1550 3600 2200
Connection ~ 3600 2200
Wire Wire Line
	3600 1200 3600 1250
Connection ~ 3400 1200
Wire Wire Line
	2800 1200 2800 1350
Connection ~ 3000 1200
Wire Wire Line
	4250 1900 4250 2200
Wire Wire Line
	4050 2200 4250 2200
Wire Wire Line
	5550 1550 5550 2200
Connection ~ 5550 2200
Wire Wire Line
	5400 1900 5400 2200
Connection ~ 5400 2200
Wire Wire Line
	5300 1550 5300 2200
Connection ~ 5300 2200
Wire Wire Line
	5200 1900 5200 2200
Connection ~ 5200 2200
Wire Wire Line
	5100 1550 5100 2200
Connection ~ 5100 2200
Wire Wire Line
	5000 1900 5000 2200
Connection ~ 5000 2200
Wire Wire Line
	4900 1550 4900 2200
Connection ~ 4900 2200
Wire Wire Line
	4800 1900 4800 2200
Connection ~ 4800 2200
Wire Wire Line
	4550 1550 4550 2200
Connection ~ 4550 2200
Wire Wire Line
	4450 1900 4450 2200
Connection ~ 4450 2200
Wire Wire Line
	4350 1550 4350 2200
Connection ~ 4350 2200
Wire Wire Line
	5200 1200 5200 1600
Wire Wire Line
	4800 1200 4800 1600
Wire Wire Line
	5000 1200 5000 1600
Wire Wire Line
	5400 1200 5400 1600
Wire Wire Line
	4900 1200 4900 1250
Wire Wire Line
	4250 1200 4350 1200
Wire Wire Line
	5850 1200 5850 1250
Wire Wire Line
	5550 1200 5550 1250
Connection ~ 5550 1200
Wire Wire Line
	5300 1200 5300 1250
Connection ~ 5300 1200
Wire Wire Line
	5100 1200 5100 1250
Connection ~ 5100 1200
Connection ~ 4900 1200
Wire Wire Line
	4250 1200 4250 1600
Wire Wire Line
	4450 1200 4450 1600
Connection ~ 4250 2200
Connection ~ 4800 1200
Wire Wire Line
	4550 1200 4550 1250
Connection ~ 4550 1200
Wire Wire Line
	4350 1250 4350 1200
Connection ~ 4350 1200
Connection ~ 4450 1200
Connection ~ 5000 1200
Connection ~ 5200 1200
Connection ~ 5400 1200
Wire Wire Line
	2800 2200 2800 2150
Wire Wire Line
	15450 1700 15500 1700
Wire Wire Line
	15450 1800 15500 1800
Connection ~ 15450 1700
Wire Wire Line
	15450 1900 15500 1900
Connection ~ 15450 1800
Wire Wire Line
	15450 2000 15500 2000
Connection ~ 15450 1900
Wire Wire Line
	15450 2100 15500 2100
Connection ~ 15450 2000
Connection ~ 15450 2100
Wire Wire Line
	15250 1450 15450 1450
Wire Wire Line
	15450 750  15450 850 
Wire Wire Line
	15250 850  15450 850 
Connection ~ 15450 850 
Wire Wire Line
	14850 950  15450 950 
Connection ~ 15450 950 
Wire Wire Line
	15250 1050 15450 1050
Connection ~ 15450 1050
Wire Wire Line
	14850 1150 15450 1150
Connection ~ 15450 1150
Wire Wire Line
	15250 1250 15450 1250
Connection ~ 15450 1250
Wire Wire Line
	14850 1350 15450 1350
Connection ~ 15450 1350
Wire Wire Line
	14950 850  14500 850 
Wire Wire Line
	14500 850  14500 950 
Wire Wire Line
	14500 950  14550 950 
Wire Wire Line
	14500 1050 14950 1050
Wire Wire Line
	14500 1150 14550 1150
Wire Wire Line
	14500 1250 14950 1250
Wire Wire Line
	14500 1350 14550 1350
Wire Wire Line
	14500 1450 14950 1450
Connection ~ 14500 1050
Connection ~ 14500 950 
Connection ~ 14500 1250
Connection ~ 14500 1150
Connection ~ 14500 1350
Connection ~ 14500 1450
Wire Wire Line
	17050 850  17200 850 
Wire Wire Line
	17050 950  17200 950 
Wire Wire Line
	17050 1050 17200 1050
Wire Wire Line
	17050 1150 17200 1150
Wire Wire Line
	17050 1250 17200 1250
Wire Wire Line
	17050 1350 17200 1350
Wire Wire Line
	17050 1450 17200 1450
Wire Wire Line
	17050 1550 17200 1550
Wire Wire Line
	17050 1650 17200 1650
Wire Wire Line
	17050 1750 17200 1750
Wire Wire Line
	17050 1850 17200 1850
Wire Wire Line
	17050 1950 17200 1950
Wire Wire Line
	17050 2050 17200 2050
Wire Wire Line
	17050 2150 17200 2150
Wire Wire Line
	17050 2250 17200 2250
Wire Wire Line
	17050 2350 17200 2350
Wire Bus Line
	17300 2500 17600 2500
Wire Bus Line
	17300 4150 17600 4150
Wire Wire Line
	17050 2550 17200 2550
Wire Wire Line
	17050 2650 17200 2650
Wire Wire Line
	17050 2750 17200 2750
Wire Wire Line
	17050 2850 17200 2850
Wire Wire Line
	17050 2950 17200 2950
Wire Wire Line
	17050 3050 17200 3050
Wire Wire Line
	17050 3150 17200 3150
Wire Wire Line
	17050 3250 17200 3250
Wire Wire Line
	17050 3350 17200 3350
Wire Wire Line
	17050 3450 17200 3450
Wire Wire Line
	17050 3550 17200 3550
Wire Wire Line
	17050 3650 17200 3650
Wire Wire Line
	5850 2200 5850 2100
Wire Wire Line
	15450 2200 15500 2200
Wire Wire Line
	14500 1600 15450 1600
Wire Wire Line
	15450 1600 15450 1700
Connection ~ 15450 1600
Connection ~ 14500 1600
Wire Wire Line
	14600 3200 15500 3200
Wire Wire Line
	14600 3100 15500 3100
Wire Wire Line
	14600 2950 15000 2950
Wire Wire Line
	14600 2850 15500 2850
Wire Wire Line
	14600 2750 15500 2750
Wire Wire Line
	14600 2650 15500 2650
Wire Wire Line
	14600 2500 15500 2500
Wire Bus Line
	14500 2200 14250 2200
Wire Wire Line
	17050 3850 17200 3850
Wire Wire Line
	17200 3950 17050 3950
Wire Bus Line
	6700 12050 6850 12050
Wire Wire Line
	6400 10350 6600 10350
Wire Wire Line
	6600 10450 6400 10450
Wire Wire Line
	6400 10550 6600 10550
Wire Wire Line
	6600 10650 6400 10650
Wire Wire Line
	6400 10750 6600 10750
Wire Wire Line
	6600 10850 6400 10850
Wire Wire Line
	6400 10950 6600 10950
Wire Wire Line
	6600 11050 6400 11050
Wire Wire Line
	6400 11150 6600 11150
Wire Wire Line
	6600 11250 6400 11250
Wire Wire Line
	6400 11350 6600 11350
Wire Wire Line
	6600 11450 6400 11450
Wire Wire Line
	6400 11550 6600 11550
Wire Wire Line
	6600 11650 6400 11650
Wire Wire Line
	6400 11750 6600 11750
Wire Wire Line
	6600 11850 6400 11850
Wire Wire Line
	6950 2550 7000 2550
Wire Wire Line
	7350 2800 7100 2800
Wire Wire Line
	7350 2550 7350 2700
Wire Wire Line
	7350 2550 7300 2550
Connection ~ 7350 2700
Wire Wire Line
	7350 2700 7400 2700
Wire Wire Line
	6650 2550 6600 2550
Wire Wire Line
	6600 2550 6600 2800
Wire Wire Line
	4050 2200 4050 2300
Wire Wire Line
	3850 2200 3850 2300
Wire Wire Line
	3750 2200 3750 2300
Connection ~ 3750 2200
Wire Wire Line
	2150 9350 2000 9350
Wire Wire Line
	2000 9450 2150 9450
Wire Wire Line
	2150 9750 2000 9750
Wire Wire Line
	2000 9950 2150 9950
Wire Wire Line
	2000 10050 2150 10050
Wire Wire Line
	2000 10150 2150 10150
Wire Wire Line
	2000 10250 2150 10250
Wire Wire Line
	2000 10350 2150 10350
Wire Wire Line
	2000 10450 2150 10450
Wire Wire Line
	2000 10550 2150 10550
Wire Wire Line
	2000 10650 2150 10650
Wire Wire Line
	2000 10750 2150 10750
Wire Wire Line
	2150 10850 2000 10850
Wire Wire Line
	2000 11150 2150 11150
Wire Bus Line
	1900 9200 1750 9200
Wire Wire Line
	2000 10950 2150 10950
Wire Wire Line
	2000 11050 2150 11050
Wire Wire Line
	2000 9550 2150 9550
Wire Wire Line
	2000 9650 2150 9650
Wire Wire Line
	2000 9850 2150 9850
Wire Bus Line
	6700 7150 7100 7150
Wire Wire Line
	6400 6050 6600 6050
Wire Wire Line
	6600 6150 6400 6150
Wire Wire Line
	6400 6250 6600 6250
Wire Wire Line
	6600 6350 6400 6350
Wire Wire Line
	6400 6450 6600 6450
Wire Wire Line
	6600 6550 6400 6550
Wire Wire Line
	6400 6900 6600 6900
Wire Wire Line
	14650 2400 15500 2400
Wire Bus Line
	14550 2300 14550 2100
Wire Bus Line
	14550 2100 14250 2100
Wire Wire Line
	11650 1750 11800 1750
Wire Wire Line
	12800 1750 12850 1750
Wire Wire Line
	12850 950  12850 1050
Wire Wire Line
	12850 950  11650 950 
Wire Wire Line
	13050 1750 13050 1800
Connection ~ 12850 1750
Wire Wire Line
	11650 1550 11800 1550
Wire Wire Line
	11650 1650 11800 1650
Wire Wire Line
	11650 1450 11800 1450
Wire Wire Line
	12850 1650 12300 1650
Connection ~ 12850 1650
Wire Wire Line
	12850 1450 12300 1450
Connection ~ 12850 1450
Wire Wire Line
	12850 1550 12800 1550
Connection ~ 12850 1550
Connection ~ 11800 1650
Connection ~ 11800 1750
Connection ~ 11800 1550
Connection ~ 11800 1450
Wire Wire Line
	12850 1250 11650 1250
Connection ~ 12850 1250
Wire Wire Line
	12850 1150 11650 1150
Connection ~ 12850 1150
Wire Wire Line
	11650 1050 12850 1050
Connection ~ 12850 1050
Wire Wire Line
	11800 1450 11800 1550
Wire Wire Line
	11650 1950 11850 1950
Wire Wire Line
	11850 2050 11650 2050
Wire Wire Line
	11650 2150 11850 2150
Wire Wire Line
	11650 2250 11850 2250
Wire Wire Line
	11650 2350 11850 2350
Wire Wire Line
	11650 2450 11850 2450
Wire Wire Line
	11650 2550 11850 2550
Wire Wire Line
	11650 2650 11850 2650
Wire Wire Line
	11650 2750 11850 2750
Wire Wire Line
	11650 2850 11850 2850
Wire Wire Line
	11650 2950 11850 2950
Wire Wire Line
	11650 3050 11850 3050
Wire Wire Line
	11650 3150 11850 3150
Wire Wire Line
	11650 3250 11850 3250
Wire Wire Line
	11650 3350 11850 3350
Wire Wire Line
	11650 3450 11850 3450
Wire Bus Line
	11950 3600 12350 3600
Wire Wire Line
	9700 2700 10000 2700
Wire Wire Line
	9700 2800 10600 2800
Wire Wire Line
	9700 2900 10150 2900
Wire Wire Line
	9700 3000 10600 3000
Wire Wire Line
	9700 3100 10600 3100
Wire Wire Line
	9700 3200 10600 3200
Wire Bus Line
	9600 2500 9450 2500
Wire Wire Line
	6400 5800 6700 5800
Wire Wire Line
	6400 5700 6700 5700
Wire Wire Line
	6400 5600 6700 5600
Wire Wire Line
	6400 5500 6700 5500
Wire Wire Line
	6400 5400 6700 5400
Wire Bus Line
	6800 6050 7000 6050
Wire Wire Line
	10000 1950 10000 2000
Wire Wire Line
	10000 2350 10000 2700
Wire Wire Line
	9500 3400 9500 3450
Wire Wire Line
	9500 3450 9650 3450
Wire Wire Line
	10150 2350 10150 2900
Wire Wire Line
	10150 2000 10150 2050
Connection ~ 10000 2000
Connection ~ 10000 2700
Wire Wire Line
	10000 2000 10150 2000
Connection ~ 10150 2900
Wire Wire Line
	10550 3300 10600 3300
Wire Wire Line
	10600 3300 10600 3450
Wire Wire Line
	10600 3450 9950 3450
Wire Wire Line
	10200 3300 10250 3300
Wire Wire Line
	10200 2700 10200 3300
Connection ~ 10200 2700
Connection ~ 6600 2800
Wire Wire Line
	5700 2200 5700 2300
Connection ~ 5700 2200
Wire Wire Line
	6400 5900 6700 5900
Wire Wire Line
	15000 2050 15000 1950
Wire Wire Line
	15000 2350 15000 2950
Connection ~ 15000 2950
Wire Wire Line
	22100 1050 22100 1300
Wire Wire Line
	22000 1300 22000 1050
Wire Wire Line
	21850 1300 21950 1300
Wire Wire Line
	21950 1300 21950 1350
Wire Wire Line
	21950 1700 21950 1650
Wire Wire Line
	22100 1650 22100 1700
Wire Wire Line
	21650 1100 21700 1100
Wire Wire Line
	21700 1100 21700 1000
Wire Wire Line
	21900 1100 21900 1050
Connection ~ 21700 1100
Wire Wire Line
	21250 1100 21300 1100
Connection ~ 21950 1300
Wire Wire Line
	21550 1300 21300 1300
Wire Wire Line
	21300 1300 21300 1100
Connection ~ 21300 1100
Wire Wire Line
	22500 650  22550 650 
Wire Wire Line
	22550 650  22550 1100
Wire Wire Line
	22700 650  22700 750 
Connection ~ 22550 650 
Wire Wire Line
	22550 1300 22500 1300
Connection ~ 22550 1100
Wire Wire Line
	22200 1300 22100 1300
Connection ~ 22100 1300
Wire Wire Line
	20200 1050 20200 1100
Wire Wire Line
	20200 1100 20550 1100
Wire Wire Line
	20400 650  20550 650 
Wire Wire Line
	19900 1100 19900 1050
Wire Wire Line
	19700 1100 19750 1100
Wire Wire Line
	19750 1100 19750 800 
Connection ~ 19750 1100
Wire Wire Line
	19300 1100 19350 1100
Wire Wire Line
	19950 1150 19950 1400
Wire Wire Line
	19950 1150 20000 1150
Wire Wire Line
	20000 1150 20000 1050
Wire Wire Line
	20100 1050 20100 1150
Wire Wire Line
	20100 1150 20150 1150
Wire Wire Line
	20150 1150 20150 1400
Wire Wire Line
	19350 1100 19350 1400
Wire Wire Line
	19350 1400 19500 1400
Connection ~ 19350 1100
Wire Wire Line
	19800 1400 19950 1400
Connection ~ 19950 1400
Wire Wire Line
	20550 650  20550 1100
Connection ~ 20550 650 
Wire Wire Line
	20250 1400 20150 1400
Connection ~ 20150 1400
Connection ~ 20550 1100
Wire Wire Line
	20650 650  20650 700 
Wire Wire Line
	19950 1750 19950 1800
Wire Wire Line
	20150 1750 20150 1800
Wire Wire Line
	6600 3050 6400 3050
Wire Wire Line
	6800 2800 6600 2800
Wire Wire Line
	6400 3150 6800 3150
Wire Wire Line
	6800 3150 6800 3100
Wire Wire Line
	6800 3100 7050 3100
Wire Wire Line
	6800 3300 7050 3300
Wire Wire Line
	6800 3300 6800 3250
Wire Wire Line
	6800 3250 6400 3250
Wire Wire Line
	6400 3350 7400 3350
Wire Wire Line
	7200 3550 7400 3550
Wire Wire Line
	7200 3550 7200 3450
Wire Wire Line
	7200 3450 6400 3450
Wire Wire Line
	7250 3300 7250 3200
Connection ~ 7050 3300
Wire Wire Line
	7250 3100 7250 2950
Connection ~ 7050 3100
Wire Wire Line
	7550 2950 7700 2950
Wire Wire Line
	7700 2950 7700 3050
Wire Wire Line
	7700 3200 7550 3200
Wire Wire Line
	7700 3050 7800 3050
Connection ~ 7700 3050
Connection ~ 7400 3350
Wire Wire Line
	7600 3550 7600 3600
Wire Wire Line
	7600 3600 7650 3600
Connection ~ 7400 3550
Wire Wire Line
	8150 3600 7950 3600
Wire Wire Line
	8150 3350 8150 3450
Wire Wire Line
	8150 3350 7950 3350
Wire Wire Line
	8150 3450 8250 3450
Connection ~ 8150 3450
Wire Wire Line
	6400 4950 6750 4950
Wire Wire Line
	6400 5050 6750 5050
Wire Wire Line
	6400 5150 6750 5150
Wire Wire Line
	6400 5250 6750 5250
Wire Wire Line
	7200 4800 7050 4800
Wire Wire Line
	6400 4800 6650 4800
Wire Wire Line
	6650 4800 6650 4700
Wire Wire Line
	6650 4700 6800 4700
Connection ~ 6650 4800
Wire Wire Line
	7200 4700 7000 4700
Wire Wire Line
	7200 4500 7200 4550
Wire Wire Line
	7200 4500 7050 4500
Connection ~ 7200 4550
Wire Wire Line
	6650 4500 6750 4500
Wire Wire Line
	6650 4500 6650 4650
Wire Wire Line
	6650 4650 6600 4650
Wire Wire Line
	6600 4650 6600 4700
Wire Wire Line
	6600 4700 6400 4700
Wire Wire Line
	6400 4600 6600 4600
Wire Wire Line
	8050 4350 8000 4350
Wire Wire Line
	7600 4350 7600 4450
Connection ~ 7600 4350
Wire Wire Line
	7600 5050 7600 5200
Wire Wire Line
	6600 4600 6600 4350
Wire Wire Line
	6600 4350 6650 4350
Wire Wire Line
	6400 3600 6500 3600
Wire Wire Line
	6400 3700 6500 3700
Wire Wire Line
	7000 1600 7150 1600
Wire Wire Line
	7350 1450 7500 1450
Wire Wire Line
	7450 1600 7500 1600
Wire Wire Line
	7500 1600 7500 1450
Connection ~ 7500 1450
Wire Wire Line
	8200 1450 8300 1450
Wire Wire Line
	8300 1100 8200 1100
Wire Wire Line
	7600 1100 7550 1100
Wire Wire Line
	7550 1100 7350 1100
Wire Wire Line
	20150 9850 20150 9900
Wire Wire Line
	20550 9300 20550 9500
Wire Wire Line
	19550 6400 20150 6400
Wire Wire Line
	19600 7100 20150 7100
Wire Wire Line
	19650 7000 20150 7000
Wire Wire Line
	19700 7700 19700 8000
Wire Wire Line
	19700 6900 20150 6900
Wire Wire Line
	19750 6800 20150 6800
Wire Wire Line
	19800 6700 20150 6700
Wire Wire Line
	19850 6600 20150 6600
Wire Wire Line
	19900 6500 20150 6500
Wire Wire Line
	22550 3900 22750 3900
Wire Wire Line
	22300 3900 22550 3900
Wire Wire Line
	22550 3600 22750 3600
Wire Wire Line
	22300 3600 22400 3600
Wire Wire Line
	22400 3600 22550 3600
Wire Wire Line
	22400 3500 22600 3500
Wire Wire Line
	6650 4350 7600 4350
Wire Wire Line
	15450 1450 15500 1450
Wire Wire Line
	18650 6600 19850 6600
Wire Wire Line
	17400 6900 19700 6900
Wire Wire Line
	17400 6450 17700 6450
Wire Wire Line
	21950 5100 22050 5100
Wire Wire Line
	22050 5550 22200 5550
Wire Wire Line
	21850 5650 22200 5650
Wire Wire Line
	21450 2700 21450 2850
Wire Wire Line
	21450 2700 22000 2700
Wire Wire Line
	22000 2350 22100 2350
Wire Wire Line
	20850 2350 21050 2350
Wire Wire Line
	20450 3500 20450 3700
Wire Wire Line
	20450 3700 20600 3700
Wire Wire Line
	22300 1100 22550 1100
Wire Wire Line
	5450 12400 5550 12400
Wire Wire Line
	5350 12400 5450 12400
Wire Wire Line
	5250 12400 5350 12400
Wire Wire Line
	5150 12400 5250 12400
Wire Wire Line
	5050 12400 5150 12400
Wire Wire Line
	4950 12400 5050 12400
Wire Wire Line
	4850 12400 4950 12400
Wire Wire Line
	4750 12400 4850 12400
Wire Wire Line
	4650 12400 4750 12400
Wire Wire Line
	4550 12400 4650 12400
Wire Wire Line
	4450 12400 4550 12400
Wire Wire Line
	4350 12400 4450 12400
Wire Wire Line
	4250 12400 4350 12400
Wire Wire Line
	4150 12400 4250 12400
Wire Wire Line
	4050 12400 4150 12400
Wire Wire Line
	3950 12400 4050 12400
Wire Wire Line
	3750 12400 3850 12400
Wire Wire Line
	3650 12400 3750 12400
Wire Wire Line
	3550 12400 3650 12400
Wire Wire Line
	3850 12400 3950 12400
Wire Wire Line
	3100 2200 3200 2200
Wire Wire Line
	3100 2200 3100 2300
Wire Wire Line
	3200 2200 3200 2300
Wire Wire Line
	3200 2200 3300 2200
Wire Wire Line
	3300 2200 3300 2300
Wire Wire Line
	3300 2200 3400 2200
Wire Wire Line
	3000 2200 3100 2200
Wire Wire Line
	3000 2200 3000 2300
Wire Wire Line
	3200 1200 3300 1200
Wire Wire Line
	3100 1200 3200 1200
Wire Wire Line
	3300 1200 3400 1200
Wire Wire Line
	3400 2200 3400 2300
Wire Wire Line
	3400 2200 3600 2200
Wire Wire Line
	3600 2200 3600 2300
Wire Wire Line
	3600 2200 3750 2200
Wire Wire Line
	3400 1200 3600 1200
Wire Wire Line
	3000 1200 3100 1200
Wire Wire Line
	5550 2200 5700 2200
Wire Wire Line
	5550 2200 5550 2300
Wire Wire Line
	5400 2200 5550 2200
Wire Wire Line
	5400 2200 5400 2300
Wire Wire Line
	5300 2200 5400 2200
Wire Wire Line
	5300 2200 5300 2300
Wire Wire Line
	5200 2200 5300 2200
Wire Wire Line
	5200 2200 5200 2300
Wire Wire Line
	5100 2200 5200 2200
Wire Wire Line
	5100 2200 5100 2300
Wire Wire Line
	5000 2200 5100 2200
Wire Wire Line
	5000 2200 5000 2300
Wire Wire Line
	4900 2200 5000 2200
Wire Wire Line
	4900 2200 4900 2300
Wire Wire Line
	4800 2200 4900 2200
Wire Wire Line
	4800 2200 4800 2300
Wire Wire Line
	4550 2200 4800 2200
Wire Wire Line
	4550 2200 4550 2300
Wire Wire Line
	4450 2200 4550 2200
Wire Wire Line
	4450 2200 4450 2300
Wire Wire Line
	4350 2200 4450 2200
Wire Wire Line
	4350 2200 4350 2300
Wire Wire Line
	5550 1200 5850 1200
Wire Wire Line
	5300 1200 5400 1200
Wire Wire Line
	5100 1200 5200 1200
Wire Wire Line
	4900 1200 5000 1200
Wire Wire Line
	4250 2200 4250 2300
Wire Wire Line
	4250 2200 4350 2200
Wire Wire Line
	4800 1200 4900 1200
Wire Wire Line
	4550 1200 4800 1200
Wire Wire Line
	4350 1200 4450 1200
Wire Wire Line
	4450 1200 4550 1200
Wire Wire Line
	5000 1200 5100 1200
Wire Wire Line
	5200 1200 5300 1200
Wire Wire Line
	5400 1200 5550 1200
Wire Wire Line
	15450 1700 15450 1800
Wire Wire Line
	15450 1800 15450 1900
Wire Wire Line
	15450 1900 15450 2000
Wire Wire Line
	15450 2000 15450 2100
Wire Wire Line
	15450 2100 15450 2200
Wire Wire Line
	15450 850  15450 950 
Wire Wire Line
	15450 850  15500 850 
Wire Wire Line
	15450 950  15500 950 
Wire Wire Line
	15450 950  15450 1050
Wire Wire Line
	15450 1050 15500 1050
Wire Wire Line
	15450 1050 15450 1150
Wire Wire Line
	15450 1150 15500 1150
Wire Wire Line
	15450 1150 15450 1250
Wire Wire Line
	15450 1250 15500 1250
Wire Wire Line
	15450 1250 15450 1350
Wire Wire Line
	15450 1350 15500 1350
Wire Wire Line
	15450 1350 15450 1450
Wire Wire Line
	14500 1050 14500 1150
Wire Wire Line
	14500 950  14500 1050
Wire Wire Line
	14500 1250 14500 1350
Wire Wire Line
	14500 1150 14500 1250
Wire Wire Line
	14500 1350 14500 1450
Wire Wire Line
	14500 1450 14500 1600
Wire Wire Line
	15450 1600 15500 1600
Wire Wire Line
	14500 1600 14500 1700
Wire Wire Line
	7350 2700 7350 2800
Wire Wire Line
	3750 2200 3850 2200
Wire Wire Line
	12850 1750 13050 1750
Wire Wire Line
	12850 1650 12850 1750
Wire Wire Line
	12850 1450 12850 1550
Wire Wire Line
	12850 1550 12850 1650
Wire Wire Line
	11800 1650 12000 1650
Wire Wire Line
	11800 1650 11800 1750
Wire Wire Line
	11800 1750 12500 1750
Wire Wire Line
	11800 1550 12500 1550
Wire Wire Line
	11800 1550 11800 1650
Wire Wire Line
	11800 1450 12000 1450
Wire Wire Line
	12850 1250 12850 1450
Wire Wire Line
	12850 1150 12850 1250
Wire Wire Line
	12850 1050 12850 1150
Wire Wire Line
	10000 2000 10000 2050
Wire Wire Line
	10000 2700 10200 2700
Wire Wire Line
	10150 2900 10600 2900
Wire Wire Line
	10200 2700 10600 2700
Wire Wire Line
	6600 2800 6600 3050
Wire Wire Line
	5700 2200 5850 2200
Wire Wire Line
	15000 2950 15500 2950
Wire Wire Line
	21700 1100 21900 1100
Wire Wire Line
	21950 1300 22000 1300
Wire Wire Line
	21300 1100 21350 1100
Wire Wire Line
	22550 650  22700 650 
Wire Wire Line
	22550 1100 22550 1300
Wire Wire Line
	22100 1300 22100 1350
Wire Wire Line
	19750 1100 19900 1100
Wire Wire Line
	19350 1100 19400 1100
Wire Wire Line
	19950 1400 19950 1450
Wire Wire Line
	20550 650  20650 650 
Wire Wire Line
	20150 1400 20150 1450
Wire Wire Line
	20550 1100 20550 1400
Wire Wire Line
	7050 3300 7250 3300
Wire Wire Line
	7050 3100 7250 3100
Wire Wire Line
	7700 3050 7700 3200
Wire Wire Line
	7400 3350 7650 3350
Wire Wire Line
	7400 3550 7600 3550
Wire Wire Line
	8150 3450 8150 3600
Wire Wire Line
	6650 4800 6750 4800
Wire Wire Line
	7200 4550 7200 4700
Wire Wire Line
	7600 4350 7700 4350
Wire Wire Line
	7500 1450 7600 1450
Wire Bus Line
	14500 2200 14500 3100
Wire Bus Line
	6700 6150 6700 7150
Wire Bus Line
	9600 2500 9600 3100
Wire Bus Line
	6800 5500 6800 6050
Wire Bus Line
	17300 2650 17300 4150
Wire Bus Line
	17300 950  17300 2500
Wire Bus Line
	6700 10450 6700 12050
Wire Bus Line
	1900 9200 1900 11050
Wire Bus Line
	11950 2050 11950 3600
$EndSCHEMATC
