G04 #@! TF.FileFunction,Copper,L2,Bot,Signal*
%FSLAX46Y46*%
G04 Gerber Fmt 4.6, Leading zero omitted, Abs format (unit mm)*
G04 Created by KiCad (PCBNEW 4.0.0-rc2-stable) date 2/20/2016 1:21:12 PM*
%MOMM*%
G01*
G04 APERTURE LIST*
%ADD10C,0.100000*%
%ADD11O,1.600000X1.600000*%
%ADD12R,1.300000X1.300000*%
%ADD13C,1.300000*%
%ADD14R,1.727200X1.727200*%
%ADD15O,1.727200X1.727200*%
%ADD16R,1.727200X2.032000*%
%ADD17O,1.727200X2.032000*%
%ADD18O,1.400000X2.200000*%
%ADD19C,1.000000*%
%ADD20O,0.899160X1.501140*%
%ADD21C,1.998980*%
%ADD22C,1.501140*%
%ADD23R,2.032000X1.727200*%
%ADD24O,2.032000X1.727200*%
%ADD25C,0.685800*%
%ADD26C,0.250000*%
%ADD27C,0.290000*%
%ADD28C,0.254000*%
G04 APERTURE END LIST*
D10*
D11*
X102500000Y-54500000D03*
X105040000Y-54500000D03*
X107580000Y-54500000D03*
X110120000Y-54500000D03*
X112660000Y-54500000D03*
X115200000Y-54500000D03*
X117740000Y-54500000D03*
X120280000Y-54500000D03*
X120280000Y-46880000D03*
X117740000Y-46880000D03*
X115200000Y-46880000D03*
X112660000Y-46880000D03*
X110120000Y-46880000D03*
X107580000Y-46880000D03*
X105040000Y-46880000D03*
X102500000Y-46880000D03*
D12*
X158000000Y-87500000D03*
D13*
X158000000Y-85000000D03*
D12*
X158000000Y-92000000D03*
D13*
X158000000Y-89500000D03*
D14*
X165250000Y-86000000D03*
D15*
X162710000Y-86000000D03*
X165250000Y-88540000D03*
X162710000Y-88540000D03*
X165250000Y-91080000D03*
X162710000Y-91080000D03*
D16*
X102000000Y-79000000D03*
D17*
X104540000Y-79000000D03*
X107080000Y-79000000D03*
X109620000Y-79000000D03*
D16*
X102000000Y-75000000D03*
D17*
X104540000Y-75000000D03*
X107080000Y-75000000D03*
X109620000Y-75000000D03*
D16*
X102000000Y-71000000D03*
D17*
X104540000Y-71000000D03*
X107080000Y-71000000D03*
X109620000Y-71000000D03*
D16*
X102000000Y-67000000D03*
D17*
X104540000Y-67000000D03*
X107080000Y-67000000D03*
X109620000Y-67000000D03*
D16*
X116000000Y-79000000D03*
D17*
X118540000Y-79000000D03*
X121080000Y-79000000D03*
X123620000Y-79000000D03*
D16*
X116000000Y-75000000D03*
D17*
X118540000Y-75000000D03*
X121080000Y-75000000D03*
X123620000Y-75000000D03*
D16*
X116000000Y-71000000D03*
D17*
X118540000Y-71000000D03*
X121080000Y-71000000D03*
X123620000Y-71000000D03*
D16*
X116000000Y-67000000D03*
D17*
X118540000Y-67000000D03*
X121080000Y-67000000D03*
X123620000Y-67000000D03*
D16*
X130000000Y-79000000D03*
D17*
X132540000Y-79000000D03*
X135080000Y-79000000D03*
X137620000Y-79000000D03*
D16*
X130000000Y-75000000D03*
D17*
X132540000Y-75000000D03*
X135080000Y-75000000D03*
X137620000Y-75000000D03*
D16*
X130000000Y-71000000D03*
D17*
X132540000Y-71000000D03*
X135080000Y-71000000D03*
X137620000Y-71000000D03*
D16*
X130000000Y-67000000D03*
D17*
X132540000Y-67000000D03*
X135080000Y-67000000D03*
X137620000Y-67000000D03*
D16*
X144000000Y-79000000D03*
D17*
X146540000Y-79000000D03*
X149080000Y-79000000D03*
X151620000Y-79000000D03*
D16*
X144000000Y-75000000D03*
D17*
X146540000Y-75000000D03*
X149080000Y-75000000D03*
X151620000Y-75000000D03*
D16*
X144000000Y-71000000D03*
D17*
X146540000Y-71000000D03*
X149080000Y-71000000D03*
X151620000Y-71000000D03*
D16*
X144000000Y-67000000D03*
D17*
X146540000Y-67000000D03*
X149080000Y-67000000D03*
X151620000Y-67000000D03*
D16*
X158000000Y-79000000D03*
D17*
X160540000Y-79000000D03*
X163080000Y-79000000D03*
X165620000Y-79000000D03*
D16*
X158000000Y-75000000D03*
D17*
X160540000Y-75000000D03*
X163080000Y-75000000D03*
X165620000Y-75000000D03*
D16*
X158000000Y-71000000D03*
D17*
X160540000Y-71000000D03*
X163080000Y-71000000D03*
X165620000Y-71000000D03*
D16*
X158000000Y-67000000D03*
D17*
X160540000Y-67000000D03*
X163080000Y-67000000D03*
X165620000Y-67000000D03*
D11*
X115000000Y-92750000D03*
X117540000Y-92750000D03*
X120080000Y-92750000D03*
X122620000Y-92750000D03*
X125160000Y-92750000D03*
X127700000Y-92750000D03*
X130240000Y-92750000D03*
X132780000Y-92750000D03*
X135320000Y-92750000D03*
X137860000Y-92750000D03*
X140400000Y-92750000D03*
X142940000Y-92750000D03*
X145480000Y-92750000D03*
X148020000Y-92750000D03*
X148020000Y-85130000D03*
X145480000Y-85130000D03*
X142940000Y-85130000D03*
X140400000Y-85130000D03*
X137860000Y-85130000D03*
X135320000Y-85130000D03*
X132780000Y-85130000D03*
X130240000Y-85130000D03*
X127700000Y-85130000D03*
X125160000Y-85130000D03*
X122620000Y-85130000D03*
X120080000Y-85130000D03*
X117540000Y-85130000D03*
X115000000Y-85130000D03*
D18*
X150500000Y-46900000D03*
X157800000Y-46900000D03*
X157800000Y-51550000D03*
X150500000Y-51550000D03*
D19*
X152400000Y-52450000D03*
X153250000Y-51550000D03*
X154000000Y-52450000D03*
X154850000Y-51550000D03*
X155600000Y-52450000D03*
D20*
X151520000Y-56500000D03*
X152790000Y-56500000D03*
X150250000Y-56500000D03*
X151480000Y-61000000D03*
X150210000Y-61000000D03*
X152750000Y-61000000D03*
X156770000Y-56500000D03*
X158040000Y-56500000D03*
X155500000Y-56500000D03*
X156730000Y-61000000D03*
X155460000Y-61000000D03*
X158000000Y-61000000D03*
D21*
X102750000Y-58750640D03*
X102750000Y-63751900D03*
X105750000Y-58750640D03*
X105750000Y-63751900D03*
X108750000Y-58750640D03*
X108750000Y-63751900D03*
X111750000Y-58750640D03*
X111750000Y-63751900D03*
X114750000Y-58750640D03*
X114750000Y-63751900D03*
X117750000Y-58750640D03*
X117750000Y-63751900D03*
X120750000Y-58750640D03*
X120750000Y-63751900D03*
X123750000Y-58750640D03*
X123750000Y-63751900D03*
X126750000Y-58750640D03*
X126750000Y-63751900D03*
X129750000Y-58750640D03*
X129750000Y-63751900D03*
X132750000Y-58750640D03*
X132750000Y-63751900D03*
X135750000Y-58750640D03*
X135750000Y-63751900D03*
X138750000Y-58750640D03*
X138750000Y-63751900D03*
X141750000Y-58750640D03*
X141750000Y-63751900D03*
X144750000Y-58750640D03*
X144750000Y-63751900D03*
X161500000Y-52999360D03*
X161500000Y-47998100D03*
X165250000Y-52999360D03*
X165250000Y-47998100D03*
X161500000Y-61249360D03*
X161500000Y-56248100D03*
X165250000Y-61249360D03*
X165250000Y-56248100D03*
D11*
X126750000Y-54500000D03*
X129290000Y-54500000D03*
X131830000Y-54500000D03*
X134370000Y-54500000D03*
X136910000Y-54500000D03*
X139450000Y-54500000D03*
X141990000Y-54500000D03*
X144530000Y-54500000D03*
X144530000Y-46880000D03*
X141990000Y-46880000D03*
X139450000Y-46880000D03*
X136910000Y-46880000D03*
X134370000Y-46880000D03*
X131830000Y-46880000D03*
X129290000Y-46880000D03*
X126750000Y-46880000D03*
D22*
X153500000Y-91440940D03*
X153500000Y-86559060D03*
D12*
X100500000Y-83250000D03*
D13*
X103000000Y-83250000D03*
D12*
X100500000Y-86000000D03*
D13*
X103000000Y-86000000D03*
D12*
X100500000Y-88750000D03*
D13*
X103000000Y-88750000D03*
D12*
X100500000Y-91500000D03*
D13*
X103000000Y-91500000D03*
D12*
X100500000Y-94250000D03*
D13*
X103000000Y-94250000D03*
D21*
X110699360Y-83200000D03*
X105698100Y-83200000D03*
X110749360Y-86000000D03*
X105748100Y-86000000D03*
X110699360Y-88800000D03*
X105698100Y-88800000D03*
X110699360Y-91600000D03*
X105698100Y-91600000D03*
X110699360Y-94400000D03*
X105698100Y-94400000D03*
D23*
X97500000Y-94000000D03*
D24*
X97500000Y-91460000D03*
X97500000Y-88920000D03*
X97500000Y-86380000D03*
X97500000Y-83840000D03*
D25*
X154800000Y-85400000D03*
X156400000Y-85600000D03*
X149000000Y-61800000D03*
X99400000Y-80000000D03*
X139740000Y-81860000D03*
X160800000Y-82800000D03*
X161200000Y-84800000D03*
X154000000Y-81600000D03*
X153100000Y-81800000D03*
X159400000Y-82400000D03*
X140200000Y-65400000D03*
X140800000Y-67200000D03*
X139600000Y-67200000D03*
X145800000Y-61000000D03*
X126800000Y-89400000D03*
X150600000Y-81800000D03*
X148000000Y-61750000D03*
X147600000Y-56400000D03*
D26*
X153500000Y-86559060D02*
X153500000Y-86700000D01*
X153500000Y-86700000D02*
X151800000Y-88400000D01*
X139310000Y-94200000D02*
X137860000Y-92750000D01*
X148800000Y-94200000D02*
X139310000Y-94200000D01*
X149800000Y-93200000D02*
X148800000Y-94200000D01*
X149800000Y-92400000D02*
X149800000Y-93200000D01*
X151800000Y-90400000D02*
X149800000Y-92400000D01*
X151800000Y-88400000D02*
X151800000Y-90400000D01*
X153500000Y-86559060D02*
X157059060Y-86559060D01*
X157059060Y-86559060D02*
X158000000Y-87500000D01*
X130240000Y-85130000D02*
X130130000Y-85130000D01*
X130130000Y-85130000D02*
X126800000Y-81800000D01*
X126800000Y-81800000D02*
X112000000Y-81800000D01*
X130240000Y-85360000D02*
X128200000Y-87400000D01*
X128200000Y-87400000D02*
X111800000Y-87400000D01*
X100500000Y-86000000D02*
X100500000Y-83250000D01*
X157800000Y-46900000D02*
X160500000Y-46900000D01*
X164030000Y-92400000D02*
X162710000Y-91080000D01*
X166200000Y-92400000D02*
X164030000Y-92400000D01*
X167000000Y-91600000D02*
X166200000Y-92400000D01*
X167000000Y-47600000D02*
X167000000Y-91600000D01*
X165800000Y-46400000D02*
X167000000Y-47600000D01*
X161000000Y-46400000D02*
X165800000Y-46400000D01*
X160500000Y-46900000D02*
X161000000Y-46400000D01*
X159000000Y-89500000D02*
X159000000Y-89200000D01*
X130240000Y-85130000D02*
X130240000Y-85360000D01*
X130240000Y-85360000D02*
X129000000Y-86600000D01*
X159200000Y-93000000D02*
X159200000Y-89000000D01*
X156800000Y-95400000D02*
X159200000Y-93000000D01*
X131000000Y-95400000D02*
X156800000Y-95400000D01*
X129000000Y-93400000D02*
X131000000Y-95400000D01*
X129000000Y-86600000D02*
X129000000Y-93400000D01*
X152750000Y-61000000D02*
X152750000Y-60650000D01*
X152750000Y-60650000D02*
X155500000Y-57900000D01*
X155500000Y-57900000D02*
X155500000Y-56500000D01*
X158000000Y-61000000D02*
X158000000Y-61600000D01*
X158000000Y-61600000D02*
X157400000Y-62200000D01*
X157400000Y-62200000D02*
X153950000Y-62200000D01*
X153950000Y-62200000D02*
X152750000Y-61000000D01*
X158000000Y-89500000D02*
X159000000Y-89500000D01*
X159000000Y-89500000D02*
X161130000Y-89500000D01*
X161130000Y-89500000D02*
X162710000Y-91080000D01*
X158000000Y-89500000D02*
X158700000Y-89500000D01*
X158700000Y-89500000D02*
X159000000Y-89200000D01*
X159000000Y-89200000D02*
X159200000Y-89000000D01*
X159200000Y-89000000D02*
X159200000Y-86200000D01*
X159200000Y-86200000D02*
X158000000Y-85000000D01*
X132780000Y-92750000D02*
X132780000Y-88220000D01*
X131570000Y-83800000D02*
X130240000Y-85130000D01*
X133400000Y-83800000D02*
X131570000Y-83800000D01*
X134000000Y-84400000D02*
X133400000Y-83800000D01*
X134000000Y-87000000D02*
X134000000Y-84400000D01*
X132780000Y-88220000D02*
X134000000Y-87000000D01*
X134370000Y-46880000D02*
X134370000Y-47630000D01*
X134370000Y-47630000D02*
X129000000Y-53000000D01*
X121780000Y-53000000D02*
X120280000Y-54500000D01*
X129000000Y-53000000D02*
X121780000Y-53000000D01*
X150500000Y-46900000D02*
X157800000Y-46900000D01*
X157800000Y-46900000D02*
X157800000Y-51550000D01*
X150500000Y-51550000D02*
X150500000Y-46900000D01*
X150500000Y-51550000D02*
X151500000Y-51550000D01*
X151500000Y-51550000D02*
X152400000Y-52450000D01*
X150250000Y-56500000D02*
X150250000Y-51800000D01*
X150250000Y-51800000D02*
X150500000Y-51550000D01*
X150250000Y-56500000D02*
X150250000Y-55950000D01*
X150250000Y-55950000D02*
X151000000Y-55200000D01*
X151000000Y-55200000D02*
X154800000Y-55200000D01*
X154800000Y-55200000D02*
X155500000Y-55900000D01*
X155500000Y-55900000D02*
X155500000Y-56500000D01*
X135320000Y-92750000D02*
X135350000Y-92750000D01*
X135350000Y-92750000D02*
X137400000Y-94800000D01*
X137400000Y-94800000D02*
X149400000Y-94800000D01*
X149400000Y-94800000D02*
X150400000Y-93800000D01*
X150400000Y-93800000D02*
X150400000Y-93000000D01*
X150400000Y-93000000D02*
X151959060Y-91440940D01*
X151959060Y-91440940D02*
X153500000Y-91440940D01*
X153500000Y-91440940D02*
X157440940Y-91440940D01*
X157440940Y-91440940D02*
X158000000Y-92000000D01*
X146200000Y-87000000D02*
X148636398Y-87000000D01*
X142200000Y-87000000D02*
X146200000Y-87000000D01*
X140400000Y-85200000D02*
X142200000Y-87000000D01*
X163050000Y-83800000D02*
X165250000Y-86000000D01*
X151836398Y-83800000D02*
X163050000Y-83800000D01*
X148636398Y-87000000D02*
X151836398Y-83800000D01*
X140400000Y-85130000D02*
X140400000Y-85200000D01*
X149800000Y-88200000D02*
X152800000Y-85200000D01*
X152800000Y-85200000D02*
X154600000Y-85200000D01*
X154600000Y-85200000D02*
X154800000Y-85400000D01*
X138400000Y-88200000D02*
X146200000Y-88200000D01*
X138400000Y-88200000D02*
X135330000Y-85130000D01*
X146200000Y-88200000D02*
X149800000Y-88200000D01*
X135320000Y-85130000D02*
X135330000Y-85130000D01*
X132780000Y-85130000D02*
X132780000Y-86980000D01*
X130240000Y-89520000D02*
X130240000Y-92750000D01*
X132780000Y-86980000D02*
X130240000Y-89520000D01*
X125800000Y-45600000D02*
X140710000Y-45600000D01*
X140710000Y-45600000D02*
X141990000Y-46880000D01*
X117740000Y-46880000D02*
X117740000Y-46660000D01*
X117740000Y-46660000D02*
X118800000Y-45600000D01*
X126750000Y-46880000D02*
X126750000Y-46550000D01*
X126750000Y-46550000D02*
X125800000Y-45600000D01*
X125800000Y-45600000D02*
X118800000Y-45600000D01*
X118800000Y-45600000D02*
X103780000Y-45600000D01*
X103780000Y-45600000D02*
X102500000Y-46880000D01*
X103000000Y-46380000D02*
X103000000Y-46250000D01*
X155400000Y-84600000D02*
X156400000Y-85600000D01*
X146200000Y-87600000D02*
X148800000Y-87600000D01*
X140400000Y-87600000D02*
X146200000Y-87600000D01*
X137930000Y-85130000D02*
X140400000Y-87600000D01*
X148800000Y-87600000D02*
X151800000Y-84600000D01*
X151800000Y-84600000D02*
X155400000Y-84600000D01*
D27*
X149000000Y-61800000D02*
X148975000Y-61775000D01*
D26*
X137860000Y-85130000D02*
X137930000Y-85130000D01*
X139680000Y-46880000D02*
X148800000Y-56000000D01*
X148800000Y-61600000D02*
X148975000Y-61775000D01*
X148800000Y-56000000D02*
X148800000Y-61600000D01*
X139450000Y-46880000D02*
X139680000Y-46880000D01*
X142940000Y-85130000D02*
X139740000Y-81860000D01*
X107580000Y-48020000D02*
X102800000Y-52800000D01*
X102800000Y-52800000D02*
X100200000Y-52800000D01*
X100200000Y-52800000D02*
X99400000Y-53600000D01*
X99400000Y-53600000D02*
X99400000Y-80000000D01*
X107580000Y-48020000D02*
X107580000Y-46880000D01*
X142940000Y-85140000D02*
X144200000Y-86400000D01*
X144200000Y-86400000D02*
X146200000Y-86400000D01*
X146200000Y-86400000D02*
X148600000Y-86400000D01*
X148600000Y-86400000D02*
X151800000Y-83200000D01*
X151800000Y-83200000D02*
X159600000Y-83200000D01*
X160400000Y-83200000D02*
X159600000Y-83200000D01*
X160800000Y-82800000D02*
X160400000Y-83200000D01*
X161200000Y-86600000D02*
X162710000Y-88110000D01*
X161200000Y-86600000D02*
X161200000Y-84800000D01*
X162710000Y-88540000D02*
X162710000Y-88110000D01*
X142940000Y-85130000D02*
X142940000Y-85140000D01*
X153400000Y-81000000D02*
X154000000Y-81600000D01*
X146540000Y-79000000D02*
X146540000Y-80540000D01*
X146540000Y-80540000D02*
X147000000Y-81000000D01*
X147000000Y-81000000D02*
X160000000Y-81000000D01*
X160000000Y-81000000D02*
X160540000Y-80460000D01*
X160540000Y-80460000D02*
X160540000Y-79000000D01*
X132540000Y-79000000D02*
X132540000Y-80540000D01*
X132540000Y-80540000D02*
X133000000Y-81000000D01*
X133000000Y-81000000D02*
X147000000Y-81000000D01*
X147000000Y-81000000D02*
X146540000Y-80540000D01*
X104540000Y-79000000D02*
X104540000Y-80540000D01*
X104540000Y-80540000D02*
X105000000Y-81000000D01*
X105000000Y-81000000D02*
X119000000Y-81000000D01*
X119000000Y-81000000D02*
X118540000Y-80540000D01*
X118540000Y-80540000D02*
X118540000Y-79000000D01*
X105000000Y-81000000D02*
X153400000Y-81000000D01*
X153400000Y-81000000D02*
X160000000Y-81000000D01*
X104540000Y-80540000D02*
X105000000Y-81000000D01*
X146540000Y-79000000D02*
X146540000Y-80540000D01*
X146540000Y-80540000D02*
X147000000Y-81000000D01*
X118540000Y-79000000D02*
X118540000Y-80540000D01*
X118540000Y-80540000D02*
X119000000Y-81000000D01*
X132540000Y-80540000D02*
X133000000Y-81000000D01*
X102750000Y-63751900D02*
X103551900Y-63751900D01*
X103551900Y-63751900D02*
X106800000Y-67000000D01*
X106800000Y-67000000D02*
X107080000Y-67000000D01*
X105750000Y-63751900D02*
X106551900Y-63751900D01*
X106551900Y-63751900D02*
X109620000Y-66820000D01*
X109620000Y-66820000D02*
X109620000Y-67000000D01*
D27*
X153100000Y-81900000D02*
X153100000Y-81800000D01*
D26*
X153100000Y-81900000D02*
X153100000Y-82000000D01*
X153500000Y-82400000D02*
X157900000Y-82400000D01*
X153100000Y-82000000D02*
X153500000Y-82400000D01*
X157900000Y-82400000D02*
X159400000Y-82400000D01*
X132540000Y-75000000D02*
X132540000Y-76540000D01*
X132540000Y-76540000D02*
X133000000Y-77000000D01*
X133000000Y-77000000D02*
X147000000Y-77000000D01*
X147000000Y-77000000D02*
X146540000Y-76540000D01*
X146540000Y-76540000D02*
X146540000Y-75000000D01*
X118540000Y-75000000D02*
X118540000Y-76540000D01*
X118540000Y-76540000D02*
X119000000Y-77000000D01*
X119000000Y-77000000D02*
X133000000Y-77000000D01*
X133000000Y-77000000D02*
X132540000Y-76540000D01*
X104540000Y-75000000D02*
X104540000Y-76540000D01*
X104540000Y-76540000D02*
X105000000Y-77000000D01*
X105000000Y-77000000D02*
X119000000Y-77000000D01*
X119000000Y-77000000D02*
X118540000Y-76540000D01*
X158600000Y-77000000D02*
X160000000Y-77000000D01*
X160000000Y-77000000D02*
X160540000Y-76460000D01*
X160540000Y-76460000D02*
X160540000Y-75000000D01*
X104540000Y-76540000D02*
X105000000Y-77000000D01*
X158600000Y-77000000D02*
X105000000Y-77000000D01*
X146540000Y-75000000D02*
X146540000Y-76540000D01*
X146540000Y-76540000D02*
X147000000Y-77000000D01*
X118540000Y-75000000D02*
X118540000Y-76540000D01*
X118540000Y-76540000D02*
X119000000Y-77000000D01*
X132540000Y-75000000D02*
X132540000Y-76540000D01*
X132540000Y-76540000D02*
X133000000Y-77000000D01*
X118540000Y-71000000D02*
X118540000Y-72540000D01*
X118540000Y-72540000D02*
X119000000Y-73000000D01*
X119000000Y-73000000D02*
X105000000Y-73000000D01*
X105000000Y-73000000D02*
X104540000Y-72540000D01*
X104540000Y-72540000D02*
X104540000Y-71000000D01*
X132540000Y-71000000D02*
X132540000Y-72540000D01*
X132540000Y-72540000D02*
X133000000Y-73000000D01*
X133000000Y-73000000D02*
X119000000Y-73000000D01*
X119000000Y-73000000D02*
X118540000Y-72540000D01*
X160540000Y-71000000D02*
X160540000Y-72460000D01*
X160540000Y-72460000D02*
X160000000Y-73000000D01*
X160000000Y-73000000D02*
X147000000Y-73000000D01*
X147000000Y-73000000D02*
X146540000Y-72540000D01*
X146540000Y-72540000D02*
X146540000Y-71000000D01*
X160540000Y-72460000D02*
X160000000Y-73000000D01*
X105000000Y-73000000D02*
X160000000Y-73000000D01*
X104540000Y-71000000D02*
X104540000Y-72540000D01*
X104540000Y-72540000D02*
X105000000Y-73000000D01*
X146540000Y-71000000D02*
X146540000Y-72540000D01*
X146540000Y-72540000D02*
X147000000Y-73000000D01*
X118540000Y-71000000D02*
X118540000Y-72540000D01*
X118540000Y-72540000D02*
X119000000Y-73000000D01*
X132540000Y-72540000D02*
X133000000Y-73000000D01*
X146540000Y-67000000D02*
X146540000Y-68540000D01*
X146540000Y-68540000D02*
X147000000Y-69000000D01*
X147000000Y-69000000D02*
X160000000Y-69000000D01*
X160000000Y-69000000D02*
X160540000Y-68460000D01*
X160540000Y-68460000D02*
X160540000Y-67000000D01*
X132540000Y-67000000D02*
X132540000Y-68540000D01*
X132540000Y-68540000D02*
X133000000Y-69000000D01*
X133000000Y-69000000D02*
X147000000Y-69000000D01*
X104540000Y-67000000D02*
X104540000Y-68540000D01*
X104540000Y-68540000D02*
X105000000Y-69000000D01*
X105000000Y-69000000D02*
X119000000Y-69000000D01*
X119000000Y-69000000D02*
X118540000Y-68540000D01*
X118540000Y-68540000D02*
X118540000Y-67000000D01*
X105000000Y-69000000D02*
X160000000Y-69000000D01*
X104540000Y-68540000D02*
X105000000Y-69000000D01*
X146540000Y-68540000D02*
X147000000Y-69000000D01*
X132540000Y-68540000D02*
X133000000Y-69000000D01*
X118540000Y-67000000D02*
X118540000Y-68540000D01*
X118540000Y-68540000D02*
X119000000Y-69000000D01*
X121080000Y-67000000D02*
X121000000Y-67000000D01*
X121000000Y-67000000D02*
X119400000Y-65400000D01*
X113398100Y-65400000D02*
X111750000Y-63751900D01*
X119400000Y-65400000D02*
X113398100Y-65400000D01*
X114750000Y-63751900D02*
X115151900Y-63751900D01*
X115151900Y-63751900D02*
X116703800Y-62200000D01*
X116703800Y-62200000D02*
X121400000Y-62200000D01*
X121400000Y-62200000D02*
X122200000Y-63000000D01*
X122200000Y-63000000D02*
X122200000Y-65580000D01*
X122200000Y-65580000D02*
X123620000Y-67000000D01*
X123750000Y-63751900D02*
X123750000Y-63950000D01*
X123750000Y-63950000D02*
X125200000Y-65400000D01*
X125200000Y-65400000D02*
X135800000Y-65400000D01*
X135800000Y-65400000D02*
X137400000Y-67000000D01*
X137400000Y-67000000D02*
X137620000Y-67000000D01*
X140800000Y-67200000D02*
X140200000Y-66600000D01*
X140200000Y-66600000D02*
X140200000Y-65400000D01*
X139600000Y-67200000D02*
X139000000Y-66600000D01*
X139000000Y-66600000D02*
X139000000Y-66200000D01*
X139000000Y-66200000D02*
X138200000Y-65400000D01*
X138200000Y-65400000D02*
X137600000Y-65400000D01*
X137600000Y-65400000D02*
X137200000Y-65000000D01*
X137200000Y-65000000D02*
X137200000Y-63000000D01*
X137200000Y-63000000D02*
X136400000Y-62200000D01*
X136400000Y-62200000D02*
X134301900Y-62200000D01*
X132750000Y-63751900D02*
X134301900Y-62200000D01*
X158000000Y-67000000D02*
X154000000Y-67000000D01*
X150751900Y-63751900D02*
X144750000Y-63751900D01*
X154000000Y-67000000D02*
X150751900Y-63751900D01*
X163080000Y-67000000D02*
X162800000Y-67000000D01*
X162800000Y-67000000D02*
X161000000Y-65200000D01*
X140301900Y-62200000D02*
X138750000Y-63751900D01*
X146000000Y-62200000D02*
X140301900Y-62200000D01*
X147000000Y-63200000D02*
X146000000Y-62200000D01*
X151000000Y-63200000D02*
X147000000Y-63200000D01*
X153000000Y-65200000D02*
X151000000Y-63200000D01*
X161000000Y-65200000D02*
X153000000Y-65200000D01*
X163220000Y-64600000D02*
X165620000Y-67000000D01*
X153250002Y-64600000D02*
X163220000Y-64600000D01*
X151400000Y-62749998D02*
X153250002Y-64600000D01*
X147549998Y-62749998D02*
X151400000Y-62749998D01*
X145800000Y-61000000D02*
X147549998Y-62749998D01*
X126800000Y-89400000D02*
X125800000Y-89400000D01*
X122620000Y-92580000D02*
X125800000Y-89400000D01*
X122620000Y-92580000D02*
X122620000Y-92750000D01*
X148000000Y-58600000D02*
X148000000Y-61750000D01*
X148020000Y-85130000D02*
X150600000Y-82550000D01*
X150600000Y-81800000D02*
X150600000Y-82550000D01*
X148000000Y-56800000D02*
X148000000Y-58600000D01*
X147725000Y-56525000D02*
X148000000Y-56800000D01*
D27*
X147725000Y-56525000D02*
X147600000Y-56400000D01*
D26*
X146800000Y-55200000D02*
X146800000Y-55600000D01*
X146800000Y-55600000D02*
X147600000Y-56400000D01*
X146800000Y-55200000D02*
X146800000Y-54800000D01*
X136910000Y-47510000D02*
X138400000Y-49000000D01*
X138400000Y-49000000D02*
X141000000Y-49000000D01*
X141000000Y-49000000D02*
X146800000Y-54800000D01*
X136910000Y-46880000D02*
X136910000Y-47510000D01*
X110699360Y-83200000D02*
X125770000Y-83200000D01*
X125770000Y-83200000D02*
X127700000Y-85130000D01*
X127700000Y-85130000D02*
X127530000Y-85130000D01*
X111299360Y-83800000D02*
X110699360Y-83200000D01*
X110699360Y-94400000D02*
X110699360Y-91600000D01*
X110699360Y-88800000D02*
X110699360Y-91600000D01*
X110749360Y-86000000D02*
X110749360Y-88750000D01*
X110749360Y-88750000D02*
X110699360Y-88800000D01*
X110749360Y-83250000D02*
X110749360Y-94250000D01*
X120280000Y-46880000D02*
X120280000Y-47080000D01*
X120280000Y-47080000D02*
X121400000Y-48200000D01*
X121400000Y-48200000D02*
X130510000Y-48200000D01*
X130510000Y-48200000D02*
X131830000Y-46880000D01*
X165250000Y-56248100D02*
X165250000Y-58550000D01*
X156730000Y-60070000D02*
X156730000Y-61000000D01*
X157400000Y-59400000D02*
X156730000Y-60070000D01*
X164400000Y-59400000D02*
X157400000Y-59400000D01*
X165250000Y-58550000D02*
X164400000Y-59400000D01*
D28*
G36*
X104750490Y-81602369D02*
X105000000Y-81652000D01*
X112473000Y-81652000D01*
X112473000Y-82548000D01*
X112081624Y-82548000D01*
X111994210Y-82336442D01*
X111565176Y-81906659D01*
X111004330Y-81673775D01*
X110397054Y-81673245D01*
X109835802Y-81905150D01*
X109406019Y-82334184D01*
X109173135Y-82895030D01*
X109172605Y-83502306D01*
X109404510Y-84063558D01*
X109833544Y-84493341D01*
X110097360Y-84602887D01*
X110097360Y-84617736D01*
X109885802Y-84705150D01*
X109456019Y-85134184D01*
X109223135Y-85695030D01*
X109222605Y-86302306D01*
X109454510Y-86863558D01*
X109883544Y-87293341D01*
X110097360Y-87382125D01*
X110097360Y-87397076D01*
X109835802Y-87505150D01*
X109406019Y-87934184D01*
X109173135Y-88495030D01*
X109172605Y-89102306D01*
X109404510Y-89663558D01*
X109833544Y-90093341D01*
X110047360Y-90182125D01*
X110047360Y-90217736D01*
X109835802Y-90305150D01*
X109406019Y-90734184D01*
X109173135Y-91295030D01*
X109172605Y-91902306D01*
X109404510Y-92463558D01*
X109833544Y-92893341D01*
X110047360Y-92982125D01*
X110047360Y-93017736D01*
X109835802Y-93105150D01*
X109406019Y-93534184D01*
X109173135Y-94095030D01*
X109172605Y-94702306D01*
X109404510Y-95263558D01*
X109788282Y-95648000D01*
X106608590Y-95648000D01*
X106991441Y-95265816D01*
X107224325Y-94704970D01*
X107224855Y-94097694D01*
X106992950Y-93536442D01*
X106563916Y-93106659D01*
X106307114Y-93000025D01*
X106561658Y-92894850D01*
X106991441Y-92465816D01*
X107224325Y-91904970D01*
X107224855Y-91297694D01*
X106992950Y-90736442D01*
X106563916Y-90306659D01*
X106307114Y-90200025D01*
X106561658Y-90094850D01*
X106991441Y-89665816D01*
X107224325Y-89104970D01*
X107224855Y-88497694D01*
X106992950Y-87936442D01*
X106563916Y-87506659D01*
X106332053Y-87410381D01*
X106611658Y-87294850D01*
X107041441Y-86865816D01*
X107274325Y-86304970D01*
X107274855Y-85697694D01*
X107042950Y-85136442D01*
X106613916Y-84706659D01*
X106332176Y-84589670D01*
X106561658Y-84494850D01*
X106991441Y-84065816D01*
X107224325Y-83504970D01*
X107224855Y-82897694D01*
X106992950Y-82336442D01*
X106563916Y-81906659D01*
X106003070Y-81673775D01*
X105395794Y-81673245D01*
X104834542Y-81905150D01*
X104404759Y-82334184D01*
X104171875Y-82895030D01*
X104171780Y-83003780D01*
X103998394Y-82584154D01*
X103667588Y-82252770D01*
X103235147Y-82073205D01*
X102766907Y-82072796D01*
X102334154Y-82251606D01*
X102002770Y-82582412D01*
X101823205Y-83014853D01*
X101822796Y-83483093D01*
X102001606Y-83915846D01*
X102332412Y-84247230D01*
X102764853Y-84426795D01*
X103233093Y-84427204D01*
X103665846Y-84248394D01*
X103997230Y-83917588D01*
X104171349Y-83498264D01*
X104171345Y-83502306D01*
X104403250Y-84063558D01*
X104832284Y-84493341D01*
X105114024Y-84610330D01*
X104884542Y-84705150D01*
X104454759Y-85134184D01*
X104221875Y-85695030D01*
X104221345Y-86302306D01*
X104453250Y-86863558D01*
X104882284Y-87293341D01*
X105114147Y-87389619D01*
X104834542Y-87505150D01*
X104404759Y-87934184D01*
X104171875Y-88495030D01*
X104171867Y-88503991D01*
X103998394Y-88084154D01*
X103667588Y-87752770D01*
X103235147Y-87573205D01*
X102766907Y-87572796D01*
X102334154Y-87751606D01*
X102002770Y-88082412D01*
X101823205Y-88514853D01*
X101822796Y-88983093D01*
X102001606Y-89415846D01*
X102332412Y-89747230D01*
X102764853Y-89926795D01*
X103233093Y-89927204D01*
X103665846Y-89748394D01*
X103997230Y-89417588D01*
X104171436Y-88998053D01*
X104171345Y-89102306D01*
X104403250Y-89663558D01*
X104832284Y-90093341D01*
X105089086Y-90199975D01*
X104834542Y-90305150D01*
X104404759Y-90734184D01*
X104177191Y-91282229D01*
X104177204Y-91266907D01*
X103998394Y-90834154D01*
X103667588Y-90502770D01*
X103235147Y-90323205D01*
X102766907Y-90322796D01*
X102334154Y-90501606D01*
X102002770Y-90832412D01*
X101823205Y-91264853D01*
X101822796Y-91733093D01*
X102001606Y-92165846D01*
X102332412Y-92497230D01*
X102764853Y-92676795D01*
X103233093Y-92677204D01*
X103665846Y-92498394D01*
X103997230Y-92167588D01*
X104171480Y-91747948D01*
X104171345Y-91902306D01*
X104403250Y-92463558D01*
X104832284Y-92893341D01*
X105089086Y-92999975D01*
X104834542Y-93105150D01*
X104404759Y-93534184D01*
X104177147Y-94082334D01*
X104177204Y-94016907D01*
X103998394Y-93584154D01*
X103667588Y-93252770D01*
X103235147Y-93073205D01*
X102766907Y-93072796D01*
X102334154Y-93251606D01*
X102002770Y-93582412D01*
X101823205Y-94014853D01*
X101822796Y-94483093D01*
X102001606Y-94915846D01*
X102332412Y-95247230D01*
X102764853Y-95426795D01*
X103233093Y-95427204D01*
X103665846Y-95248394D01*
X103997230Y-94917588D01*
X104171523Y-94497842D01*
X104171345Y-94702306D01*
X104403250Y-95263558D01*
X104787022Y-95648000D01*
X95852000Y-95648000D01*
X95852000Y-83840000D01*
X95926771Y-83840000D01*
X96032624Y-84372160D01*
X96334068Y-84823303D01*
X96763141Y-85110000D01*
X96334068Y-85396697D01*
X96032624Y-85847840D01*
X95926771Y-86380000D01*
X96032624Y-86912160D01*
X96334068Y-87363303D01*
X96763141Y-87650000D01*
X96334068Y-87936697D01*
X96032624Y-88387840D01*
X95926771Y-88920000D01*
X96032624Y-89452160D01*
X96334068Y-89903303D01*
X96763141Y-90190000D01*
X96334068Y-90476697D01*
X96032624Y-90927840D01*
X95926771Y-91460000D01*
X96032624Y-91992160D01*
X96334068Y-92443303D01*
X96567199Y-92599076D01*
X96484000Y-92599076D01*
X96288706Y-92635823D01*
X96109340Y-92751242D01*
X95989010Y-92927351D01*
X95946676Y-93136400D01*
X95946676Y-94863600D01*
X95983423Y-95058894D01*
X96098842Y-95238260D01*
X96274951Y-95358590D01*
X96484000Y-95400924D01*
X98516000Y-95400924D01*
X98711294Y-95364177D01*
X98890660Y-95248758D01*
X99010990Y-95072649D01*
X99053324Y-94863600D01*
X99053324Y-94535750D01*
X99215000Y-94535750D01*
X99215000Y-95026310D01*
X99311673Y-95259699D01*
X99490302Y-95438327D01*
X99723691Y-95535000D01*
X100214250Y-95535000D01*
X100373000Y-95376250D01*
X100373000Y-94377000D01*
X100627000Y-94377000D01*
X100627000Y-95376250D01*
X100785750Y-95535000D01*
X101276309Y-95535000D01*
X101509698Y-95438327D01*
X101688327Y-95259699D01*
X101785000Y-95026310D01*
X101785000Y-94535750D01*
X101626250Y-94377000D01*
X100627000Y-94377000D01*
X100373000Y-94377000D01*
X99373750Y-94377000D01*
X99215000Y-94535750D01*
X99053324Y-94535750D01*
X99053324Y-93473690D01*
X99215000Y-93473690D01*
X99215000Y-93964250D01*
X99373750Y-94123000D01*
X100373000Y-94123000D01*
X100373000Y-93123750D01*
X100627000Y-93123750D01*
X100627000Y-94123000D01*
X101626250Y-94123000D01*
X101785000Y-93964250D01*
X101785000Y-93473690D01*
X101688327Y-93240301D01*
X101509698Y-93061673D01*
X101276309Y-92965000D01*
X100785750Y-92965000D01*
X100627000Y-93123750D01*
X100373000Y-93123750D01*
X100214250Y-92965000D01*
X99723691Y-92965000D01*
X99490302Y-93061673D01*
X99311673Y-93240301D01*
X99215000Y-93473690D01*
X99053324Y-93473690D01*
X99053324Y-93136400D01*
X99016577Y-92941106D01*
X98901158Y-92761740D01*
X98725049Y-92641410D01*
X98516000Y-92599076D01*
X98432801Y-92599076D01*
X98665932Y-92443303D01*
X98967376Y-91992160D01*
X99008433Y-91785750D01*
X99215000Y-91785750D01*
X99215000Y-92276310D01*
X99311673Y-92509699D01*
X99490302Y-92688327D01*
X99723691Y-92785000D01*
X100214250Y-92785000D01*
X100373000Y-92626250D01*
X100373000Y-91627000D01*
X100627000Y-91627000D01*
X100627000Y-92626250D01*
X100785750Y-92785000D01*
X101276309Y-92785000D01*
X101509698Y-92688327D01*
X101688327Y-92509699D01*
X101785000Y-92276310D01*
X101785000Y-91785750D01*
X101626250Y-91627000D01*
X100627000Y-91627000D01*
X100373000Y-91627000D01*
X99373750Y-91627000D01*
X99215000Y-91785750D01*
X99008433Y-91785750D01*
X99073229Y-91460000D01*
X98967376Y-90927840D01*
X98830968Y-90723690D01*
X99215000Y-90723690D01*
X99215000Y-91214250D01*
X99373750Y-91373000D01*
X100373000Y-91373000D01*
X100373000Y-90373750D01*
X100627000Y-90373750D01*
X100627000Y-91373000D01*
X101626250Y-91373000D01*
X101785000Y-91214250D01*
X101785000Y-90723690D01*
X101688327Y-90490301D01*
X101509698Y-90311673D01*
X101276309Y-90215000D01*
X100785750Y-90215000D01*
X100627000Y-90373750D01*
X100373000Y-90373750D01*
X100214250Y-90215000D01*
X99723691Y-90215000D01*
X99490302Y-90311673D01*
X99311673Y-90490301D01*
X99215000Y-90723690D01*
X98830968Y-90723690D01*
X98665932Y-90476697D01*
X98236859Y-90190000D01*
X98665932Y-89903303D01*
X98967376Y-89452160D01*
X99050204Y-89035750D01*
X99215000Y-89035750D01*
X99215000Y-89526310D01*
X99311673Y-89759699D01*
X99490302Y-89938327D01*
X99723691Y-90035000D01*
X100214250Y-90035000D01*
X100373000Y-89876250D01*
X100373000Y-88877000D01*
X100627000Y-88877000D01*
X100627000Y-89876250D01*
X100785750Y-90035000D01*
X101276309Y-90035000D01*
X101509698Y-89938327D01*
X101688327Y-89759699D01*
X101785000Y-89526310D01*
X101785000Y-89035750D01*
X101626250Y-88877000D01*
X100627000Y-88877000D01*
X100373000Y-88877000D01*
X99373750Y-88877000D01*
X99215000Y-89035750D01*
X99050204Y-89035750D01*
X99073229Y-88920000D01*
X98967376Y-88387840D01*
X98690650Y-87973690D01*
X99215000Y-87973690D01*
X99215000Y-88464250D01*
X99373750Y-88623000D01*
X100373000Y-88623000D01*
X100373000Y-87623750D01*
X100627000Y-87623750D01*
X100627000Y-88623000D01*
X101626250Y-88623000D01*
X101785000Y-88464250D01*
X101785000Y-87973690D01*
X101688327Y-87740301D01*
X101509698Y-87561673D01*
X101276309Y-87465000D01*
X100785750Y-87465000D01*
X100627000Y-87623750D01*
X100373000Y-87623750D01*
X100214250Y-87465000D01*
X99723691Y-87465000D01*
X99490302Y-87561673D01*
X99311673Y-87740301D01*
X99215000Y-87973690D01*
X98690650Y-87973690D01*
X98665932Y-87936697D01*
X98236859Y-87650000D01*
X98665932Y-87363303D01*
X98967376Y-86912160D01*
X99073229Y-86380000D01*
X99054482Y-86285750D01*
X99215000Y-86285750D01*
X99215000Y-86776310D01*
X99311673Y-87009699D01*
X99490302Y-87188327D01*
X99723691Y-87285000D01*
X100214250Y-87285000D01*
X100373000Y-87126250D01*
X100373000Y-86127000D01*
X100627000Y-86127000D01*
X100627000Y-87126250D01*
X100785750Y-87285000D01*
X101276309Y-87285000D01*
X101509698Y-87188327D01*
X101688327Y-87009699D01*
X101785000Y-86776310D01*
X101785000Y-86285750D01*
X101732343Y-86233093D01*
X101822796Y-86233093D01*
X102001606Y-86665846D01*
X102332412Y-86997230D01*
X102764853Y-87176795D01*
X103233093Y-87177204D01*
X103665846Y-86998394D01*
X103997230Y-86667588D01*
X104176795Y-86235147D01*
X104177204Y-85766907D01*
X103998394Y-85334154D01*
X103667588Y-85002770D01*
X103235147Y-84823205D01*
X102766907Y-84822796D01*
X102334154Y-85001606D01*
X102002770Y-85332412D01*
X101823205Y-85764853D01*
X101822796Y-86233093D01*
X101732343Y-86233093D01*
X101626250Y-86127000D01*
X100627000Y-86127000D01*
X100373000Y-86127000D01*
X99373750Y-86127000D01*
X99215000Y-86285750D01*
X99054482Y-86285750D01*
X98967376Y-85847840D01*
X98665932Y-85396697D01*
X98407009Y-85223690D01*
X99215000Y-85223690D01*
X99215000Y-85714250D01*
X99373750Y-85873000D01*
X100373000Y-85873000D01*
X100373000Y-84873750D01*
X100627000Y-84873750D01*
X100627000Y-85873000D01*
X101626250Y-85873000D01*
X101785000Y-85714250D01*
X101785000Y-85223690D01*
X101688327Y-84990301D01*
X101509698Y-84811673D01*
X101276309Y-84715000D01*
X100785750Y-84715000D01*
X100627000Y-84873750D01*
X100373000Y-84873750D01*
X100214250Y-84715000D01*
X99723691Y-84715000D01*
X99490302Y-84811673D01*
X99311673Y-84990301D01*
X99215000Y-85223690D01*
X98407009Y-85223690D01*
X98236859Y-85110000D01*
X98665932Y-84823303D01*
X98967376Y-84372160D01*
X99073229Y-83840000D01*
X99012711Y-83535750D01*
X99215000Y-83535750D01*
X99215000Y-84026310D01*
X99311673Y-84259699D01*
X99490302Y-84438327D01*
X99723691Y-84535000D01*
X100214250Y-84535000D01*
X100373000Y-84376250D01*
X100373000Y-83377000D01*
X100627000Y-83377000D01*
X100627000Y-84376250D01*
X100785750Y-84535000D01*
X101276309Y-84535000D01*
X101509698Y-84438327D01*
X101688327Y-84259699D01*
X101785000Y-84026310D01*
X101785000Y-83535750D01*
X101626250Y-83377000D01*
X100627000Y-83377000D01*
X100373000Y-83377000D01*
X99373750Y-83377000D01*
X99215000Y-83535750D01*
X99012711Y-83535750D01*
X98967376Y-83307840D01*
X98665932Y-82856697D01*
X98214789Y-82555253D01*
X97804744Y-82473690D01*
X99215000Y-82473690D01*
X99215000Y-82964250D01*
X99373750Y-83123000D01*
X100373000Y-83123000D01*
X100373000Y-82123750D01*
X100627000Y-82123750D01*
X100627000Y-83123000D01*
X101626250Y-83123000D01*
X101785000Y-82964250D01*
X101785000Y-82473690D01*
X101688327Y-82240301D01*
X101509698Y-82061673D01*
X101276309Y-81965000D01*
X100785750Y-81965000D01*
X100627000Y-82123750D01*
X100373000Y-82123750D01*
X100214250Y-81965000D01*
X99723691Y-81965000D01*
X99490302Y-82061673D01*
X99311673Y-82240301D01*
X99215000Y-82473690D01*
X97804744Y-82473690D01*
X97682629Y-82449400D01*
X97317371Y-82449400D01*
X96785211Y-82555253D01*
X96334068Y-82856697D01*
X96032624Y-83307840D01*
X95926771Y-83840000D01*
X95852000Y-83840000D01*
X95852000Y-81527000D01*
X104637692Y-81527000D01*
X104750490Y-81602369D01*
X104750490Y-81602369D01*
G37*
X104750490Y-81602369D02*
X105000000Y-81652000D01*
X112473000Y-81652000D01*
X112473000Y-82548000D01*
X112081624Y-82548000D01*
X111994210Y-82336442D01*
X111565176Y-81906659D01*
X111004330Y-81673775D01*
X110397054Y-81673245D01*
X109835802Y-81905150D01*
X109406019Y-82334184D01*
X109173135Y-82895030D01*
X109172605Y-83502306D01*
X109404510Y-84063558D01*
X109833544Y-84493341D01*
X110097360Y-84602887D01*
X110097360Y-84617736D01*
X109885802Y-84705150D01*
X109456019Y-85134184D01*
X109223135Y-85695030D01*
X109222605Y-86302306D01*
X109454510Y-86863558D01*
X109883544Y-87293341D01*
X110097360Y-87382125D01*
X110097360Y-87397076D01*
X109835802Y-87505150D01*
X109406019Y-87934184D01*
X109173135Y-88495030D01*
X109172605Y-89102306D01*
X109404510Y-89663558D01*
X109833544Y-90093341D01*
X110047360Y-90182125D01*
X110047360Y-90217736D01*
X109835802Y-90305150D01*
X109406019Y-90734184D01*
X109173135Y-91295030D01*
X109172605Y-91902306D01*
X109404510Y-92463558D01*
X109833544Y-92893341D01*
X110047360Y-92982125D01*
X110047360Y-93017736D01*
X109835802Y-93105150D01*
X109406019Y-93534184D01*
X109173135Y-94095030D01*
X109172605Y-94702306D01*
X109404510Y-95263558D01*
X109788282Y-95648000D01*
X106608590Y-95648000D01*
X106991441Y-95265816D01*
X107224325Y-94704970D01*
X107224855Y-94097694D01*
X106992950Y-93536442D01*
X106563916Y-93106659D01*
X106307114Y-93000025D01*
X106561658Y-92894850D01*
X106991441Y-92465816D01*
X107224325Y-91904970D01*
X107224855Y-91297694D01*
X106992950Y-90736442D01*
X106563916Y-90306659D01*
X106307114Y-90200025D01*
X106561658Y-90094850D01*
X106991441Y-89665816D01*
X107224325Y-89104970D01*
X107224855Y-88497694D01*
X106992950Y-87936442D01*
X106563916Y-87506659D01*
X106332053Y-87410381D01*
X106611658Y-87294850D01*
X107041441Y-86865816D01*
X107274325Y-86304970D01*
X107274855Y-85697694D01*
X107042950Y-85136442D01*
X106613916Y-84706659D01*
X106332176Y-84589670D01*
X106561658Y-84494850D01*
X106991441Y-84065816D01*
X107224325Y-83504970D01*
X107224855Y-82897694D01*
X106992950Y-82336442D01*
X106563916Y-81906659D01*
X106003070Y-81673775D01*
X105395794Y-81673245D01*
X104834542Y-81905150D01*
X104404759Y-82334184D01*
X104171875Y-82895030D01*
X104171780Y-83003780D01*
X103998394Y-82584154D01*
X103667588Y-82252770D01*
X103235147Y-82073205D01*
X102766907Y-82072796D01*
X102334154Y-82251606D01*
X102002770Y-82582412D01*
X101823205Y-83014853D01*
X101822796Y-83483093D01*
X102001606Y-83915846D01*
X102332412Y-84247230D01*
X102764853Y-84426795D01*
X103233093Y-84427204D01*
X103665846Y-84248394D01*
X103997230Y-83917588D01*
X104171349Y-83498264D01*
X104171345Y-83502306D01*
X104403250Y-84063558D01*
X104832284Y-84493341D01*
X105114024Y-84610330D01*
X104884542Y-84705150D01*
X104454759Y-85134184D01*
X104221875Y-85695030D01*
X104221345Y-86302306D01*
X104453250Y-86863558D01*
X104882284Y-87293341D01*
X105114147Y-87389619D01*
X104834542Y-87505150D01*
X104404759Y-87934184D01*
X104171875Y-88495030D01*
X104171867Y-88503991D01*
X103998394Y-88084154D01*
X103667588Y-87752770D01*
X103235147Y-87573205D01*
X102766907Y-87572796D01*
X102334154Y-87751606D01*
X102002770Y-88082412D01*
X101823205Y-88514853D01*
X101822796Y-88983093D01*
X102001606Y-89415846D01*
X102332412Y-89747230D01*
X102764853Y-89926795D01*
X103233093Y-89927204D01*
X103665846Y-89748394D01*
X103997230Y-89417588D01*
X104171436Y-88998053D01*
X104171345Y-89102306D01*
X104403250Y-89663558D01*
X104832284Y-90093341D01*
X105089086Y-90199975D01*
X104834542Y-90305150D01*
X104404759Y-90734184D01*
X104177191Y-91282229D01*
X104177204Y-91266907D01*
X103998394Y-90834154D01*
X103667588Y-90502770D01*
X103235147Y-90323205D01*
X102766907Y-90322796D01*
X102334154Y-90501606D01*
X102002770Y-90832412D01*
X101823205Y-91264853D01*
X101822796Y-91733093D01*
X102001606Y-92165846D01*
X102332412Y-92497230D01*
X102764853Y-92676795D01*
X103233093Y-92677204D01*
X103665846Y-92498394D01*
X103997230Y-92167588D01*
X104171480Y-91747948D01*
X104171345Y-91902306D01*
X104403250Y-92463558D01*
X104832284Y-92893341D01*
X105089086Y-92999975D01*
X104834542Y-93105150D01*
X104404759Y-93534184D01*
X104177147Y-94082334D01*
X104177204Y-94016907D01*
X103998394Y-93584154D01*
X103667588Y-93252770D01*
X103235147Y-93073205D01*
X102766907Y-93072796D01*
X102334154Y-93251606D01*
X102002770Y-93582412D01*
X101823205Y-94014853D01*
X101822796Y-94483093D01*
X102001606Y-94915846D01*
X102332412Y-95247230D01*
X102764853Y-95426795D01*
X103233093Y-95427204D01*
X103665846Y-95248394D01*
X103997230Y-94917588D01*
X104171523Y-94497842D01*
X104171345Y-94702306D01*
X104403250Y-95263558D01*
X104787022Y-95648000D01*
X95852000Y-95648000D01*
X95852000Y-83840000D01*
X95926771Y-83840000D01*
X96032624Y-84372160D01*
X96334068Y-84823303D01*
X96763141Y-85110000D01*
X96334068Y-85396697D01*
X96032624Y-85847840D01*
X95926771Y-86380000D01*
X96032624Y-86912160D01*
X96334068Y-87363303D01*
X96763141Y-87650000D01*
X96334068Y-87936697D01*
X96032624Y-88387840D01*
X95926771Y-88920000D01*
X96032624Y-89452160D01*
X96334068Y-89903303D01*
X96763141Y-90190000D01*
X96334068Y-90476697D01*
X96032624Y-90927840D01*
X95926771Y-91460000D01*
X96032624Y-91992160D01*
X96334068Y-92443303D01*
X96567199Y-92599076D01*
X96484000Y-92599076D01*
X96288706Y-92635823D01*
X96109340Y-92751242D01*
X95989010Y-92927351D01*
X95946676Y-93136400D01*
X95946676Y-94863600D01*
X95983423Y-95058894D01*
X96098842Y-95238260D01*
X96274951Y-95358590D01*
X96484000Y-95400924D01*
X98516000Y-95400924D01*
X98711294Y-95364177D01*
X98890660Y-95248758D01*
X99010990Y-95072649D01*
X99053324Y-94863600D01*
X99053324Y-94535750D01*
X99215000Y-94535750D01*
X99215000Y-95026310D01*
X99311673Y-95259699D01*
X99490302Y-95438327D01*
X99723691Y-95535000D01*
X100214250Y-95535000D01*
X100373000Y-95376250D01*
X100373000Y-94377000D01*
X100627000Y-94377000D01*
X100627000Y-95376250D01*
X100785750Y-95535000D01*
X101276309Y-95535000D01*
X101509698Y-95438327D01*
X101688327Y-95259699D01*
X101785000Y-95026310D01*
X101785000Y-94535750D01*
X101626250Y-94377000D01*
X100627000Y-94377000D01*
X100373000Y-94377000D01*
X99373750Y-94377000D01*
X99215000Y-94535750D01*
X99053324Y-94535750D01*
X99053324Y-93473690D01*
X99215000Y-93473690D01*
X99215000Y-93964250D01*
X99373750Y-94123000D01*
X100373000Y-94123000D01*
X100373000Y-93123750D01*
X100627000Y-93123750D01*
X100627000Y-94123000D01*
X101626250Y-94123000D01*
X101785000Y-93964250D01*
X101785000Y-93473690D01*
X101688327Y-93240301D01*
X101509698Y-93061673D01*
X101276309Y-92965000D01*
X100785750Y-92965000D01*
X100627000Y-93123750D01*
X100373000Y-93123750D01*
X100214250Y-92965000D01*
X99723691Y-92965000D01*
X99490302Y-93061673D01*
X99311673Y-93240301D01*
X99215000Y-93473690D01*
X99053324Y-93473690D01*
X99053324Y-93136400D01*
X99016577Y-92941106D01*
X98901158Y-92761740D01*
X98725049Y-92641410D01*
X98516000Y-92599076D01*
X98432801Y-92599076D01*
X98665932Y-92443303D01*
X98967376Y-91992160D01*
X99008433Y-91785750D01*
X99215000Y-91785750D01*
X99215000Y-92276310D01*
X99311673Y-92509699D01*
X99490302Y-92688327D01*
X99723691Y-92785000D01*
X100214250Y-92785000D01*
X100373000Y-92626250D01*
X100373000Y-91627000D01*
X100627000Y-91627000D01*
X100627000Y-92626250D01*
X100785750Y-92785000D01*
X101276309Y-92785000D01*
X101509698Y-92688327D01*
X101688327Y-92509699D01*
X101785000Y-92276310D01*
X101785000Y-91785750D01*
X101626250Y-91627000D01*
X100627000Y-91627000D01*
X100373000Y-91627000D01*
X99373750Y-91627000D01*
X99215000Y-91785750D01*
X99008433Y-91785750D01*
X99073229Y-91460000D01*
X98967376Y-90927840D01*
X98830968Y-90723690D01*
X99215000Y-90723690D01*
X99215000Y-91214250D01*
X99373750Y-91373000D01*
X100373000Y-91373000D01*
X100373000Y-90373750D01*
X100627000Y-90373750D01*
X100627000Y-91373000D01*
X101626250Y-91373000D01*
X101785000Y-91214250D01*
X101785000Y-90723690D01*
X101688327Y-90490301D01*
X101509698Y-90311673D01*
X101276309Y-90215000D01*
X100785750Y-90215000D01*
X100627000Y-90373750D01*
X100373000Y-90373750D01*
X100214250Y-90215000D01*
X99723691Y-90215000D01*
X99490302Y-90311673D01*
X99311673Y-90490301D01*
X99215000Y-90723690D01*
X98830968Y-90723690D01*
X98665932Y-90476697D01*
X98236859Y-90190000D01*
X98665932Y-89903303D01*
X98967376Y-89452160D01*
X99050204Y-89035750D01*
X99215000Y-89035750D01*
X99215000Y-89526310D01*
X99311673Y-89759699D01*
X99490302Y-89938327D01*
X99723691Y-90035000D01*
X100214250Y-90035000D01*
X100373000Y-89876250D01*
X100373000Y-88877000D01*
X100627000Y-88877000D01*
X100627000Y-89876250D01*
X100785750Y-90035000D01*
X101276309Y-90035000D01*
X101509698Y-89938327D01*
X101688327Y-89759699D01*
X101785000Y-89526310D01*
X101785000Y-89035750D01*
X101626250Y-88877000D01*
X100627000Y-88877000D01*
X100373000Y-88877000D01*
X99373750Y-88877000D01*
X99215000Y-89035750D01*
X99050204Y-89035750D01*
X99073229Y-88920000D01*
X98967376Y-88387840D01*
X98690650Y-87973690D01*
X99215000Y-87973690D01*
X99215000Y-88464250D01*
X99373750Y-88623000D01*
X100373000Y-88623000D01*
X100373000Y-87623750D01*
X100627000Y-87623750D01*
X100627000Y-88623000D01*
X101626250Y-88623000D01*
X101785000Y-88464250D01*
X101785000Y-87973690D01*
X101688327Y-87740301D01*
X101509698Y-87561673D01*
X101276309Y-87465000D01*
X100785750Y-87465000D01*
X100627000Y-87623750D01*
X100373000Y-87623750D01*
X100214250Y-87465000D01*
X99723691Y-87465000D01*
X99490302Y-87561673D01*
X99311673Y-87740301D01*
X99215000Y-87973690D01*
X98690650Y-87973690D01*
X98665932Y-87936697D01*
X98236859Y-87650000D01*
X98665932Y-87363303D01*
X98967376Y-86912160D01*
X99073229Y-86380000D01*
X99054482Y-86285750D01*
X99215000Y-86285750D01*
X99215000Y-86776310D01*
X99311673Y-87009699D01*
X99490302Y-87188327D01*
X99723691Y-87285000D01*
X100214250Y-87285000D01*
X100373000Y-87126250D01*
X100373000Y-86127000D01*
X100627000Y-86127000D01*
X100627000Y-87126250D01*
X100785750Y-87285000D01*
X101276309Y-87285000D01*
X101509698Y-87188327D01*
X101688327Y-87009699D01*
X101785000Y-86776310D01*
X101785000Y-86285750D01*
X101732343Y-86233093D01*
X101822796Y-86233093D01*
X102001606Y-86665846D01*
X102332412Y-86997230D01*
X102764853Y-87176795D01*
X103233093Y-87177204D01*
X103665846Y-86998394D01*
X103997230Y-86667588D01*
X104176795Y-86235147D01*
X104177204Y-85766907D01*
X103998394Y-85334154D01*
X103667588Y-85002770D01*
X103235147Y-84823205D01*
X102766907Y-84822796D01*
X102334154Y-85001606D01*
X102002770Y-85332412D01*
X101823205Y-85764853D01*
X101822796Y-86233093D01*
X101732343Y-86233093D01*
X101626250Y-86127000D01*
X100627000Y-86127000D01*
X100373000Y-86127000D01*
X99373750Y-86127000D01*
X99215000Y-86285750D01*
X99054482Y-86285750D01*
X98967376Y-85847840D01*
X98665932Y-85396697D01*
X98407009Y-85223690D01*
X99215000Y-85223690D01*
X99215000Y-85714250D01*
X99373750Y-85873000D01*
X100373000Y-85873000D01*
X100373000Y-84873750D01*
X100627000Y-84873750D01*
X100627000Y-85873000D01*
X101626250Y-85873000D01*
X101785000Y-85714250D01*
X101785000Y-85223690D01*
X101688327Y-84990301D01*
X101509698Y-84811673D01*
X101276309Y-84715000D01*
X100785750Y-84715000D01*
X100627000Y-84873750D01*
X100373000Y-84873750D01*
X100214250Y-84715000D01*
X99723691Y-84715000D01*
X99490302Y-84811673D01*
X99311673Y-84990301D01*
X99215000Y-85223690D01*
X98407009Y-85223690D01*
X98236859Y-85110000D01*
X98665932Y-84823303D01*
X98967376Y-84372160D01*
X99073229Y-83840000D01*
X99012711Y-83535750D01*
X99215000Y-83535750D01*
X99215000Y-84026310D01*
X99311673Y-84259699D01*
X99490302Y-84438327D01*
X99723691Y-84535000D01*
X100214250Y-84535000D01*
X100373000Y-84376250D01*
X100373000Y-83377000D01*
X100627000Y-83377000D01*
X100627000Y-84376250D01*
X100785750Y-84535000D01*
X101276309Y-84535000D01*
X101509698Y-84438327D01*
X101688327Y-84259699D01*
X101785000Y-84026310D01*
X101785000Y-83535750D01*
X101626250Y-83377000D01*
X100627000Y-83377000D01*
X100373000Y-83377000D01*
X99373750Y-83377000D01*
X99215000Y-83535750D01*
X99012711Y-83535750D01*
X98967376Y-83307840D01*
X98665932Y-82856697D01*
X98214789Y-82555253D01*
X97804744Y-82473690D01*
X99215000Y-82473690D01*
X99215000Y-82964250D01*
X99373750Y-83123000D01*
X100373000Y-83123000D01*
X100373000Y-82123750D01*
X100627000Y-82123750D01*
X100627000Y-83123000D01*
X101626250Y-83123000D01*
X101785000Y-82964250D01*
X101785000Y-82473690D01*
X101688327Y-82240301D01*
X101509698Y-82061673D01*
X101276309Y-81965000D01*
X100785750Y-81965000D01*
X100627000Y-82123750D01*
X100373000Y-82123750D01*
X100214250Y-81965000D01*
X99723691Y-81965000D01*
X99490302Y-82061673D01*
X99311673Y-82240301D01*
X99215000Y-82473690D01*
X97804744Y-82473690D01*
X97682629Y-82449400D01*
X97317371Y-82449400D01*
X96785211Y-82555253D01*
X96334068Y-82856697D01*
X96032624Y-83307840D01*
X95926771Y-83840000D01*
X95852000Y-83840000D01*
X95852000Y-81527000D01*
X104637692Y-81527000D01*
X104750490Y-81602369D01*
G36*
X112473000Y-95648000D02*
X111609850Y-95648000D01*
X111992701Y-95265816D01*
X112225585Y-94704970D01*
X112226115Y-94097694D01*
X111994210Y-93536442D01*
X111565176Y-93106659D01*
X111401360Y-93038637D01*
X111401360Y-92961605D01*
X111562918Y-92894850D01*
X111992701Y-92465816D01*
X112225585Y-91904970D01*
X112226115Y-91297694D01*
X111994210Y-90736442D01*
X111565176Y-90306659D01*
X111401360Y-90238637D01*
X111401360Y-90161605D01*
X111562918Y-90094850D01*
X111992701Y-89665816D01*
X112225585Y-89104970D01*
X112226115Y-88497694D01*
X111994210Y-87936442D01*
X111565176Y-87506659D01*
X111401360Y-87438637D01*
X111401360Y-87382264D01*
X111612918Y-87294850D01*
X112042701Y-86865816D01*
X112275585Y-86304970D01*
X112276115Y-85697694D01*
X112044210Y-85136442D01*
X111615176Y-84706659D01*
X111401360Y-84617875D01*
X111401360Y-84561605D01*
X111562918Y-84494850D01*
X111992701Y-84065816D01*
X112081485Y-83852000D01*
X112473000Y-83852000D01*
X112473000Y-95648000D01*
X112473000Y-95648000D01*
G37*
X112473000Y-95648000D02*
X111609850Y-95648000D01*
X111992701Y-95265816D01*
X112225585Y-94704970D01*
X112226115Y-94097694D01*
X111994210Y-93536442D01*
X111565176Y-93106659D01*
X111401360Y-93038637D01*
X111401360Y-92961605D01*
X111562918Y-92894850D01*
X111992701Y-92465816D01*
X112225585Y-91904970D01*
X112226115Y-91297694D01*
X111994210Y-90736442D01*
X111565176Y-90306659D01*
X111401360Y-90238637D01*
X111401360Y-90161605D01*
X111562918Y-90094850D01*
X111992701Y-89665816D01*
X112225585Y-89104970D01*
X112226115Y-88497694D01*
X111994210Y-87936442D01*
X111565176Y-87506659D01*
X111401360Y-87438637D01*
X111401360Y-87382264D01*
X111612918Y-87294850D01*
X112042701Y-86865816D01*
X112275585Y-86304970D01*
X112276115Y-85697694D01*
X112044210Y-85136442D01*
X111615176Y-84706659D01*
X111401360Y-84617875D01*
X111401360Y-84561605D01*
X111562918Y-84494850D01*
X111992701Y-84065816D01*
X112081485Y-83852000D01*
X112473000Y-83852000D01*
X112473000Y-95648000D01*
M02*
