M48
INCH,TZ
T1C0.013
T2C0.024
T3C0.031
T4C0.032
T5C0.035
T6C0.039
T7C0.040
%
G90
G05
T1
X39134Y-31496
X49921Y-35197
X54961Y-26457
X55016Y-32228
X55197Y-25748
X55433Y-26457
X57402Y-24016
X58110Y-22205
X58268Y-24311
X58661Y-24331
X59291Y-32205
X60276Y-32205
X60630Y-32126
X60945Y-33622
X61575Y-33701
X62756Y-32441
X63307Y-32598
X63465Y-33386
T2
X59138Y-24016
X59154Y-22244
X59638Y-24016
X59654Y-22244
X60000Y-20650
X60138Y-24016
X60154Y-22244
X60335Y-20295
X60630Y-20650
X60965Y-20295
X61205Y-24016
X61220Y-22244
X61260Y-20650
X61705Y-24016
X61720Y-22244
X62205Y-24016
X62220Y-22244
T3
X39567Y-32776
X39567Y-33858
X39567Y-34941
X39567Y-36024
X39567Y-37106
X40354Y-18457
X40354Y-21457
X41354Y-18457
X41354Y-21457
X42354Y-18457
X42354Y-21457
X43354Y-18457
X43354Y-21457
X44354Y-18457
X44354Y-21457
X45276Y-33516
X45276Y-36516
X45354Y-18457
X45354Y-21457
X46276Y-33516
X46276Y-36516
X46354Y-18457
X46354Y-21457
X47276Y-33516
X47276Y-36516
X47354Y-18457
X47354Y-21457
X48276Y-33516
X48276Y-36516
X49276Y-33516
X49276Y-36516
X49902Y-18457
X49902Y-21457
X50276Y-33516
X50276Y-36516
X50902Y-18457
X50902Y-21457
X51276Y-33516
X51276Y-36516
X51902Y-18457
X51902Y-21457
X52276Y-33516
X52276Y-36516
X52902Y-18457
X52902Y-21457
X53276Y-33516
X53276Y-36516
X53902Y-18457
X53902Y-21457
X54276Y-33516
X54276Y-36516
X54902Y-18457
X54902Y-21457
X55276Y-33516
X55276Y-36516
X55902Y-18457
X55902Y-21457
X56276Y-33516
X56276Y-36516
X56902Y-18457
X56902Y-21457
X57276Y-33516
X57276Y-36516
X58276Y-33516
X58276Y-36516
X62205Y-34449
X62205Y-36220
T4
X40551Y-32776
X40551Y-33858
X40551Y-34941
X40551Y-36024
X40551Y-37106
X60433Y-34078
X60433Y-36000
X62205Y-33465
X62205Y-35236
T6
X40453Y-23130
X40453Y-25099
X41613Y-32756
X41613Y-34961
X41613Y-36063
X41613Y-37165
X41633Y-33858
X41634Y-23130
X41634Y-25099
X42815Y-23130
X42815Y-25099
X43582Y-32756
X43582Y-34961
X43582Y-36063
X43582Y-37165
X43602Y-33858
X43996Y-23130
X43996Y-25099
X45177Y-23130
X45177Y-25099
X46358Y-23130
X46358Y-25099
X47539Y-23130
X47539Y-25099
X48720Y-23130
X48720Y-25099
X49902Y-23130
X49902Y-25099
X51083Y-23130
X51083Y-25099
X52264Y-23130
X52264Y-25099
X53445Y-23130
X53445Y-25099
X54626Y-23130
X54626Y-25099
X55807Y-23130
X55807Y-25099
X56988Y-23130
X56988Y-25099
X63583Y-18897
X63583Y-20866
X63583Y-22145
X63583Y-24114
X65059Y-18897
X65059Y-20866
X65059Y-22145
X65059Y-24114
T7
X38386Y-33008
X38386Y-34008
X38386Y-35008
X38386Y-36008
X38386Y-37008
X40157Y-26378
X40157Y-27953
X40157Y-29528
X40157Y-31102
X41157Y-26378
X41157Y-27953
X41157Y-29528
X41157Y-31102
X42157Y-26378
X42157Y-27953
X42157Y-29528
X42157Y-31102
X43157Y-26378
X43157Y-27953
X43157Y-29528
X43157Y-31102
X45669Y-26378
X45669Y-27953
X45669Y-29528
X45669Y-31102
X46669Y-26378
X46669Y-27953
X46669Y-29528
X46669Y-31102
X47669Y-26378
X47669Y-27953
X47669Y-29528
X47669Y-31102
X48669Y-26378
X48669Y-27953
X48669Y-29528
X48669Y-31102
X51181Y-26378
X51181Y-27953
X51181Y-29528
X51181Y-31102
X52181Y-26378
X52181Y-27953
X52181Y-29528
X52181Y-31102
X53181Y-26378
X53181Y-27953
X53181Y-29528
X53181Y-31102
X54181Y-26378
X54181Y-27953
X54181Y-29528
X54181Y-31102
X56693Y-26378
X56693Y-27953
X56693Y-29528
X56693Y-31102
X57693Y-26378
X57693Y-27953
X57693Y-29528
X57693Y-31102
X58693Y-26378
X58693Y-27953
X58693Y-29528
X58693Y-31102
X59693Y-26378
X59693Y-27953
X59693Y-29528
X59693Y-31102
X62205Y-26378
X62205Y-27953
X62205Y-29528
X62205Y-31102
X63205Y-26378
X63205Y-27953
X63205Y-29528
X63205Y-31102
X64059Y-33858
X64059Y-34858
X64059Y-35858
X64205Y-26378
X64205Y-27953
X64205Y-29528
X64205Y-31102
X65059Y-33858
X65059Y-34858
X65059Y-35858
X65205Y-26378
X65205Y-27953
X65205Y-29528
X65205Y-31102
T5
X59252Y-18602G85X59252Y-18327
G05
X59252Y-20433G85X59252Y-20157
G05
X62126Y-18602G85X62126Y-18327
G05
X62126Y-20433G85X62126Y-20157
G05
T0
M30
