EESchema Schematic File Version 2
LIBS:EMKeys-rescue
LIBS:power
LIBS:device
LIBS:transistors
LIBS:conn
LIBS:linear
LIBS:regul
LIBS:74xx
LIBS:cmos4000
LIBS:adc-dac
LIBS:memory
LIBS:xilinx
LIBS:microcontrollers
LIBS:dsp
LIBS:microchip
LIBS:analog_switches
LIBS:motorola
LIBS:texas
LIBS:intel
LIBS:audio
LIBS:interface
LIBS:digital-audio
LIBS:philips
LIBS:display
LIBS:cypress
LIBS:siliconi
LIBS:opto
LIBS:atmel
LIBS:contrib
LIBS:valves
LIBS:msp430
LIBS:custom
LIBS:EMKeys-cache
EELAYER 25 0
EELAYER END
$Descr A4 11693 8268
encoding utf-8
Sheet 1 1
Title ""
Date ""
Rev ""
Comp ""
Comment1 ""
Comment2 ""
Comment3 ""
Comment4 ""
$EndDescr
$Comp
L MSP430G2553IN20 U0
U 1 1 5692C12C
P 5950 1850
F 0 "U0" H 4450 2450 50  0000 C CNN
F 1 "MSP430G2553IN20" H 7200 1300 50  0000 C CNN
F 2 "Housings_DIP:DIP-20_W7.62mm" H 4500 1300 50  0000 C CIN
F 3 "" H 5900 1850 50  0000 C CNN
	1    5950 1850
	1    0    0    -1  
$EndComp
$Comp
L R R0
U 1 1 5692C1C2
P 4050 1100
F 0 "R0" V 4150 1100 50  0000 C CNN
F 1 "47K" V 4050 1100 50  0000 C CNN
F 2 "Resistors_ThroughHole:Resistor_Horizontal_RM10mm" V 3900 1200 30  0000 C CNN
F 3 "" H 4050 1100 30  0000 C CNN
	1    4050 1100
	1    0    0    -1  
$EndComp
Wire Wire Line
	4050 1250 4050 1400
Wire Wire Line
	4050 1400 4250 1400
Text GLabel 4050 750  1    60   Input ~ 0
3.3V
Text GLabel 5950 850  1    60   Input ~ 0
3.3V
Wire Wire Line
	5950 850  5950 1150
Wire Wire Line
	4050 950  4050 750 
Text GLabel 5950 2650 3    60   Input ~ 0
GND
Wire Wire Line
	5950 2650 5950 2500
$Comp
L SW_PUSH SW0
U 1 1 5692C467
P 2500 1300
F 0 "SW0" H 2650 1410 50  0000 C CNN
F 1 "SW_PUSH" H 2500 1200 50  0000 C CNN
F 2 "Buttons_Switches_ThroughHole:SW_PUSH_SMALL" H 2500 1550 60  0000 C CNN
F 3 "" H 2500 1300 60  0000 C CNN
	1    2500 1300
	1    0    0    -1  
$EndComp
$Comp
L C C0
U 1 1 5692C5C6
P 2500 1550
F 0 "C0" H 2525 1650 50  0000 L CNN
F 1 "0.1uF" H 2525 1450 50  0000 L CNN
F 2 "Capacitors_ThroughHole:C_Disc_D6_P5" V 2400 1550 30  0000 C CNN
F 3 "" H 2500 1550 60  0000 C CNN
	1    2500 1550
	0    1    1    0   
$EndComp
Wire Wire Line
	2200 1300 2200 1550
Wire Wire Line
	2200 1550 2350 1550
Text GLabel 1800 1450 0    60   Input ~ 0
GND
Wire Wire Line
	1800 1450 2200 1450
Connection ~ 2200 1450
Wire Wire Line
	2800 1550 2650 1550
Wire Wire Line
	2800 1300 2800 1550
Wire Wire Line
	2800 1450 3300 1450
Connection ~ 2800 1450
$Comp
L SW_PUSH SW1
U 1 1 5692C7F0
P 2500 2050
F 0 "SW1" H 2650 2160 50  0000 C CNN
F 1 "SW_PUSH" H 2500 1950 50  0000 C CNN
F 2 "Buttons_Switches_ThroughHole:SW_PUSH_SMALL" H 2500 2300 60  0000 C CNN
F 3 "" H 2500 2050 60  0000 C CNN
	1    2500 2050
	1    0    0    -1  
$EndComp
$Comp
L C C1
U 1 1 5692C7F6
P 2500 2300
F 0 "C1" H 2525 2400 50  0000 L CNN
F 1 "0.1uF" H 2525 2200 50  0000 L CNN
F 2 "Capacitors_ThroughHole:C_Disc_D6_P5" V 2400 2300 30  0000 C CNN
F 3 "" H 2500 2300 60  0000 C CNN
	1    2500 2300
	0    1    1    0   
$EndComp
Wire Wire Line
	2200 2050 2200 2300
Wire Wire Line
	2200 2300 2350 2300
Text GLabel 1800 2200 0    60   Input ~ 0
GND
Wire Wire Line
	1800 2200 2200 2200
Connection ~ 2200 2200
Wire Wire Line
	2800 2300 2650 2300
Wire Wire Line
	2800 2050 2800 2300
Wire Wire Line
	2800 2200 3300 2200
Connection ~ 2800 2200
$Comp
L SW_PUSH SW2
U 1 1 5692C9F7
P 2500 2850
F 0 "SW2" H 2650 2960 50  0000 C CNN
F 1 "SW_PUSH" H 2500 2750 50  0000 C CNN
F 2 "Buttons_Switches_ThroughHole:SW_PUSH_SMALL" H 2500 3100 60  0000 C CNN
F 3 "" H 2500 2850 60  0000 C CNN
	1    2500 2850
	1    0    0    -1  
$EndComp
$Comp
L C C2
U 1 1 5692C9FD
P 2500 3100
F 0 "C2" H 2525 3200 50  0000 L CNN
F 1 "0.1uF" H 2525 3000 50  0000 L CNN
F 2 "Capacitors_ThroughHole:C_Disc_D6_P5" V 2400 3100 30  0000 C CNN
F 3 "" H 2500 3100 60  0000 C CNN
	1    2500 3100
	0    1    1    0   
$EndComp
Wire Wire Line
	2200 2850 2200 3100
Wire Wire Line
	2200 3100 2350 3100
Text GLabel 1800 3000 0    60   Input ~ 0
GND
Wire Wire Line
	1800 3000 2200 3000
Connection ~ 2200 3000
Wire Wire Line
	2800 3100 2650 3100
Wire Wire Line
	2800 2850 2800 3100
Wire Wire Line
	2800 3000 3400 3000
Connection ~ 2800 3000
$Comp
L SW_PUSH SW3
U 1 1 5692CA0C
P 2500 3600
F 0 "SW3" H 2650 3710 50  0000 C CNN
F 1 "SW_PUSH" H 2500 3500 50  0000 C CNN
F 2 "Buttons_Switches_ThroughHole:SW_PUSH_SMALL" H 2500 3850 60  0000 C CNN
F 3 "" H 2500 3600 60  0000 C CNN
	1    2500 3600
	1    0    0    -1  
$EndComp
$Comp
L C C3
U 1 1 5692CA12
P 2500 3850
F 0 "C3" H 2525 3950 50  0000 L CNN
F 1 "0.1uF" H 2525 3750 50  0000 L CNN
F 2 "Capacitors_ThroughHole:C_Disc_D6_P5" V 2400 3850 30  0000 C CNN
F 3 "" H 2500 3850 60  0000 C CNN
	1    2500 3850
	0    1    1    0   
$EndComp
Wire Wire Line
	2200 3600 2200 3850
Wire Wire Line
	2200 3850 2350 3850
Text GLabel 1800 3750 0    60   Input ~ 0
GND
Wire Wire Line
	1800 3750 2200 3750
Connection ~ 2200 3750
Wire Wire Line
	2800 3850 2650 3850
Wire Wire Line
	2800 3600 2800 3850
Wire Wire Line
	2800 3750 3500 3750
Connection ~ 2800 3750
$Comp
L SW_PUSH SW4
U 1 1 5692CC19
P 2500 4400
F 0 "SW4" H 2650 4510 50  0000 C CNN
F 1 "SW_PUSH" H 2500 4300 50  0000 C CNN
F 2 "Buttons_Switches_ThroughHole:SW_PUSH_SMALL" H 2500 4650 60  0000 C CNN
F 3 "" H 2500 4400 60  0000 C CNN
	1    2500 4400
	1    0    0    -1  
$EndComp
$Comp
L C C4
U 1 1 5692CC1F
P 2500 4650
F 0 "C4" H 2525 4750 50  0000 L CNN
F 1 "0.1uF" H 2525 4550 50  0000 L CNN
F 2 "Capacitors_ThroughHole:C_Disc_D6_P5" V 2400 4650 30  0000 C CNN
F 3 "" H 2500 4650 60  0000 C CNN
	1    2500 4650
	0    1    1    0   
$EndComp
Wire Wire Line
	2200 4400 2200 4650
Wire Wire Line
	2200 4650 2350 4650
Text GLabel 1800 4550 0    60   Input ~ 0
GND
Wire Wire Line
	1800 4550 2200 4550
Connection ~ 2200 4550
Wire Wire Line
	2800 4650 2650 4650
Wire Wire Line
	2800 4400 2800 4650
Wire Wire Line
	2800 4550 3600 4550
Connection ~ 2800 4550
$Comp
L SW_PUSH SW5
U 1 1 5692CC2E
P 2500 5150
F 0 "SW5" H 2650 5260 50  0000 C CNN
F 1 "SW_PUSH" H 2500 5050 50  0000 C CNN
F 2 "Buttons_Switches_ThroughHole:SW_PUSH_SMALL" H 2500 5400 60  0000 C CNN
F 3 "" H 2500 5150 60  0000 C CNN
	1    2500 5150
	1    0    0    -1  
$EndComp
$Comp
L C C5
U 1 1 5692CC34
P 2500 5400
F 0 "C5" H 2525 5500 50  0000 L CNN
F 1 "0.1uF" H 2525 5300 50  0000 L CNN
F 2 "Capacitors_ThroughHole:C_Disc_D6_P5" V 2400 5400 30  0000 C CNN
F 3 "" H 2500 5400 60  0000 C CNN
	1    2500 5400
	0    1    1    0   
$EndComp
Wire Wire Line
	2200 5150 2200 5400
Wire Wire Line
	2200 5400 2350 5400
Text GLabel 1800 5300 0    60   Input ~ 0
GND
Wire Wire Line
	1800 5300 2200 5300
Connection ~ 2200 5300
Wire Wire Line
	2800 5400 2650 5400
Wire Wire Line
	2800 5150 2800 5400
Wire Wire Line
	2800 5300 3700 5300
Connection ~ 2800 5300
Wire Wire Line
	4250 1550 3300 1550
Wire Wire Line
	3300 1550 3300 1450
Wire Wire Line
	3300 2200 3300 1650
Wire Wire Line
	3300 1650 4250 1650
Wire Wire Line
	4250 1750 3400 1750
Wire Wire Line
	3400 1750 3400 3000
Wire Wire Line
	4250 1850 3500 1850
Wire Wire Line
	3500 1850 3500 3750
Wire Wire Line
	3600 4550 3600 1950
Wire Wire Line
	3600 1950 4250 1950
Wire Wire Line
	4250 2050 3700 2050
Wire Wire Line
	3700 2050 3700 5300
$Comp
L 2950A PWR0
U 1 1 5692FAC6
P 9100 850
F 0 "PWR0" H 9250 1100 60  0000 C CNN
F 1 "2950A" H 9250 700 60  0000 C CNN
F 2 "TO_SOT_Packages_THT:TO-92_Inline_Narrow_Oval" H 9200 1200 60  0000 C CNN
F 3 "" H 9150 500 60  0000 C CNN
	1    9100 850 
	1    0    0    -1  
$EndComp
Text GLabel 8750 900  0    60   Input ~ 0
5V
Text GLabel 8750 800  0    60   Input ~ 0
GND
Text GLabel 8750 700  0    60   Input ~ 0
3.3V
Wire Wire Line
	8900 700  8750 700 
Wire Wire Line
	8750 800  8900 800 
Wire Wire Line
	8750 900  8900 900 
$Comp
L HC-06 HC0
U 1 1 56930452
P 8550 1650
F 0 "HC0" H 8650 1950 60  0000 C CNN
F 1 "HC-06" H 8650 1450 60  0000 C CNN
F 2 "Socket_Strips:Socket_Strip_Straight_1x04" V 9000 1350 60  0000 C CNN
F 3 "" H 8550 1650 60  0000 C CNN
	1    8550 1650
	1    0    0    -1  
$EndComp
Text GLabel 8150 1550 0    60   Input ~ 0
GND
Text GLabel 8150 1450 0    60   Input ~ 0
3.3V
Wire Wire Line
	8350 1450 8150 1450
Wire Wire Line
	8150 1550 8350 1550
Wire Wire Line
	7650 1650 8350 1650
Wire Wire Line
	8350 1750 7650 1750
$Comp
L USB_OTG-RESCUE-EMKeys P0
U 1 1 56930A51
P 10200 1250
F 0 "P0" H 10525 1125 50  0000 C CNN
F 1 "USB0" H 10200 1450 50  0000 C CNN
F 2 "USB_Connectors:USBMiniTypeB90TroughHole" H 10250 1550 60  0000 C CNN
F 3 "" V 10150 1150 60  0000 C CNN
	1    10200 1250
	1    0    0    -1  
$EndComp
Text GLabel 10700 1650 3    60   Input ~ 0
GND
Wire Wire Line
	10400 1550 10400 1600
Wire Wire Line
	10400 1600 10700 1600
Wire Wire Line
	10700 1150 10700 1650
Connection ~ 10700 1600
Connection ~ 10700 1150
Wire Wire Line
	10600 1150 10700 1150
NoConn ~ 10300 1550
NoConn ~ 10200 1550
NoConn ~ 10100 1550
Text GLabel 10000 1650 3    60   Input ~ 0
5V
Wire Wire Line
	10000 1650 10000 1550
NoConn ~ 4250 2150
NoConn ~ 4250 2250
NoConn ~ 7650 1550
NoConn ~ 7650 1850
NoConn ~ 7650 1950
NoConn ~ 7650 2050
NoConn ~ 7650 2150
NoConn ~ 7650 2250
$Comp
L Programming_port_header PPORT1
U 1 1 56941F7D
P 10250 2400
F 0 "PPORT1" V 10700 2500 60  0000 C CNN
F 1 "Programming_port_header" V 10650 2500 60  0000 C CNN
F 2 "Pin_Headers:Pin_Header_Straight_1x04" V 10550 2450 60  0000 C CNN
F 3 "" H 10250 2400 60  0000 C CNN
	1    10250 2400
	0    -1   -1   0   
$EndComp
Text GLabel 10300 2800 3    60   Input ~ 0
GND
Text GLabel 10000 2800 3    60   Input ~ 0
3.3V
Text GLabel 10100 2800 3    60   Input ~ 0
TEST
Text GLabel 10200 2800 3    60   Input ~ 0
RST
Wire Wire Line
	10000 2800 10000 2600
Wire Wire Line
	10300 2600 10300 2800
Wire Wire Line
	10200 2800 10200 2600
Wire Wire Line
	10100 2800 10100 2600
Wire Wire Line
	7650 1400 7700 1400
Wire Wire Line
	7700 1400 7700 1300
Text GLabel 7700 1300 1    60   Input ~ 0
TEST
Wire Wire Line
	4050 1300 4250 1300
Wire Wire Line
	4250 1300 4250 1200
Connection ~ 4050 1300
Text GLabel 4250 1200 1    60   Input ~ 0
RST
$EndSCHEMATC
