EESchema Schematic File Version 2
LIBS:power
LIBS:device
LIBS:transistors
LIBS:conn
LIBS:linear
LIBS:regul
LIBS:74xx
LIBS:cmos4000
LIBS:adc-dac
LIBS:memory
LIBS:xilinx
LIBS:microcontrollers
LIBS:dsp
LIBS:microchip
LIBS:analog_switches
LIBS:motorola
LIBS:texas
LIBS:intel
LIBS:audio
LIBS:interface
LIBS:digital-audio
LIBS:philips
LIBS:display
LIBS:cypress
LIBS:siliconi
LIBS:opto
LIBS:atmel
LIBS:contrib
LIBS:valves
LIBS:Microchip
LIBS:se95
LIBS:USB-TEMP-cache
EELAYER 25 0
EELAYER END
$Descr A4 11693 8268
encoding utf-8
Sheet 1 1
Title ""
Date ""
Rev ""
Comp ""
Comment1 ""
Comment2 ""
Comment3 ""
Comment4 ""
$EndDescr
$Comp
L MCP2221-I/SL U2
U 1 1 58553955
P 3000 3800
F 0 "U2" H 3000 4650 50  0000 C CNN
F 1 "MCP2221-I/SL" H 3000 4550 50  0000 C CNN
F 2 "Housings_SOIC:SOIC-14_3.9x8.7mm_Pitch1.27mm" H 3000 4550 60  0001 C CNN
F 3 "http://ww1.microchip.com/downloads/en/DeviceDoc/20005292B.pdf" H 3000 4550 60  0001 C CNN
F 4 "IC MICROCHIP MCP2221-I/SL" H 3500 5350 60  0001 C CNN "BOM"
	1    3000 3800
	1    0    0    -1  
$EndComp
$Comp
L SE95D,112 U3
U 1 1 5855473C
P 5200 3050
F 0 "U3" H 5200 3450 60  0000 C CNN
F 1 "SE95D,112" H 5200 3350 60  0000 C CNN
F 2 "Housings_SOIC:SOIC-8_3.9x4.9mm_Pitch1.27mm" H 5300 2800 60  0001 C CNN
F 3 "" H 5300 2800 60  0001 C CNN
	1    5200 3050
	1    0    0    -1  
$EndComp
$Comp
L LM1117-3.3 U1
U 1 1 58554869
P 2850 6700
F 0 "U1" H 2950 6450 50  0000 C CNN
F 1 "LM1117-3.3" H 2850 6950 50  0000 C CNN
F 2 "TO_SOT_Packages_SMD:SOT-223" H 2850 6700 50  0001 C CNN
F 3 "" H 2850 6700 50  0000 C CNN
	1    2850 6700
	1    0    0    -1  
$EndComp
$Comp
L USB_OTG P1
U 1 1 5855498D
P 950 6900
F 0 "P1" H 1275 6775 50  0000 C CNN
F 1 "USB_OTG" H 950 7100 50  0000 C CNN
F 2 "USB:USBMiniTypeB90TroughHole" V 900 6800 50  0001 C CNN
F 3 "" V 900 6800 50  0000 C CNN
	1    950  6900
	0    -1   1    0   
$EndComp
$Comp
L GND #PWR01
U 1 1 585550AD
P 1300 7500
F 0 "#PWR01" H 1300 7250 50  0001 C CNN
F 1 "GND" H 1300 7350 50  0000 C CNN
F 2 "" H 1300 7500 50  0000 C CNN
F 3 "" H 1300 7500 50  0000 C CNN
	1    1300 7500
	1    0    0    -1  
$EndComp
$Comp
L CONN_01X03 P3
U 1 1 585550EF
P 4450 6600
F 0 "P3" H 4450 6800 50  0000 C CNN
F 1 "CONN_01X03" V 4550 6600 50  0000 C CNN
F 2 "Pin_Headers:Pin_Header_Straight_1x03" H 4450 6600 50  0001 C CNN
F 3 "" H 4450 6600 50  0000 C CNN
	1    4450 6600
	1    0    0    -1  
$EndComp
Text GLabel 3650 6600 0    60   Input ~ 0
VSYS
Text GLabel 1400 6800 2    39   Input ~ 0
D-
Text GLabel 1400 6900 2    39   Input ~ 0
D+
Text GLabel 4600 2900 0    39   Input ~ 0
VSYS
$Comp
L GND #PWR02
U 1 1 585552DE
P 4400 3000
F 0 "#PWR02" H 4400 2750 50  0001 C CNN
F 1 "GND" H 4400 2850 50  0000 C CNN
F 2 "" H 4400 3000 50  0000 C CNN
F 3 "" H 4400 3000 50  0000 C CNN
	1    4400 3000
	0    1    -1   0   
$EndComp
Text GLabel 1750 3200 0    39   Input ~ 0
VSYS
$Comp
L GND #PWR03
U 1 1 585554CA
P 2300 4450
F 0 "#PWR03" H 2300 4200 50  0001 C CNN
F 1 "GND" H 2300 4300 50  0000 C CNN
F 2 "" H 2300 4450 50  0000 C CNN
F 3 "" H 2300 4450 50  0000 C CNN
	1    2300 4450
	1    0    0    -1  
$EndComp
Text GLabel 2300 3800 0    39   Input ~ 0
D+
Text GLabel 2300 3700 0    39   Input ~ 0
D-
$Comp
L C_Small C3
U 1 1 585556C2
P 2300 4250
F 0 "C3" H 2310 4320 50  0000 L CNN
F 1 "0.47uF" H 2310 4170 50  0000 L CNN
F 2 "Capacitors_SMD:C_0805_HandSoldering" H 2550 4250 50  0001 C CNN
F 3 "" H 2300 4250 50  0000 C CNN
	1    2300 4250
	-1   0    0    -1  
$EndComp
$Comp
L R R1
U 1 1 58555B44
P 2150 3400
F 0 "R1" V 2230 3400 50  0000 C CNN
F 1 "10K" V 2150 3400 50  0000 C CNN
F 2 "Resistors_SMD:R_0805_HandSoldering" V 2080 3400 50  0001 C CNN
F 3 "" H 2150 3400 50  0000 C CNN
	1    2150 3400
	0    1    1    0   
$EndComp
$Comp
L C_Small C1
U 1 1 58555E15
P 1850 7000
F 0 "C1" H 1860 7070 50  0000 L CNN
F 1 "4.7uF" H 1860 6920 50  0000 L CNN
F 2 "Capacitors_SMD:C_0805_HandSoldering" H 1850 7000 50  0001 C CNN
F 3 "" H 1850 7000 50  0000 C CNN
	1    1850 7000
	1    0    0    -1  
$EndComp
$Comp
L C_Small C2
U 1 1 58556601
P 2250 7000
F 0 "C2" H 2260 7070 50  0000 L CNN
F 1 "0.1uF" H 2260 6920 50  0000 L CNN
F 2 "Capacitors_SMD:C_0805_HandSoldering" H 2250 7000 50  0001 C CNN
F 3 "" H 2250 7000 50  0000 C CNN
	1    2250 7000
	1    0    0    -1  
$EndComp
$Comp
L C_Small C4
U 1 1 5855667F
P 3300 7050
F 0 "C4" H 3310 7120 50  0000 L CNN
F 1 "4.7uF" H 3310 6970 50  0000 L CNN
F 2 "Capacitors_SMD:C_0805_HandSoldering" H 3300 7050 50  0001 C CNN
F 3 "" H 3300 7050 50  0000 C CNN
	1    3300 7050
	1    0    0    -1  
$EndComp
$Comp
L Jumper_NO_Small JP1
U 1 1 585578B2
P 5250 3700
F 0 "JP1" H 5250 3780 50  0000 C CNN
F 1 "Jumper_NO_Small" H 5260 3640 50  0001 C CNN
F 2 "Pin_Headers:Pin_Header_Straight_1x02" H 5250 3700 50  0001 C CNN
F 3 "" H 5250 3700 50  0000 C CNN
	1    5250 3700
	1    0    0    -1  
$EndComp
$Comp
L Jumper_NO_Small JP2
U 1 1 58557B31
P 5250 3800
F 0 "JP2" H 5250 3880 50  0000 C CNN
F 1 "Jumper_NO_Small" H 5260 3740 50  0001 C CNN
F 2 "Pin_Headers:Pin_Header_Straight_1x02" H 5250 3800 50  0001 C CNN
F 3 "" H 5250 3800 50  0000 C CNN
	1    5250 3800
	1    0    0    -1  
$EndComp
$Comp
L R R2
U 1 1 58557B5B
P 5600 3700
F 0 "R2" V 5680 3700 50  0000 C CNN
F 1 "10K" V 5600 3700 50  0000 C CNN
F 2 "Resistors_SMD:R_0805_HandSoldering" V 5530 3700 50  0001 C CNN
F 3 "" H 5600 3700 50  0000 C CNN
	1    5600 3700
	0    -1   -1   0   
$EndComp
$Comp
L R R3
U 1 1 58557E07
P 5600 3800
F 0 "R3" V 5680 3800 50  0000 C CNN
F 1 "10K" V 5600 3800 50  0000 C CNN
F 2 "Resistors_SMD:R_0805_HandSoldering" V 5530 3800 50  0001 C CNN
F 3 "" H 5600 3800 50  0000 C CNN
	1    5600 3800
	0    1    1    0   
$EndComp
Text GLabel 6000 3750 2    39   Input ~ 0
VSYS
$Comp
L C_Small C5
U 1 1 58559A66
P 1950 3950
F 0 "C5" H 1960 4020 50  0000 L CNN
F 1 "0.1uF" H 1960 3870 50  0000 L CNN
F 2 "Capacitors_SMD:C_0805_HandSoldering" H 2200 3950 50  0001 C CNN
F 3 "" H 1950 3950 50  0000 C CNN
	1    1950 3950
	-1   0    0    -1  
$EndComp
$Comp
L GND #PWR04
U 1 1 5855A565
P 3850 2600
F 0 "#PWR04" H 3850 2350 50  0001 C CNN
F 1 "GND" H 3850 2450 50  0000 C CNN
F 2 "" H 3850 2600 50  0000 C CNN
F 3 "" H 3850 2600 50  0000 C CNN
	1    3850 2600
	1    0    0    -1  
$EndComp
$Comp
L CONN_01X04 P4
U 1 1 5855AE88
P 3700 2200
F 0 "P4" H 3700 2450 50  0000 C CNN
F 1 "CONN_01X04" V 3800 2200 50  0000 C CNN
F 2 "Pin_Headers:Pin_Header_Straight_1x04" H 3700 2200 50  0001 C CNN
F 3 "" H 3700 2200 50  0000 C CNN
	1    3700 2200
	0    -1   -1   0   
$EndComp
Text GLabel 3550 2500 3    39   Input ~ 0
VSYS
$Comp
L CONN_01X04 P6
U 1 1 5855B65D
P 5650 4250
F 0 "P6" H 5650 4500 50  0000 C CNN
F 1 "CONN_01X04" V 5750 4250 50  0000 C CNN
F 2 "Pin_Headers:Pin_Header_Straight_1x04" H 5650 4250 50  0001 C CNN
F 3 "" H 5650 4250 50  0000 C CNN
	1    5650 4250
	1    0    0    -1  
$EndComp
Text GLabel 5250 4100 0    39   Input ~ 0
VSYS
$Comp
L GND #PWR05
U 1 1 5855B991
P 5250 4400
F 0 "#PWR05" H 5250 4150 50  0001 C CNN
F 1 "GND" H 5250 4250 50  0000 C CNN
F 2 "" H 5250 4400 50  0000 C CNN
F 3 "" H 5250 4400 50  0000 C CNN
	1    5250 4400
	0    1    1    0   
$EndComp
$Comp
L Jumper_NO_Small JP5
U 1 1 5855BC25
P 6350 3350
F 0 "JP5" H 6350 3430 50  0000 C CNN
F 1 "Jumper_NO_Small" H 6360 3290 50  0001 C CNN
F 2 "Pin_Headers:Pin_Header_Straight_1x02" H 6350 3350 50  0001 C CNN
F 3 "" H 6350 3350 50  0000 C CNN
	1    6350 3350
	-1   0    0    1   
$EndComp
$Comp
L R_Small R11
U 1 1 5855BF16
P 6350 3450
F 0 "R11" V 6400 3550 50  0000 L CNN
F 1 "10K" V 6400 3300 50  0000 L CNN
F 2 "Resistors_SMD:R_0805_HandSoldering" H 6350 3450 50  0001 C CNN
F 3 "" H 6350 3450 50  0000 C CNN
	1    6350 3450
	0    1    1    0   
$EndComp
$Comp
L GND #PWR06
U 1 1 5855C514
P 6600 3450
F 0 "#PWR06" H 6600 3200 50  0001 C CNN
F 1 "GND" H 6600 3300 50  0000 C CNN
F 2 "" H 6600 3450 50  0000 C CNN
F 3 "" H 6600 3450 50  0000 C CNN
	1    6600 3450
	0    -1   -1   0   
$EndComp
$Comp
L Jumper_NO_Small JP4
U 1 1 5855C8A7
P 6350 3050
F 0 "JP4" H 6350 3130 50  0000 C CNN
F 1 "Jumper_NO_Small" H 6360 2990 50  0001 C CNN
F 2 "Pin_Headers:Pin_Header_Straight_1x02" H 6350 3050 50  0001 C CNN
F 3 "" H 6350 3050 50  0000 C CNN
	1    6350 3050
	-1   0    0    1   
$EndComp
$Comp
L R_Small R10
U 1 1 5855C8AD
P 6350 3150
F 0 "R10" V 6400 3250 50  0000 L CNN
F 1 "10K" V 6400 3000 50  0000 L CNN
F 2 "Resistors_SMD:R_0805_HandSoldering" H 6350 3150 50  0001 C CNN
F 3 "" H 6350 3150 50  0000 C CNN
	1    6350 3150
	0    1    1    0   
$EndComp
$Comp
L GND #PWR07
U 1 1 5855C8B3
P 6600 3150
F 0 "#PWR07" H 6600 2900 50  0001 C CNN
F 1 "GND" H 6600 3000 50  0000 C CNN
F 2 "" H 6600 3150 50  0000 C CNN
F 3 "" H 6600 3150 50  0000 C CNN
	1    6600 3150
	0    -1   -1   0   
$EndComp
$Comp
L Jumper_NO_Small JP3
U 1 1 5855C955
P 6350 2750
F 0 "JP3" H 6350 2830 50  0000 C CNN
F 1 "Jumper_NO_Small" H 6360 2690 50  0001 C CNN
F 2 "Pin_Headers:Pin_Header_Straight_1x02" H 6350 2750 50  0001 C CNN
F 3 "" H 6350 2750 50  0000 C CNN
	1    6350 2750
	-1   0    0    1   
$EndComp
$Comp
L R_Small R9
U 1 1 5855C95B
P 6350 2850
F 0 "R9" V 6400 2950 50  0000 L CNN
F 1 "10K" V 6400 2700 50  0000 L CNN
F 2 "Resistors_SMD:R_0805_HandSoldering" H 6350 2850 50  0001 C CNN
F 3 "" H 6350 2850 50  0000 C CNN
	1    6350 2850
	0    1    1    0   
$EndComp
$Comp
L GND #PWR08
U 1 1 5855C961
P 6600 2850
F 0 "#PWR08" H 6600 2600 50  0001 C CNN
F 1 "GND" H 6600 2700 50  0000 C CNN
F 2 "" H 6600 2850 50  0000 C CNN
F 3 "" H 6600 2850 50  0000 C CNN
	1    6600 2850
	0    -1   -1   0   
$EndComp
Text GLabel 7200 3050 2    39   Input ~ 0
VSYS
$Comp
L R_Small R8
U 1 1 5855D50C
P 5900 2500
F 0 "R8" V 5950 2600 50  0000 L CNN
F 1 "10K" V 5950 2350 50  0000 L CNN
F 2 "Resistors_SMD:R_0805_HandSoldering" H 5900 2500 50  0001 C CNN
F 3 "" H 5900 2500 50  0000 C CNN
	1    5900 2500
	0    1    1    0   
$EndComp
$Comp
L Led_Small D5
U 1 1 5855D676
P 6250 2500
F 0 "D5" H 6200 2625 50  0000 L CNN
F 1 "Led_Small" H 6075 2400 50  0000 L CNN
F 2 "LEDs:LED_0805" V 6250 2500 50  0001 C CNN
F 3 "" V 6250 2500 50  0000 C CNN
	1    6250 2500
	-1   0    0    1   
$EndComp
$Comp
L GND #PWR09
U 1 1 5855D866
P 6550 2500
F 0 "#PWR09" H 6550 2250 50  0001 C CNN
F 1 "GND" H 6550 2350 50  0000 C CNN
F 2 "" H 6550 2500 50  0000 C CNN
F 3 "" H 6550 2500 50  0000 C CNN
	1    6550 2500
	0    -1   -1   0   
$EndComp
$Comp
L R_Small R7
U 1 1 5855E24E
P 4250 5200
F 0 "R7" V 4300 5300 50  0000 L CNN
F 1 "10K" V 4300 5050 50  0000 L CNN
F 2 "Resistors_SMD:R_0805_HandSoldering" H 4250 5200 50  0001 C CNN
F 3 "" H 4250 5200 50  0000 C CNN
	1    4250 5200
	-1   0    0    1   
$EndComp
$Comp
L Led_Small D4
U 1 1 5855E256
P 4250 5500
F 0 "D4" H 4200 5625 50  0000 L CNN
F 1 "LED" H 4075 5400 50  0000 L CNN
F 2 "LEDs:LED_0805" V 4250 5500 50  0001 C CNN
F 3 "" V 4250 5500 50  0000 C CNN
	1    4250 5500
	0    -1   -1   0   
$EndComp
$Comp
L GND #PWR010
U 1 1 5855E25C
P 4250 5700
F 0 "#PWR010" H 4250 5450 50  0001 C CNN
F 1 "GND" H 4250 5550 50  0000 C CNN
F 2 "" H 4250 5700 50  0000 C CNN
F 3 "" H 4250 5700 50  0000 C CNN
	1    4250 5700
	1    0    0    -1  
$EndComp
$Comp
L R_Small R6
U 1 1 5855E6AA
P 4050 5200
F 0 "R6" V 4100 5300 50  0000 L CNN
F 1 "10K" V 4100 5050 50  0000 L CNN
F 2 "Resistors_SMD:R_0805_HandSoldering" H 4050 5200 50  0001 C CNN
F 3 "" H 4050 5200 50  0000 C CNN
	1    4050 5200
	-1   0    0    1   
$EndComp
$Comp
L Led_Small D3
U 1 1 5855E6B0
P 4050 5500
F 0 "D3" H 4000 5625 50  0000 L CNN
F 1 "LED" H 3875 5400 50  0000 L CNN
F 2 "LEDs:LED_0805" V 4050 5500 50  0001 C CNN
F 3 "" V 4050 5500 50  0000 C CNN
	1    4050 5500
	0    -1   -1   0   
$EndComp
$Comp
L GND #PWR011
U 1 1 5855E6B6
P 4050 5700
F 0 "#PWR011" H 4050 5450 50  0001 C CNN
F 1 "GND" H 4050 5550 50  0000 C CNN
F 2 "" H 4050 5700 50  0000 C CNN
F 3 "" H 4050 5700 50  0000 C CNN
	1    4050 5700
	1    0    0    -1  
$EndComp
$Comp
L R_Small R4
U 1 1 5855F4BF
P 3650 5200
F 0 "R4" V 3700 5300 50  0000 L CNN
F 1 "10K" V 3700 5050 50  0000 L CNN
F 2 "Resistors_SMD:R_0805_HandSoldering" H 3650 5200 50  0001 C CNN
F 3 "" H 3650 5200 50  0000 C CNN
	1    3650 5200
	-1   0    0    1   
$EndComp
$Comp
L Led_Small D1
U 1 1 5855F4C5
P 3650 5500
F 0 "D1" H 3600 5625 50  0000 L CNN
F 1 "LED" H 3475 5400 50  0000 L CNN
F 2 "LEDs:LED_0805" V 3650 5500 50  0001 C CNN
F 3 "" V 3650 5500 50  0000 C CNN
	1    3650 5500
	0    -1   -1   0   
$EndComp
$Comp
L GND #PWR012
U 1 1 5855F4CB
P 3650 5700
F 0 "#PWR012" H 3650 5450 50  0001 C CNN
F 1 "GND" H 3650 5550 50  0000 C CNN
F 2 "" H 3650 5700 50  0000 C CNN
F 3 "" H 3650 5700 50  0000 C CNN
	1    3650 5700
	1    0    0    -1  
$EndComp
$Comp
L R_Small R5
U 1 1 5855FDBA
P 3850 5200
F 0 "R5" V 3900 5300 50  0000 L CNN
F 1 "10K" V 3900 5050 50  0000 L CNN
F 2 "Resistors_SMD:R_0805_HandSoldering" H 3850 5200 50  0001 C CNN
F 3 "" H 3850 5200 50  0000 C CNN
	1    3850 5200
	-1   0    0    1   
$EndComp
$Comp
L Led_Small D2
U 1 1 5855FDC0
P 3850 5500
F 0 "D2" H 3800 5625 50  0000 L CNN
F 1 "LED" H 3675 5400 50  0000 L CNN
F 2 "LEDs:LED_0805" V 3850 5500 50  0001 C CNN
F 3 "" V 3850 5500 50  0000 C CNN
	1    3850 5500
	0    -1   -1   0   
$EndComp
$Comp
L GND #PWR013
U 1 1 5855FDC6
P 3850 5700
F 0 "#PWR013" H 3850 5450 50  0001 C CNN
F 1 "GND" H 3850 5550 50  0000 C CNN
F 2 "" H 3850 5700 50  0000 C CNN
F 3 "" H 3850 5700 50  0000 C CNN
	1    3850 5700
	1    0    0    -1  
$EndComp
$Comp
L R_Small R12
U 1 1 58563528
P 2000 6500
F 0 "R12" V 2050 6600 50  0000 L CNN
F 1 "10K" V 2050 6350 50  0000 L CNN
F 2 "Resistors_SMD:R_0805_HandSoldering" H 2000 6500 50  0001 C CNN
F 3 "" H 2000 6500 50  0000 C CNN
	1    2000 6500
	0    -1   -1   0   
$EndComp
$Comp
L Led_Small D6
U 1 1 5856352E
P 1700 6500
F 0 "D6" H 1650 6625 50  0000 L CNN
F 1 "LED" H 1525 6400 50  0000 L CNN
F 2 "LEDs:LED_0805" V 1700 6500 50  0001 C CNN
F 3 "" V 1700 6500 50  0000 C CNN
	1    1700 6500
	1    0    0    -1  
$EndComp
$Comp
L GND #PWR014
U 1 1 58563534
P 1500 6500
F 0 "#PWR014" H 1500 6250 50  0001 C CNN
F 1 "GND" H 1500 6350 50  0000 C CNN
F 2 "" H 1500 6500 50  0000 C CNN
F 3 "" H 1500 6500 50  0000 C CNN
	1    1500 6500
	0    1    1    0   
$EndComp
$Comp
L R_Small R13
U 1 1 5856353C
P 3700 7050
F 0 "R13" V 3750 7150 50  0000 L CNN
F 1 "10K" V 3750 6900 50  0000 L CNN
F 2 "Resistors_SMD:R_0805_HandSoldering" H 3700 7050 50  0001 C CNN
F 3 "" H 3700 7050 50  0000 C CNN
	1    3700 7050
	-1   0    0    1   
$EndComp
$Comp
L Led_Small D7
U 1 1 58563542
P 3700 7350
F 0 "D7" H 3650 7475 50  0000 L CNN
F 1 "LED" H 3525 7250 50  0000 L CNN
F 2 "LEDs:LED_0805" V 3700 7350 50  0001 C CNN
F 3 "" V 3700 7350 50  0000 C CNN
	1    3700 7350
	0    -1   -1   0   
$EndComp
$Comp
L GND #PWR015
U 1 1 58563548
P 3700 7550
F 0 "#PWR015" H 3700 7300 50  0001 C CNN
F 1 "GND" H 3700 7400 50  0000 C CNN
F 2 "" H 3700 7550 50  0000 C CNN
F 3 "" H 3700 7550 50  0000 C CNN
	1    3700 7550
	1    0    0    -1  
$EndComp
Wire Wire Line
	1250 7100 1300 7100
Wire Wire Line
	1300 7000 1300 7500
Wire Wire Line
	850  7350 3300 7350
Wire Wire Line
	850  7300 850  7400
Wire Wire Line
	1250 7000 1300 7000
Connection ~ 1300 7100
Wire Wire Line
	2850 7350 2850 7000
Connection ~ 1300 7350
Wire Wire Line
	3150 6500 4250 6500
Wire Wire Line
	3150 6300 3150 6500
Wire Wire Line
	3150 6350 2400 6350
Wire Wire Line
	2400 6350 2400 6700
Connection ~ 2400 6700
Wire Wire Line
	3650 6600 4250 6600
Wire Wire Line
	1250 6800 1400 6800
Wire Wire Line
	1400 6900 1250 6900
Wire Wire Line
	3600 3700 5150 3700
Wire Wire Line
	4400 3200 4750 3200
Wire Wire Line
	4750 3300 4500 3300
Wire Wire Line
	3600 3800 5150 3800
Wire Wire Line
	1750 3200 2400 3200
Wire Wire Line
	2300 4350 2300 4450
Wire Wire Line
	1950 4400 2400 4400
Wire Wire Line
	2400 4100 2300 4100
Wire Wire Line
	2300 3800 2400 3800
Wire Wire Line
	2400 3700 2300 3700
Connection ~ 2300 4400
Wire Wire Line
	2300 4100 2300 4150
Wire Wire Line
	1950 3200 1950 3850
Connection ~ 1950 3200
Wire Wire Line
	2300 3400 2400 3400
Wire Wire Line
	3300 7350 3300 7150
Connection ~ 2850 7350
Wire Wire Line
	3300 6950 3300 6700
Connection ~ 3300 6700
Wire Wire Line
	2250 6900 2250 6700
Connection ~ 2250 6700
Wire Wire Line
	2250 7100 2250 7350
Connection ~ 2250 7350
Wire Wire Line
	1850 6900 1850 6700
Connection ~ 1850 6700
Wire Wire Line
	1850 7100 1850 7350
Connection ~ 1850 7350
Connection ~ 4400 3700
Connection ~ 4500 3800
Wire Wire Line
	5350 3700 5450 3700
Wire Wire Line
	5450 3800 5350 3800
Wire Wire Line
	5750 3700 5800 3700
Wire Wire Line
	5800 3700 5800 3800
Wire Wire Line
	5800 3800 5750 3800
Wire Wire Line
	6000 3750 5800 3750
Connection ~ 5800 3750
Wire Wire Line
	3650 3200 3600 3200
Wire Wire Line
	3750 2400 3750 3300
Wire Wire Line
	3750 3300 3600 3300
Wire Wire Line
	1250 6700 2550 6700
Wire Wire Line
	1950 4400 1950 4050
Wire Wire Line
	1950 3400 2000 3400
Connection ~ 1950 3400
Wire Wire Line
	4400 3000 4750 3000
Wire Wire Line
	3650 2400 3650 3200
Wire Wire Line
	3850 2400 3850 2600
Wire Wire Line
	3550 2500 3550 2400
Wire Wire Line
	4500 4200 5450 4200
Wire Wire Line
	4400 4300 5450 4300
Wire Wire Line
	5250 4100 5450 4100
Wire Wire Line
	5450 4400 5250 4400
Wire Wire Line
	6450 3450 6600 3450
Wire Wire Line
	6250 3450 6200 3450
Wire Wire Line
	6200 3450 6200 3350
Wire Wire Line
	6200 3350 6250 3350
Wire Wire Line
	6450 3150 6600 3150
Wire Wire Line
	6250 3150 6200 3150
Wire Wire Line
	6200 3150 6200 3050
Wire Wire Line
	6200 3050 6250 3050
Wire Wire Line
	6450 2850 6600 2850
Wire Wire Line
	6250 2850 6200 2850
Wire Wire Line
	6200 2850 6200 2750
Wire Wire Line
	6200 2750 6250 2750
Wire Wire Line
	5700 3100 5950 3100
Wire Wire Line
	5950 3100 5950 2800
Wire Wire Line
	5950 2800 6200 2800
Connection ~ 6200 2800
Wire Wire Line
	6200 3100 6050 3100
Wire Wire Line
	6050 3100 6050 3200
Wire Wire Line
	6050 3200 5700 3200
Connection ~ 6200 3100
Wire Wire Line
	6200 3400 6050 3400
Wire Wire Line
	6050 3400 6050 3300
Wire Wire Line
	6050 3300 5700 3300
Connection ~ 6200 3400
Wire Wire Line
	6450 2750 7000 2750
Wire Wire Line
	7000 2750 7000 3350
Wire Wire Line
	6450 3050 7200 3050
Wire Wire Line
	7000 3350 6450 3350
Connection ~ 7000 3050
Wire Wire Line
	4600 2900 4750 2900
Wire Wire Line
	5700 2900 5750 2900
Wire Wire Line
	5750 2900 5750 2500
Wire Wire Line
	5750 2500 5800 2500
Wire Wire Line
	6000 2500 6150 2500
Wire Wire Line
	6350 2500 6550 2500
Wire Wire Line
	4250 5700 4250 5600
Wire Wire Line
	4250 5400 4250 5300
Wire Wire Line
	4050 5700 4050 5600
Wire Wire Line
	4050 5400 4050 5300
Wire Wire Line
	4050 4200 3600 4200
Wire Wire Line
	4250 4100 3600 4100
Wire Wire Line
	3650 5700 3650 5600
Wire Wire Line
	3650 5400 3650 5300
Wire Wire Line
	3600 4300 3850 4300
Wire Wire Line
	3600 4400 3650 4400
Wire Wire Line
	3850 5700 3850 5600
Wire Wire Line
	3850 5400 3850 5300
Wire Wire Line
	1500 6500 1600 6500
Wire Wire Line
	1800 6500 1900 6500
Wire Wire Line
	3700 7550 3700 7450
Wire Wire Line
	3700 7250 3700 7150
Wire Wire Line
	2100 6500 2400 6500
Connection ~ 2400 6500
Wire Wire Line
	3700 6700 3700 6950
Connection ~ 3700 6700
$Comp
L CONN_01X01 P7
U 1 1 58559E58
P 5700 6600
F 0 "P7" H 5700 6700 50  0000 C CNN
F 1 "M3Hole" V 5800 6600 50  0000 C CNN
F 2 "Mounting_Holes:MountingHole_3.2mm_M3" H 5700 6600 50  0001 C CNN
F 3 "" H 5700 6600 50  0000 C CNN
	1    5700 6600
	0    -1   -1   0   
$EndComp
$Comp
L CONN_01X01 P8
U 1 1 5855A16E
P 6000 6600
F 0 "P8" H 6000 6700 50  0000 C CNN
F 1 "M3Hole" V 6100 6600 50  0000 C CNN
F 2 "Mounting_Holes:MountingHole_3.2mm_M3" H 6000 6600 50  0001 C CNN
F 3 "" H 6000 6600 50  0000 C CNN
	1    6000 6600
	0    -1   -1   0   
$EndComp
$Comp
L CONN_01X01 P9
U 1 1 5855A201
P 6300 6600
F 0 "P9" H 6300 6700 50  0000 C CNN
F 1 "M3Hole" V 6400 6600 50  0000 C CNN
F 2 "Mounting_Holes:MountingHole_3.2mm_M3" H 6300 6600 50  0001 C CNN
F 3 "" H 6300 6600 50  0000 C CNN
	1    6300 6600
	0    -1   -1   0   
$EndComp
$Comp
L CONN_01X01 P10
U 1 1 5855A29D
P 6600 6600
F 0 "P10" H 6600 6700 50  0000 C CNN
F 1 "M3Hole" V 6700 6600 50  0000 C CNN
F 2 "Mounting_Holes:MountingHole_3.2mm_M3" H 6600 6600 50  0001 C CNN
F 3 "" H 6600 6600 50  0000 C CNN
	1    6600 6600
	0    -1   -1   0   
$EndComp
$Comp
L GND #PWR016
U 1 1 5855A336
P 6150 6950
F 0 "#PWR016" H 6150 6700 50  0001 C CNN
F 1 "GND" H 6150 6800 50  0000 C CNN
F 2 "" H 6150 6950 50  0000 C CNN
F 3 "" H 6150 6950 50  0000 C CNN
	1    6150 6950
	1    0    0    -1  
$EndComp
Wire Wire Line
	5700 6800 5700 6850
Wire Wire Line
	5700 6850 6600 6850
Wire Wire Line
	6150 6850 6150 6950
Wire Wire Line
	6000 6800 6000 6850
Connection ~ 6000 6850
Wire Wire Line
	6300 6850 6300 6800
Connection ~ 6150 6850
Wire Wire Line
	6600 6850 6600 6800
Connection ~ 6300 6850
$Comp
L CONN_01X01 P5
U 1 1 585E5F3C
P 3150 6100
F 0 "P5" H 3150 6200 50  0000 C CNN
F 1 "5VMeasuringPoint" V 3250 6100 50  0000 C CNN
F 2 "Measurement_Points:Measurement_Point_Square-SMD-Pad_Small" H 3150 6100 50  0001 C CNN
F 3 "" H 3150 6100 50  0000 C CNN
	1    3150 6100
	0    -1   -1   0   
$EndComp
$Comp
L CONN_01X01 P11
U 1 1 585E5F42
P 4150 7000
F 0 "P11" H 4150 7100 50  0000 C CNN
F 1 "3.3VMeasuringPoint" V 4250 7000 50  0000 C CNN
F 2 "Measurement_Points:Measurement_Point_Square-SMD-Pad_Small" H 4150 7000 50  0001 C CNN
F 3 "" H 4150 7000 50  0000 C CNN
	1    4150 7000
	0    1    1    0   
$EndComp
Connection ~ 3150 6350
Wire Wire Line
	4150 6800 4150 6700
Connection ~ 4150 6700
Wire Wire Line
	4250 6700 3150 6700
$Comp
L Jumper_NO_Small JP6
U 1 1 585E8BA3
P 3650 4900
F 0 "JP6" H 3650 4980 50  0000 C CNN
F 1 "Jumper_NO_Small" H 3660 4840 50  0001 C CNN
F 2 "Pin_Headers:Pin_Header_Straight_1x02" H 3650 4900 50  0001 C CNN
F 3 "" H 3650 4900 50  0000 C CNN
	1    3650 4900
	0    1    1    0   
$EndComp
$Comp
L Jumper_NO_Small JP7
U 1 1 585E8C69
P 3850 4900
F 0 "JP7" H 3850 4980 50  0000 C CNN
F 1 "Jumper_NO_Small" H 3860 4840 50  0001 C CNN
F 2 "Pin_Headers:Pin_Header_Straight_1x02" H 3850 4900 50  0001 C CNN
F 3 "" H 3850 4900 50  0000 C CNN
	1    3850 4900
	0    1    1    0   
$EndComp
$Comp
L Jumper_NO_Small JP8
U 1 1 585E8D0A
P 4050 4900
F 0 "JP8" H 4050 4980 50  0000 C CNN
F 1 "Jumper_NO_Small" H 4060 4840 50  0001 C CNN
F 2 "Pin_Headers:Pin_Header_Straight_1x02" H 4050 4900 50  0001 C CNN
F 3 "" H 4050 4900 50  0000 C CNN
	1    4050 4900
	0    1    1    0   
$EndComp
$Comp
L Jumper_NO_Small JP9
U 1 1 585E8DAE
P 4250 4900
F 0 "JP9" H 4250 4980 50  0000 C CNN
F 1 "Jumper_NO_Small" H 4260 4840 50  0001 C CNN
F 2 "Pin_Headers:Pin_Header_Straight_1x02" H 4250 4900 50  0001 C CNN
F 3 "" H 4250 4900 50  0000 C CNN
	1    4250 4900
	0    1    1    0   
$EndComp
$Comp
L CONN_01X04 P2
U 1 1 585E8F1B
P 3100 5150
F 0 "P2" H 3100 5400 50  0000 C CNN
F 1 "CONN_01X04" V 3200 5150 50  0000 C CNN
F 2 "Pin_Headers:Pin_Header_Straight_1x04" H 3100 5150 50  0001 C CNN
F 3 "" H 3100 5150 50  0000 C CNN
	1    3100 5150
	0    1    1    0   
$EndComp
Wire Wire Line
	3650 5100 3650 5000
Wire Wire Line
	3850 5100 3850 5000
Wire Wire Line
	4050 5100 4050 5000
Wire Wire Line
	4250 5100 4250 5000
Wire Wire Line
	3650 4400 3650 4800
Wire Wire Line
	3850 4300 3850 4800
Wire Wire Line
	4050 4800 4050 4200
Wire Wire Line
	4250 4800 4250 4100
Wire Wire Line
	3250 4950 3250 4750
Wire Wire Line
	3250 4750 3650 4750
Connection ~ 3650 4750
Wire Wire Line
	3150 4950 3150 4700
Wire Wire Line
	3150 4700 3850 4700
Connection ~ 3850 4700
Wire Wire Line
	3050 4950 3050 4650
Wire Wire Line
	3050 4650 4050 4650
Connection ~ 4050 4650
Wire Wire Line
	2950 4950 2950 4600
Wire Wire Line
	2950 4600 4250 4600
Connection ~ 4250 4600
Wire Wire Line
	4500 3300 4500 4200
Wire Wire Line
	4400 4300 4400 3200
$Comp
L CONN_01X01 P12
U 1 1 585ECC8B
P 850 7600
F 0 "P12" H 850 7700 50  0000 C CNN
F 1 "GNDMeasuringPoint" V 950 7600 50  0000 C CNN
F 2 "Measurement_Points:Measurement_Point_Square-SMD-Pad_Small" H 850 7600 50  0001 C CNN
F 3 "" H 850 7600 50  0000 C CNN
	1    850  7600
	0    1    1    0   
$EndComp
Connection ~ 850  7350
$EndSCHEMATC
