(module AMPHENOL-114-00841-68 (layer F.Cu) (tedit 54BC0F38)
  (fp_text reference AMPHENOL-114-00841-68 (at 0 -6.5) (layer F.SilkS)
    (effects (font (size 0.6 0.6) (thickness 0.1)))
  )
  (fp_text value VAL** (at 0 0) (layer F.SilkS)
    (effects (font (size 0.6 0.6) (thickness 0.1)))
  )
  (fp_line (start -5.5 5.5) (end -5.5 9.625) (layer Cmts.User) (width 0.15))
  (fp_line (start -5.5 9.625) (end 5.5 9.625) (layer Cmts.User) (width 0.15))
  (fp_line (start 5.5 9.625) (end 5.5 5.5) (layer Cmts.User) (width 0.15))
  (fp_line (start -7 -7) (end 7 -7) (layer Cmts.User) (width 0.15))
  (fp_line (start 7 -7) (end 7 9.625) (layer Cmts.User) (width 0.15))
  (fp_line (start -7 -7) (end -7 9.625) (layer Cmts.User) (width 0.15))
  (fp_line (start -5.975 -5.975) (end -5.975 5.475) (layer F.SilkS) (width 0.15))
  (fp_line (start -5.975 5.475) (end 5.975 5.475) (layer F.SilkS) (width 0.15))
  (fp_line (start 5.975 5.475) (end 5.975 -5.975) (layer F.SilkS) (width 0.15))
  (fp_line (start -5.975 -5.975) (end 5.975 -5.975) (layer F.SilkS) (width 0.15))
  (pad 1 smd rect (at 3.2 5.05) (size 0.7 1.75) (layers F.Cu F.Paste F.Mask))
  (pad 2 smd rect (at 2.1 5.05) (size 0.7 1.75) (layers F.Cu F.Paste F.Mask))
  (pad 3 smd rect (at 1 5.05) (size 0.7 1.75) (layers F.Cu F.Paste F.Mask))
  (pad 4 smd rect (at -0.1 5.05) (size 0.7 1.75) (layers F.Cu F.Paste F.Mask))
  (pad 5 smd rect (at -1.2 5.05) (size 0.7 1.75) (layers F.Cu F.Paste F.Mask))
  (pad 6 smd rect (at -2.3 5.05) (size 0.7 1.75) (layers F.Cu F.Paste F.Mask))
  (pad 7 smd rect (at -3.4 5.05) (size 0.7 1.75) (layers F.Cu F.Paste F.Mask))
  (pad 8 smd rect (at -4.5 5.05) (size 0.7 1.75) (layers F.Cu F.Paste F.Mask))
  (pad "" smd rect (at -5.8 4.925) (size 1.3 1.5) (layers F.Cu F.Paste F.Mask))
  (pad "" smd rect (at 5.65 4.925) (size 1.5 1.5) (layers F.Cu F.Paste F.Mask))
  (pad "" smd rect (at -5.975 -2.675) (size 0.8 1.5) (layers F.Cu F.Paste F.Mask))
  (pad CD smd rect (at -5.65 -4.175) (size 1.5 0.8) (layers F.Cu F.Paste F.Mask))
  (pad CD smd rect (at 5.5 -5.75) (size 1 1.55) (layers F.Cu F.Paste F.Mask))
  (pad "" smd rect (at 5.975 -3.325) (size 0.8 1.4) (layers F.Cu F.Paste F.Mask))
)